﻿,id,title,excerpt,anonymousSchool,anonymousDepartment,pinned,forumId,replyId,createdAt,updatedAt,commentCount,likeCount,withNickname,tags,topics,meta,forumName,forumAlias,nsfw,gender,school,department,replyTitle,reportReason,mediaMeta,reactions,hidden,customStyle,isSuspiciousAccount,layout,withImages,withVideos,media,reportReasonText,elapsedTime,postAvatar
0,233986263,北京女走路突然蹲下，檢查竟是感染冠狀病毒【推特影片】,原推連結：,False,False,False,8cb36269-9d1a-4044-962a-e45126b8dbda,,2020-07-03T01:19:53.618Z,2020-07-03T01:19:53.618Z,0,1,False,[],"['武漢肺炎', '時事', '2019新型冠狀病毒', '中國', '防疫']",{'layout': 'classic'},武漢肺炎,2019_ncov,False,M,渥太華大學,電機系,,,"[{'id': 'c2a49f15-d0ca-4c04-bb1e-a6089c5d1446', 'url': 'https://i.imgur.com/ecn07J0l.jpg', 'normalizedUrl': 'https://i.imgur.com/ecn07J0l.jpg', 'thumbnail': 'https://i.imgur.com/ecn07J0l.jpg', 'type': 'image/thumbnail', 'tags': ['ANNOTATED'], 'createdAt': '2020-07-03T01:19:53.618Z', 'updatedAt': '2020-07-03T01:19:53.618Z'}, {'id': 'c2a49f15-d0ca-4c04-bb1e-a6089c5d1446', 'url': 'https://i.imgur.com/ecn07J0.png', 'normalizedUrl': 'https://imgur.com/ecn07J0', 'thumbnail': 'https://i.imgur.com/ecn07J0l.jpg', 'type': 'image/imgur', 'tags': ['ANNOTATED'], 'createdAt': '2020-07-03T01:19:53.618Z', 'updatedAt': '2020-07-03T01:19:53.618Z'}]","[{'id': '286f599c-f86a-4932-82f0-f5a06f1eca03', 'count': 1}]",False,,False,classic,True,False,[{'url': 'https://i.imgur.com/ecn07J0.png'}],,4970,
0,233984649,武漢肺炎引發血栓 法國62歲病患勃起4小時,武漢肺炎引發血栓 法國62歲病患勃起4小時，（中央社紐約1日綜合外電報導）法國一名62歲的武漢肺炎患者因出現血栓而勃起4小時，被送進加護病房救治，醫生幫患者冰敷無效後，最後只好用針頭幫陰莖放血。醫生警,False,False,False,8cb36269-9d1a-4044-962a-e45126b8dbda,,2020-07-02T15:22:44.880Z,2020-07-02T15:22:44.880Z,4,2,True,[],"['勃起', '武漢肺炎', '法國', '2019新型冠狀病毒', '疫情']",{'layout': 'classic'},武漢肺炎,2019_ncov,False,M,中山醫學大學 醫學系,truespace,,,[],"[{'id': '286f599c-f86a-4932-82f0-f5a06f1eca03', 'count': 1}, {'id': 'e8e6bc5d-41b0-4129-b134-97507523d7ff', 'count': 1}]",False,,False,classic,False,False,[],,40800,
0,233984109,中國一女子吃飯時得知肺炎確診，當場痛哭，民眾紛紛躲避,中午，北京萬達廣場。一位正在吃味千拉麵的女士，接到電話，自己核酸檢測結果陽性，當場崩潰。萬達廣場現在也封了。影片：,False,False,False,8cb36269-9d1a-4044-962a-e45126b8dbda,,2020-07-02T14:02:07.622Z,2020-07-02T14:02:07.622Z,1,4,True,[],[],{'layout': 'classic'},武漢肺炎,2019_ncov,False,M,皇...皇上，不好了！,jasonddd,,,[],"[{'id': '286f599c-f86a-4932-82f0-f5a06f1eca03', 'count': 4}]",False,,False,classic,False,False,[],,45638,
0,233983904,北京疫情嚴峻內部文件泄底 😱豬傳人!中國新病毒人傳人逆轉?🦉川普:我對中共越來越憤怒 美參眾兩院提案審查醫藥供應鏈 譴責中共盜竊新冠疫苗研究,🧡00：18   中共病毒疫情轉壞，川普：我對中共感到越來越憤怒，🧡01：12   美國參眾兩院關注醫藥供應，譴責中共盜竊新冠疫苗研究，🧡01：56   內部文件曝北京疫情嚴重，拒援鄂醫生回京，,False,True,False,8cb36269-9d1a-4044-962a-e45126b8dbda,,2020-07-02T13:31:41.201Z,2020-07-02T13:31:41.201Z,0,0,False,[],"['武漢肺炎', '北京']",{'layout': 'classic'},武漢肺炎,2019_ncov,False,M,中原大學,,,,"[{'id': '91145fdc-7f12-44fa-a256-0f2e471c7e38', 'url': 'https://img.youtube.com/vi/32daGvM64ag/hqdefault.jpg', 'normalizedUrl': 'https://img.youtube.com/vi/32daGvM64ag/hqdefault.jpg', 'thumbnail': 'https://img.youtube.com/vi/32daGvM64ag/hqdefault.jpg', 'type': 'image/thumbnail', 'tags': ['ANNOTATED'], 'createdAt': '2020-07-02T13:31:41.201Z', 'updatedAt': '2020-07-02T13:31:41.201Z'}, {'id': '91145fdc-7f12-44fa-a256-0f2e471c7e38', 'url': 'https://www.youtube.com/watch?v=32daGvM64ag', 'normalizedUrl': 'https://www.youtube.com/watch?v=32daGvM64ag', 'thumbnail': 'https://img.youtube.com/vi/32daGvM64ag/hqdefault.jpg', 'type': 'video/youtube', 'tags': ['ANNOTATED'], 'createdAt': '2020-07-02T13:31:41.201Z', 'updatedAt': '2020-07-02T13:31:41.201Z'}]",[],False,,False,classic,False,False,[],,47466,
0,233981663,墨西哥返台確診「搭商務艙全程戴口罩」　座位圖曝光,中央流行疫情指揮中心今（2）日公布國內新增1例境外移入COVID-19（武漢肺炎）病例（案448），為50多歲男性，今（2020）年2月初至墨西哥工作，昨（1）日返國入境。醫療應變組副組長羅一鈞說明，,False,True,False,8cb36269-9d1a-4044-962a-e45126b8dbda,,2020-07-02T07:08:35.153Z,2020-07-02T07:08:35.153Z,0,6,False,[],"['口罩', '武漢肺炎', '時事', '台灣', '新聞']",{'layout': 'classic'},武漢肺炎,2019_ncov,False,M,真理大學,,,,"[{'id': '02101ad4-8846-4ae4-816b-08510a74c079', 'url': 'https://i.imgur.com/hdWK8pNl.jpg', 'normalizedUrl': 'https://i.imgur.com/hdWK8pNl.jpg', 'thumbnail': 'https://i.imgur.com/hdWK8pNl.jpg', 'type': 'image/thumbnail', 'tags': ['ANNOTATED'], 'createdAt': '2020-07-02T07:08:35.153Z', 'updatedAt': '2020-07-02T07:08:35.153Z'}, {'id': '02101ad4-8846-4ae4-816b-08510a74c079', 'url': 'https://i.imgur.com/hdWK8pN.jpg', 'normalizedUrl': 'https://imgur.com/hdWK8pN', 'thumbnail': 'https://i.imgur.com/hdWK8pNl.jpg', 'type': 'image/imgur', 'tags': ['ANNOTATED'], 'createdAt': '2020-07-02T07:08:35.153Z', 'updatedAt': '2020-07-02T07:08:35.153Z'}, {'id': 'e7c253ea-1018-46f2-a12d-39ce15f482cc', 'url': 'https://i.imgur.com/Qvslf3R.jpg', 'normalizedUrl': 'https://imgur.com/Qvslf3R', 'thumbnail': 'https://i.imgur.com/Qvslf3Rl.jpg', 'type': 'image/imgur', 'tags': ['ANNOTATED'], 'createdAt': '2020-07-02T07:08:35.153Z', 'updatedAt': '2020-07-02T07:08:35.153Z'}]","[{'id': '286f599c-f86a-4932-82f0-f5a06f1eca03', 'count': 6}]",False,,False,classic,True,False,"[{'url': 'https://i.imgur.com/hdWK8pN.jpg'}, {'url': 'https://i.imgur.com/Qvslf3R.jpg'}]",,70454,
0,233981370,武漢肺炎境外移入+1！指揮中心：個案戴N95口罩、穿防護衣返台,️ 新增確診個案自戴N95、無症狀 機場通報後確診，今日確診之個案為今（2020）年2月初派去墨西哥工作的國人，於當地時間6月30日從美國回台，並於7月1日抵台。6月17日-22日期間有頭痛、咳嗽、四,False,False,False,8cb36269-9d1a-4044-962a-e45126b8dbda,,2020-07-02T06:12:16.350Z,2020-07-02T06:12:16.350Z,18,11,True,[],"['武漢肺炎', '口罩', '防疫']",{'layout': 'classic'},武漢肺炎,2019_ncov,False,M,停班停課最新通知,taiwan.alerts,,,"[{'id': '6ef6bb95-0c1d-4a75-a030-a73ef157779b', 'url': 'https://i.imgur.com/YVfqCWal.jpg', 'normalizedUrl': 'https://i.imgur.com/YVfqCWal.jpg', 'thumbnail': 'https://i.imgur.com/YVfqCWal.jpg', 'type': 'image/thumbnail', 'tags': ['ANNOTATED'], 'createdAt': '2020-07-02T06:12:16.350Z', 'updatedAt': '2020-07-02T06:12:16.350Z'}, {'id': '6ef6bb95-0c1d-4a75-a030-a73ef157779b', 'url': 'https://i.imgur.com/YVfqCWa.jpg', 'normalizedUrl': 'https://imgur.com/YVfqCWa', 'thumbnail': 'https://i.imgur.com/YVfqCWal.jpg', 'type': 'image/imgur', 'tags': ['ANNOTATED'], 'createdAt': '2020-07-02T06:12:16.350Z', 'updatedAt': '2020-07-02T06:12:16.350Z'}]","[{'id': '286f599c-f86a-4932-82f0-f5a06f1eca03', 'count': 10}, {'id': 'aa0d425f-d530-4478-9a77-fe3aedc79eea', 'count': 1}]",False,,False,classic,True,False,[{'url': 'https://i.imgur.com/YVfqCWa.jpg'}],,73834,
