﻿,id,title,excerpt,anonymousSchool,anonymousDepartment,pinned,forumId,replyId,createdAt,updatedAt,commentCount,likeCount,withNickname,tags,topics,meta,forumName,forumAlias,nsfw,gender,school,replyTitle,reportReason,mediaMeta,reactions,hidden,customStyle,isSuspiciousAccount,layout,withImages,withVideos,media,reportReasonText,elapsedTime,postAvatar,department
0,233624383,今天很多app一直閃退？,有人給我一樣嗎？一開始是開kkbox閃退，重新開機之後蝦皮也打不開⋯我試了三四個app都打不開（目前Line、ig、fb我打得開）是我手機問題還是大家都這樣⋯？,False,True,False,0e0bc27b-8c69-4149-b229-04e7a865a09d,,2020-05-06T23:00:01.530Z,2020-05-06T23:00:01.530Z,39,17,False,['HIDE_THUMBNAIL'],['手機'],{'layout': 'classic'},3C,3c,False,M,中臺科技大學,,,[],"[{'id': '286f599c-f86a-4932-82f0-f5a06f1eca03', 'count': 15}, {'id': '514c2569-fd53-4d9d-a415-bf0f88e7329f', 'count': 2}]",False,,False,classic,False,False,[],,9610,,
0,233623579,台哥大的網速,這是我的方案 是4G吃到飽不降速，但是經過剛剛測試得到下面的網速...，有人也跟我一樣嗎？這樣的問題是地區關係嗎？,False,True,False,0e0bc27b-8c69-4149-b229-04e7a865a09d,,2020-05-06T17:08:16.904Z,2020-05-06T17:08:16.904Z,6,0,False,[],"['網速', '手機']",{'layout': 'classic'},3C,3c,False,M,靜宜大學,,,"[{'id': 'b83d9cee-246e-463c-a75a-519927232083', 'url': 'https://megapx-assets.dcard.tw/images/0ff5d376-ff58-4274-b8d9-fc0c4b368169/160.jpeg', 'normalizedUrl': 'https://megapx-assets.dcard.tw/images/0ff5d376-ff58-4274-b8d9-fc0c4b368169/160.jpeg', 'thumbnail': 'https://megapx-assets.dcard.tw/images/0ff5d376-ff58-4274-b8d9-fc0c4b368169/160.jpeg', 'type': 'image/thumbnail', 'tags': [], 'createdAt': '2020-05-06T17:08:16.904Z', 'updatedAt': '2020-05-06T17:08:16.904Z', 'width': 160, 'height': 37}, {'id': 'b83d9cee-246e-463c-a75a-519927232083', 'url': 'https://megapx-assets.dcard.tw/images/0ff5d376-ff58-4274-b8d9-fc0c4b368169/640.jpeg', 'normalizedUrl': 'https://megapx.dcard.tw/v1/images/0ff5d376-ff58-4274-b8d9-fc0c4b368169', 'thumbnail': 'https://megapx-assets.dcard.tw/images/0ff5d376-ff58-4274-b8d9-fc0c4b368169/160.jpeg', 'type': 'image/megapx', 'tags': [], 'createdAt': '2020-05-06T17:08:16.904Z', 'updatedAt': '2020-05-06T17:08:16.904Z', 'width': 1242, 'height': 291}, {'id': '68bdf69f-b9b3-41ec-8ff6-0293a5a2f166', 'url': 'https://megapx-assets.dcard.tw/images/75368257-f110-4f70-ae3e-7040365e4c73/640.jpeg', 'normalizedUrl': 'https://megapx.dcard.tw/v1/images/75368257-f110-4f70-ae3e-7040365e4c73', 'thumbnail': 'https://megapx-assets.dcard.tw/images/75368257-f110-4f70-ae3e-7040365e4c73/160.jpeg', 'type': 'image/megapx', 'tags': [], 'createdAt': '2020-05-06T17:08:16.904Z', 'updatedAt': '2020-05-06T17:08:16.904Z', 'width': 1242, 'height': 713}, {'id': '031fbc56-425e-4872-8b5d-9c32f3f742fa', 'url': 'https://megapx-assets.dcard.tw/images/155e011b-4ef0-4cce-a447-acba5c70cce9/640.jpeg', 'normalizedUrl': 'https://megapx.dcard.tw/v1/images/155e011b-4ef0-4cce-a447-acba5c70cce9', 'thumbnail': 'https://megapx-assets.dcard.tw/images/155e011b-4ef0-4cce-a447-acba5c70cce9/160.jpeg', 'type': 'image/megapx', 'tags': [], 'createdAt': '2020-05-06T17:08:16.904Z', 'updatedAt': '2020-05-06T17:08:16.904Z', 'width': 1242, 'height': 719}, {'id': 'ef02493b-b049-4d73-afc5-c370f8bd6223', 'url': 'https://megapx-assets.dcard.tw/images/a83411b1-2f3c-479c-aeb9-a794572c5d37/640.jpeg', 'normalizedUrl': 'https://megapx.dcard.tw/v1/images/a83411b1-2f3c-479c-aeb9-a794572c5d37', 'thumbnail': 'https://megapx-assets.dcard.tw/images/a83411b1-2f3c-479c-aeb9-a794572c5d37/160.jpeg', 'type': 'image/megapx', 'tags': [], 'createdAt': '2020-05-06T17:08:16.904Z', 'updatedAt': '2020-05-06T17:08:16.904Z', 'width': 1242, 'height': 725}]",[],False,,False,classic,True,False,"[{'url': 'https://megapx-assets.dcard.tw/images/0ff5d376-ff58-4274-b8d9-fc0c4b368169/640.jpeg'}, {'url': 'https://megapx-assets.dcard.tw/images/75368257-f110-4f70-ae3e-7040365e4c73/640.jpeg'}, {'url': 'https://megapx-assets.dcard.tw/images/155e011b-4ef0-4cce-a447-acba5c70cce9/640.jpeg'}, {'url': 'https://megapx-assets.dcard.tw/images/a83411b1-2f3c-479c-aeb9-a794572c5d37/640.jpeg'}]",,30716,,
0,233623518,#問題 LG冷氣遙控器設定,最近家裡換了冷氣，一開始忘了設定時間就直接給他確定下去了，有人知道該怎麼設定遙控器上的時間嗎？謝謝,False,False,False,0e0bc27b-8c69-4149-b229-04e7a865a09d,,2020-05-06T16:57:42.867Z,2020-05-06T16:57:42.867Z,3,1,False,[],"['冷氣', '遙控', '設定', 'LG']",{'layout': 'classic'},3C,3c,False,M,華夏科技大學,,,"[{'id': 'a8236cbe-0d19-459b-9015-b96f81acdd43', 'url': 'https://i.imgur.com/8AgcluPl.jpg', 'normalizedUrl': 'https://i.imgur.com/8AgcluPl.jpg', 'thumbnail': 'https://i.imgur.com/8AgcluPl.jpg', 'type': 'image/thumbnail', 'tags': ['ANNOTATED'], 'createdAt': '2020-05-06T16:57:42.867Z', 'updatedAt': '2020-05-06T16:57:42.867Z'}, {'id': 'a8236cbe-0d19-459b-9015-b96f81acdd43', 'url': 'https://i.imgur.com/8AgcluP.jpg', 'normalizedUrl': 'https://imgur.com/8AgcluP', 'thumbnail': 'https://i.imgur.com/8AgcluPl.jpg', 'type': 'image/imgur', 'tags': ['ANNOTATED'], 'createdAt': '2020-05-06T16:57:42.867Z', 'updatedAt': '2020-05-06T16:57:42.867Z'}]","[{'id': '286f599c-f86a-4932-82f0-f5a06f1eca03', 'count': 1}]",False,,False,classic,True,False,[{'url': 'https://i.imgur.com/8AgcluP.jpg'}],,31352,,資訊管理系
0,233623478,無法安裝程式,請問在安裝程式的時候一直出現這種情況該如何解決，一直顯示還有其他程式在安裝，但是我明明沒有什麼其他東西在安裝，p.s圖片在留言處,False,True,False,0e0bc27b-8c69-4149-b229-04e7a865a09d,,2020-05-06T16:52:30.336Z,2020-05-06T16:53:33.075Z,2,1,False,[],"['電腦', 'Windows']",{'layout': 'classic'},3C,3c,False,M,國立成功大學,,,[],"[{'id': '286f599c-f86a-4932-82f0-f5a06f1eca03', 'count': 1}]",False,,False,classic,False,False,[],,31665,,
0,233623315,電競鍵盤請益,預算大概4千內，主要需求如下，重要性依順序排序，1.因為稍微會流手汗，希望使用一段時間鍵帽不容易油油滑滑的，2.不需要短版，完整即可，3.打字不要太大聲，正常聲音可接受，4.有線即可，麻煩各位提供一些,False,True,False,0e0bc27b-8c69-4149-b229-04e7a865a09d,,2020-05-06T16:33:43.500Z,2020-05-06T16:33:43.500Z,2,2,False,[],"['鍵盤', '電競']",{'layout': 'classic'},3C,3c,False,M,國立中山大學,,,[],"[{'id': '286f599c-f86a-4932-82f0-f5a06f1eca03', 'count': 2}]",False,,False,classic,False,False,[],,32793,,
0,233623055,#請益  手機選擇,要送母親節禮物，想挑6吋以上的，價格1萬5以下，儲存空間128g（常拍照，中、韓國不考慮，1.sony. Xperia. xz3，2.asus.  zenFone. 5z，還有其他推薦旗艦或類旗艦的嗎,False,True,False,0e0bc27b-8c69-4149-b229-04e7a865a09d,,2020-05-06T16:02:53.324Z,2020-05-06T16:02:53.324Z,8,0,False,[],"['手機', 'Android']",{'layout': 'classic'},3C,3c,False,M,環球科技大學,,,[],[],False,,False,classic,False,False,[],,34645,,
0,233622912,AirPods 2,今天用airpods聽歌時，覺得兩邊聲音一邊是配樂一邊是歌曲會環繞，結果把一耳拿掉，另一耳真的只剩配樂..，請問有人也是這樣嗎⋯⋯,False,True,False,0e0bc27b-8c69-4149-b229-04e7a865a09d,,2020-05-06T15:45:30.534Z,2020-05-06T15:45:30.534Z,3,1,False,['HIDE_THUMBNAIL'],"['耳機', 'Airpods2']",{'layout': 'classic'},3C,3c,False,M,國立嘉義大學,,,[],"[{'id': 'aa0d425f-d530-4478-9a77-fe3aedc79eea', 'count': 1}]",False,,False,classic,False,False,[],,35689,,
0,233622688,大家都用什麼字體?,如下圖，是我的字體 也想知道大家都用什麼字體,False,False,False,0e0bc27b-8c69-4149-b229-04e7a865a09d,,2020-05-06T15:14:37.081Z,2020-05-06T15:14:57.704Z,1,1,True,[],"['字體', '手機', 'Android']",{'layout': 'classic'},3C,3c,False,M,Allen ,,,"[{'id': '3442bd45-f945-4890-979a-40cdb2b90066', 'url': 'https://i.imgur.com/F3sAfqfl.jpg', 'normalizedUrl': 'https://i.imgur.com/F3sAfqfl.jpg', 'thumbnail': 'https://i.imgur.com/F3sAfqfl.jpg', 'type': 'image/thumbnail', 'tags': ['ANNOTATED'], 'createdAt': '2020-05-06T15:14:57.704Z', 'updatedAt': '2020-05-06T15:14:57.704Z'}, {'id': '3442bd45-f945-4890-979a-40cdb2b90066', 'url': 'https://i.imgur.com/F3sAfqf.jpg', 'normalizedUrl': 'https://imgur.com/F3sAfqf', 'thumbnail': 'https://i.imgur.com/F3sAfqfl.jpg', 'type': 'image/imgur', 'tags': ['ANNOTATED'], 'createdAt': '2020-05-06T15:14:57.704Z', 'updatedAt': '2020-05-06T15:14:57.704Z'}]","[{'id': 'aa0d425f-d530-4478-9a77-fe3aedc79eea', 'count': 1}]",False,,False,classic,True,False,[{'url': 'https://i.imgur.com/F3sAfqf.jpg'}],,37544,,buret123477
0,233622642,台哥大預購空機是不是會等很久?,#問題 #請益，4/27在台哥大有預購新的SE，但一個多禮拜都毫無音訊，有印象台哥大店家說要等公司配貨，爬文看到有傳聞，買'空機'會比'續約'的久，真有此事嗎？,False,True,False,0e0bc27b-8c69-4149-b229-04e7a865a09d,,2020-05-06T15:08:35.106Z,2020-05-06T15:08:35.106Z,1,0,False,[],"['空機', '台哥', 'iPhone', 'iOS', 'Apple']",{'layout': 'classic'},3C,3c,False,M,國立高雄科技大學,,,[],[],False,,False,classic,False,False,[],,37907,,
0,233622282,#請益。這樣差不多多少呢,i5 -9400f+b365 主機板，ddr4 8gb+240gb固態硬碟，1tb hdd+RTX 2060 8GB 讀顯，DUKE 650W 銅牌，莫托斯 RGB 電競機殼，人家配的 我自己有去原價,False,True,False,0e0bc27b-8c69-4149-b229-04e7a865a09d,,2020-05-06T14:19:46.546Z,2020-05-06T14:19:46.546Z,13,0,False,['HIDE_THUMBNAIL'],"['電腦', '電競玩家都需要的好東西']",{'layout': 'classic'},3C,3c,False,F,國立勤益科技大學,,,[],[],False,,False,classic,False,False,[],,40837,,
0,233622136,預算五萬順跑GTA5的筆電,最近想換筆電，希望能順跑GTA5的筆電，想請問各位大大有沒有推薦的,False,False,False,0e0bc27b-8c69-4149-b229-04e7a865a09d,,2020-05-06T14:00:06.817Z,2020-05-06T14:00:06.817Z,3,0,True,['HIDE_THUMBNAIL'],"['筆電', '電腦', '遊戲']",{'layout': 'classic'},3C,3c,False,M,姆斯,,,[],[],False,,False,classic,False,False,[],,42018,,frank91031
0,233622064,我真的快抓狂了...,如圖，我今天登我的推特就看到這個畫面，然後...，我已經輸入好幾次了（百分之百沒有打錯），然後都說系統錯誤，就不讓我登推特，我真的不知道該怎麼辦了，心好累...,False,True,False,0e0bc27b-8c69-4149-b229-04e7a865a09d,,2020-05-06T13:51:52.674Z,2020-05-06T13:51:52.674Z,2,0,False,[],"['twitter', '登入失敗']",{'layout': 'classic'},3C,3c,False,M,崑山科技大學,,,"[{'id': 'a80c6078-85df-42e5-9c24-7b4880c38131', 'url': 'https://i.imgur.com/496kliml.jpg', 'normalizedUrl': 'https://i.imgur.com/496kliml.jpg', 'thumbnail': 'https://i.imgur.com/496kliml.jpg', 'type': 'image/thumbnail', 'tags': ['ANNOTATED'], 'createdAt': '2020-05-06T13:51:52.674Z', 'updatedAt': '2020-05-06T13:51:52.674Z'}, {'id': 'a80c6078-85df-42e5-9c24-7b4880c38131', 'url': 'https://i.imgur.com/496klim.jpg', 'normalizedUrl': 'https://imgur.com/496klim', 'thumbnail': 'https://i.imgur.com/496kliml.jpg', 'type': 'image/imgur', 'tags': ['ANNOTATED'], 'createdAt': '2020-05-06T13:51:52.674Z', 'updatedAt': '2020-05-06T13:51:52.674Z'}]",[],False,,False,classic,True,False,[{'url': 'https://i.imgur.com/496klim.jpg'}],,42514,,
0,233621858,黑特千萬不要買會後悔到想殺人,假網站氣死，說讓你退貨騙你的，我退貨退一半，直接把伺服器關掉，是在？？？？退貨要付國際運費600，然後商品有瑕疵也不讓你退，他會跟你說要審核，然後就說收不到照片，不能讓你退還是補償你，我每天煩客服，客,False,False,False,0e0bc27b-8c69-4149-b229-04e7a865a09d,,2020-05-06T13:22:42.311Z,2020-05-06T13:22:42.311Z,8,2,True,[],"['Apple', '藍牙耳機']",{'layout': 'classic'},3C,3c,False,F,白斬雞,,,"[{'id': '9bf8212f-4c37-4d12-b00f-394e408151fa', 'url': 'https://megapx-assets.dcard.tw/images/5bdb4e9e-0e4a-4366-bf16-c2f953e16957/160.jpeg', 'normalizedUrl': 'https://megapx-assets.dcard.tw/images/5bdb4e9e-0e4a-4366-bf16-c2f953e16957/160.jpeg', 'thumbnail': 'https://megapx-assets.dcard.tw/images/5bdb4e9e-0e4a-4366-bf16-c2f953e16957/160.jpeg', 'type': 'image/thumbnail', 'tags': ['ANNOTATED'], 'createdAt': '2020-05-06T13:22:42.311Z', 'updatedAt': '2020-05-06T13:22:42.311Z', 'width': 90, 'height': 160}, {'id': '9bf8212f-4c37-4d12-b00f-394e408151fa', 'url': 'https://megapx-assets.dcard.tw/images/5bdb4e9e-0e4a-4366-bf16-c2f953e16957/640.jpeg', 'normalizedUrl': 'https://megapx.dcard.tw/v1/images/5bdb4e9e-0e4a-4366-bf16-c2f953e16957', 'thumbnail': 'https://megapx-assets.dcard.tw/images/5bdb4e9e-0e4a-4366-bf16-c2f953e16957/160.jpeg', 'type': 'image/megapx', 'tags': ['ANNOTATED'], 'createdAt': '2020-05-06T13:22:42.311Z', 'updatedAt': '2020-05-06T13:22:42.311Z', 'width': 828, 'height': 1472}]","[{'id': '286f599c-f86a-4932-82f0-f5a06f1eca03', 'count': 2}]",False,,False,classic,True,False,[{'url': 'https://megapx-assets.dcard.tw/images/5bdb4e9e-0e4a-4366-bf16-c2f953e16957/640.jpeg'}],,44266,,j4827193
0,233621832,google相簿上傳照片,#問題，想請問大家，每次備份相片到google相簿時，第一次全部選完上傳，有些會在相簿出現，有些則不會，需要重新選擇再上傳一次，才能在相簿看到，請問這是什麼原因呢？有辦法一次就上傳完成嗎？謝謝，補充一,False,True,False,0e0bc27b-8c69-4149-b229-04e7a865a09d,,2020-05-06T13:19:41.511Z,2020-05-06T13:19:41.511Z,0,1,False,[],"['Google', '相簿']",{'layout': 'classic'},3C,3c,False,F,淡江大學,,,"[{'id': '97c7eb92-a42f-4e3f-bd3a-1a829694fd22', 'url': 'https://megapx-assets.dcard.tw/images/658d4249-1f22-4cc9-92b3-21f8965ae6e0/160.jpeg', 'normalizedUrl': 'https://megapx-assets.dcard.tw/images/658d4249-1f22-4cc9-92b3-21f8965ae6e0/160.jpeg', 'thumbnail': 'https://megapx-assets.dcard.tw/images/658d4249-1f22-4cc9-92b3-21f8965ae6e0/160.jpeg', 'type': 'image/thumbnail', 'tags': [], 'createdAt': '2020-05-06T13:19:41.511Z', 'updatedAt': '2020-05-06T13:19:41.511Z', 'width': 160, 'height': 146}, {'id': '97c7eb92-a42f-4e3f-bd3a-1a829694fd22', 'url': 'https://megapx-assets.dcard.tw/images/658d4249-1f22-4cc9-92b3-21f8965ae6e0/full.jpeg', 'normalizedUrl': 'https://megapx.dcard.tw/v1/images/658d4249-1f22-4cc9-92b3-21f8965ae6e0', 'thumbnail': 'https://megapx-assets.dcard.tw/images/658d4249-1f22-4cc9-92b3-21f8965ae6e0/160.jpeg', 'type': 'image/megapx', 'tags': [], 'createdAt': '2020-05-06T13:19:41.511Z', 'updatedAt': '2020-05-06T13:19:41.511Z', 'width': 398, 'height': 363}, {'id': 'dc694fcb-84d8-4a6e-a406-714dc5ee0f59', 'url': 'https://megapx-assets.dcard.tw/images/112980db-b48e-44ff-a560-426d7fe7ad59/full.jpeg', 'normalizedUrl': 'https://megapx.dcard.tw/v1/images/112980db-b48e-44ff-a560-426d7fe7ad59', 'thumbnail': 'https://megapx-assets.dcard.tw/images/112980db-b48e-44ff-a560-426d7fe7ad59/160.jpeg', 'type': 'image/megapx', 'tags': [], 'createdAt': '2020-05-06T13:19:41.511Z', 'updatedAt': '2020-05-06T13:19:41.511Z', 'width': 399, 'height': 426}]","[{'id': '286f599c-f86a-4932-82f0-f5a06f1eca03', 'count': 1}]",False,,False,classic,True,False,"[{'url': 'https://megapx-assets.dcard.tw/images/658d4249-1f22-4cc9-92b3-21f8965ae6e0/full.jpeg'}, {'url': 'https://megapx-assets.dcard.tw/images/112980db-b48e-44ff-a560-426d7fe7ad59/full.jpeg'}]",,44448,,
0,233621797,心中無限疑問,我的筆電是ASUS的，四月中突然自動關機，拿給人家修，因為是期中考，所以請他先至少修能用，之後我就拿到了，交了1980。上個禮拜又拿給他，今天去拿發現還沒有好，老闆跟我說電池壞掉了，所以以後要插著電才,False,False,False,0e0bc27b-8c69-4149-b229-04e7a865a09d,,2020-05-06T13:14:28.369Z,2020-05-06T13:14:28.369Z,4,3,False,[],"['筆電', 'Windows', '電腦維修', '電池']",{'layout': 'classic'},3C,3c,False,F,文藻外語大學,,,[],"[{'id': '286f599c-f86a-4932-82f0-f5a06f1eca03', 'count': 3}]",False,,False,classic,False,False,[],,44762,,日本語文系
0,233621577,#問 開機沒畫面顯卡爆轉,昨天明明好好的還正常關機，今天一開顯卡異常爆轉，然後沒畫面，後來拔掉顯卡用內顯是正常開機，顯卡是rx570 8g，電供500w白牌，請問會是電供瓦數不足嗎，但我已經裝上用兩個月了，電供也不到兩年算新吧,False,True,False,0e0bc27b-8c69-4149-b229-04e7a865a09d,,2020-05-06T12:38:40.742Z,2020-05-06T12:48:04.076Z,1,0,False,[],['電腦'],{'layout': 'classic'},3C,3c,False,M,國立臺灣海洋大學,,,[],[],False,,False,classic,False,False,[],,46911,,
0,233621515,問）Line聊天訊息顯示不出來,上圖是在聊天列表中明明還能顯示，但點進去聊天內容後就完全顯示不出來，連之前的對話內容也不見，且現在就算我傳送訊息了 我的手機還是看不到，已經重新開機了 也是最新版本，想請問各位大大要如何解決謝謝大家了,False,True,False,0e0bc27b-8c69-4149-b229-04e7a865a09d,,2020-05-06T12:28:17.535Z,2020-05-06T12:28:49.335Z,0,0,False,[],['手機'],{'layout': 'classic'},3C,3c,False,F,國立臺灣師範大學,,,"[{'id': 'edfb9a93-02de-474a-bdf0-2788a6ef8e12', 'url': 'https://i.imgur.com/w7irTcvl.jpg', 'normalizedUrl': 'https://i.imgur.com/w7irTcvl.jpg', 'thumbnail': 'https://i.imgur.com/w7irTcvl.jpg', 'type': 'image/thumbnail', 'tags': ['ANNOTATED'], 'createdAt': '2020-05-06T12:28:17.535Z', 'updatedAt': '2020-05-06T12:28:49.335Z'}, {'id': 'edfb9a93-02de-474a-bdf0-2788a6ef8e12', 'url': 'https://i.imgur.com/w7irTcv.jpg', 'normalizedUrl': 'https://imgur.com/w7irTcv', 'thumbnail': 'https://i.imgur.com/w7irTcvl.jpg', 'type': 'image/imgur', 'tags': ['ANNOTATED'], 'createdAt': '2020-05-06T12:28:17.535Z', 'updatedAt': '2020-05-06T12:28:49.335Z'}, {'id': '1e728521-6bbb-4660-97e1-44750aec30bb', 'url': 'https://i.imgur.com/ywl3KFB.jpg', 'normalizedUrl': 'https://imgur.com/ywl3KFB', 'thumbnail': 'https://i.imgur.com/ywl3KFBl.jpg', 'type': 'image/imgur', 'tags': ['ANNOTATED'], 'createdAt': '2020-05-06T12:28:17.535Z', 'updatedAt': '2020-05-06T12:28:49.335Z'}]",[],False,,False,classic,True,False,"[{'url': 'https://i.imgur.com/w7irTcv.jpg'}, {'url': 'https://i.imgur.com/ywl3KFB.jpg'}]",,47536,,
0,233621478,#開箱 進場不嫌晚 NIke版本Apple watch 3,#開箱，在網路逛街，點進了電腦家逛逛看看，才得知AW3降價到7400還打折加上玉山5%回饋，突然覺得蘋果離我近了一點，就手滑了，才有今天的開箱。這次買的是Nike版本的黑色 AW3，一定要42mm的，,False,False,False,0e0bc27b-8c69-4149-b229-04e7a865a09d,,2020-05-06T12:22:42.818Z,2020-05-06T13:43:20.720Z,6,2,True,[],['開箱'],{'layout': 'classic'},3C,3c,False,M,葉馬丁,,,"[{'id': '3026de09-e40f-4459-a649-ffd1fc442e48', 'url': 'https://megapx-assets.dcard.tw/images/347ca397-2174-4beb-bac4-9628419143bf/160.jpeg', 'normalizedUrl': 'https://megapx-assets.dcard.tw/images/347ca397-2174-4beb-bac4-9628419143bf/160.jpeg', 'thumbnail': 'https://megapx-assets.dcard.tw/images/347ca397-2174-4beb-bac4-9628419143bf/160.jpeg', 'type': 'image/thumbnail', 'tags': ['ANNOTATED'], 'createdAt': '2020-05-06T12:22:42.818Z', 'updatedAt': '2020-05-06T13:43:20.720Z', 'width': 160, 'height': 120}, {'id': '3026de09-e40f-4459-a649-ffd1fc442e48', 'url': 'https://megapx-assets.dcard.tw/images/347ca397-2174-4beb-bac4-9628419143bf/640.jpeg', 'normalizedUrl': 'https://megapx.dcard.tw/v1/images/347ca397-2174-4beb-bac4-9628419143bf', 'thumbnail': 'https://megapx-assets.dcard.tw/images/347ca397-2174-4beb-bac4-9628419143bf/160.jpeg', 'type': 'image/megapx', 'tags': ['ANNOTATED'], 'createdAt': '2020-05-06T12:22:42.818Z', 'updatedAt': '2020-05-06T13:43:20.720Z', 'width': 2000, 'height': 1500}, {'id': '50fea3d3-16bc-4555-af7a-ed7f1e6f6595', 'url': 'https://megapx-assets.dcard.tw/images/a4622592-31ec-480b-93ca-3f907054857b/640.jpeg', 'normalizedUrl': 'https://megapx.dcard.tw/v1/images/a4622592-31ec-480b-93ca-3f907054857b', 'thumbnail': 'https://megapx-assets.dcard.tw/images/a4622592-31ec-480b-93ca-3f907054857b/160.jpeg', 'type': 'image/megapx', 'tags': ['ANNOTATED'], 'createdAt': '2020-05-06T12:22:42.818Z', 'updatedAt': '2020-05-06T13:43:20.720Z', 'width': 2000, 'height': 1500}, {'id': 'd9cbf617-cb2c-4896-a09c-e19280a70516', 'url': 'https://megapx-assets.dcard.tw/images/9f41650c-cbf9-4939-a789-db87aa680c1b/640.jpeg', 'normalizedUrl': 'https://megapx.dcard.tw/v1/images/9f41650c-cbf9-4939-a789-db87aa680c1b', 'thumbnail': 'https://megapx-assets.dcard.tw/images/9f41650c-cbf9-4939-a789-db87aa680c1b/160.jpeg', 'type': 'image/megapx', 'tags': ['ANNOTATED'], 'createdAt': '2020-05-06T12:22:42.818Z', 'updatedAt': '2020-05-06T13:43:20.720Z', 'width': 1500, 'height': 2000}, {'id': 'a262ddf2-d9a5-402b-b5e3-604a997c38ac', 'url': 'https://megapx-assets.dcard.tw/images/a932ccaa-18ea-4d25-a846-b985546e638e/640.jpeg', 'normalizedUrl': 'https://megapx.dcard.tw/v1/images/a932ccaa-18ea-4d25-a846-b985546e638e', 'thumbnail': 'https://megapx-assets.dcard.tw/images/a932ccaa-18ea-4d25-a846-b985546e638e/160.jpeg', 'type': 'image/megapx', 'tags': ['ANNOTATED'], 'createdAt': '2020-05-06T12:22:42.818Z', 'updatedAt': '2020-05-06T13:43:20.720Z', 'width': 1500, 'height': 2000}, {'id': 'fa80bf5f-831b-4feb-86ba-56d3e7aad5bb', 'url': 'https://megapx-assets.dcard.tw/images/460822e7-cabc-4018-a9d3-1d7404ae2a1d/640.jpeg', 'normalizedUrl': 'https://megapx.dcard.tw/v1/images/460822e7-cabc-4018-a9d3-1d7404ae2a1d', 'thumbnail': 'https://megapx-assets.dcard.tw/images/460822e7-cabc-4018-a9d3-1d7404ae2a1d/160.jpeg', 'type': 'image/megapx', 'tags': ['ANNOTATED'], 'createdAt': '2020-05-06T12:22:42.818Z', 'updatedAt': '2020-05-06T13:43:20.720Z', 'width': 1500, 'height': 2000}]","[{'id': '286f599c-f86a-4932-82f0-f5a06f1eca03', 'count': 2}]",False,,False,classic,True,False,"[{'url': 'https://megapx-assets.dcard.tw/images/347ca397-2174-4beb-bac4-9628419143bf/640.jpeg'}, {'url': 'https://megapx-assets.dcard.tw/images/a4622592-31ec-480b-93ca-3f907054857b/640.jpeg'}, {'url': 'https://megapx-assets.dcard.tw/images/9f41650c-cbf9-4939-a789-db87aa680c1b/640.jpeg'}, {'url': 'https://megapx-assets.dcard.tw/images/a932ccaa-18ea-4d25-a846-b985546e638e/640.jpeg'}, {'url': 'https://megapx-assets.dcard.tw/images/460822e7-cabc-4018-a9d3-1d7404ae2a1d/640.jpeg'}]",,47872,,jume2005
0,233621250,win10喇叭無聲音,#問題，上禮拜電腦（msi）更新後，喇叭突然沒有聲音，怎麼用都沒聲音…但明明音量有開，而且也確定連接好了，就是喇叭聲音出不來，只能用藍芽耳機聽QQ...，有人跟我一樣嗎？請問要怎麼解決,False,False,False,0e0bc27b-8c69-4149-b229-04e7a865a09d,,2020-05-06T11:44:44.770Z,2020-05-06T12:15:45.864Z,27,0,True,[],"['電腦', 'Win10', '喇叭', '聲音']",{'layout': 'classic'},3C,3c,False,F,匿名,,,"[{'id': '531b4fbd-dbcf-4454-a966-4ee5895e9f69', 'url': 'https://i.imgur.com/1ACbCG3l.jpg', 'normalizedUrl': 'https://i.imgur.com/1ACbCG3l.jpg', 'thumbnail': 'https://i.imgur.com/1ACbCG3l.jpg', 'type': 'image/thumbnail', 'tags': ['ANNOTATED'], 'createdAt': '2020-05-06T12:15:45.864Z', 'updatedAt': '2020-05-06T12:15:45.864Z'}, {'id': '531b4fbd-dbcf-4454-a966-4ee5895e9f69', 'url': 'https://i.imgur.com/1ACbCG3.jpg', 'normalizedUrl': 'https://imgur.com/1ACbCG3', 'thumbnail': 'https://i.imgur.com/1ACbCG3l.jpg', 'type': 'image/imgur', 'tags': ['ANNOTATED'], 'createdAt': '2020-05-06T12:15:45.864Z', 'updatedAt': '2020-05-06T12:15:45.864Z'}]",[],False,,False,classic,True,False,[{'url': 'https://i.imgur.com/1ACbCG3.jpg'}],,50151,,kklove0710
0,233621240,#開箱 【北極熊開箱】強悍小鋼炮- HiBy R5,（Credit： Meteor Juan，圖片均自行拍攝 & 後製。），文章同步發表於小弟的部落格，歡迎大家到小弟的部落格中觀看：Yazi Lightar 在痞客邦的小天地，首先，感謝台灣思維寶藍科技,False,False,False,0e0bc27b-8c69-4149-b229-04e7a865a09d,,2020-05-06T11:43:37.319Z,2020-05-06T11:43:37.319Z,1,3,True,[],"['北極熊', 'r5', '開箱', 'Android', '耳機']",{'layout': 'classic'},3C,3c,False,M,北極熊,,,"[{'id': '96ab498d-2e45-4d8f-b36d-8820c40e805b', 'url': 'https://imgur.dcard.tw/JVLbqiE.jpg', 'normalizedUrl': 'https://imgur.dcard.tw/JVLbqiE.jpg', 'thumbnail': 'https://imgur.dcard.tw/JVLbqiE.jpg', 'type': 'image/thumbnail', 'tags': ['ANNOTATED_FAILED'], 'createdAt': '2020-05-06T11:43:37.319Z', 'updatedAt': '2020-05-06T11:43:37.319Z'}, {'id': '96ab498d-2e45-4d8f-b36d-8820c40e805b', 'url': 'https://imgur.dcard.tw/JVLbqiE.jpg', 'normalizedUrl': '', 'thumbnail': 'https://imgur.dcard.tw/JVLbqiE.jpg', 'type': 'image/jpeg', 'tags': ['ANNOTATED_FAILED'], 'createdAt': '2020-05-06T11:43:37.319Z', 'updatedAt': '2020-05-06T11:43:37.319Z'}, {'id': 'b1d23625-8372-4e61-8606-ca3803d29eda', 'url': 'https://imgur.dcard.tw/06jYTan.jpg', 'normalizedUrl': '', 'thumbnail': 'https://imgur.dcard.tw/06jYTan.jpg', 'type': 'image/jpeg', 'tags': ['ANNOTATED_FAILED'], 'createdAt': '2020-05-06T11:43:37.319Z', 'updatedAt': '2020-05-06T11:43:37.319Z'}, {'id': 'ae05b35c-36eb-4062-a05b-d5a309b40d43', 'url': 'https://imgur.dcard.tw/4RqzjJL.jpg', 'normalizedUrl': '', 'thumbnail': 'https://imgur.dcard.tw/4RqzjJL.jpg', 'type': 'image/jpeg', 'tags': ['ANNOTATED'], 'createdAt': '2020-05-06T11:43:37.319Z', 'updatedAt': '2020-05-06T11:43:37.319Z'}, {'id': 'f1721c0f-9074-479b-b689-e8794861c26d', 'url': 'https://imgur.dcard.tw/uCBMZMH.jpg', 'normalizedUrl': '', 'thumbnail': 'https://imgur.dcard.tw/uCBMZMH.jpg', 'type': 'image/jpeg', 'tags': ['ANNOTATED'], 'createdAt': '2020-05-06T11:43:37.319Z', 'updatedAt': '2020-05-06T11:43:37.319Z'}, {'id': 'dd687192-f039-4785-97af-f03ad329b327', 'url': 'https://imgur.dcard.tw/PrPOsKh.jpg', 'normalizedUrl': '', 'thumbnail': 'https://imgur.dcard.tw/PrPOsKh.jpg', 'type': 'image/jpeg', 'tags': ['ANNOTATED_FAILED'], 'createdAt': '2020-05-06T11:43:37.319Z', 'updatedAt': '2020-05-06T11:43:37.319Z'}, {'id': '3bde1185-d444-45b1-bfd8-a5bbc6937499', 'url': 'https://imgur.dcard.tw/83Y3IFg.jpg', 'normalizedUrl': '', 'thumbnail': 'https://imgur.dcard.tw/83Y3IFg.jpg', 'type': 'image/jpeg', 'tags': ['ANNOTATED_FAILED'], 'createdAt': '2020-05-06T11:43:37.319Z', 'updatedAt': '2020-05-06T11:43:37.319Z'}, {'id': '88f91096-db7d-481d-b356-ce0bb3b17401', 'url': 'https://imgur.dcard.tw/FU6B6W6.jpg', 'normalizedUrl': '', 'thumbnail': 'https://imgur.dcard.tw/FU6B6W6.jpg', 'type': 'image/jpeg', 'tags': ['ANNOTATED'], 'createdAt': '2020-05-06T11:43:37.319Z', 'updatedAt': '2020-05-06T11:43:37.319Z'}, {'id': 'a2e4b94f-d575-4f9c-9d69-d3a414ecaeea', 'url': 'https://imgur.dcard.tw/qhIKnlz.jpg', 'normalizedUrl': '', 'thumbnail': 'https://imgur.dcard.tw/qhIKnlz.jpg', 'type': 'image/jpeg', 'tags': ['ANNOTATED'], 'createdAt': '2020-05-06T11:43:37.319Z', 'updatedAt': '2020-05-06T11:43:37.319Z'}, {'id': '8d9d074e-5dee-4096-9c2f-d587f293cc30', 'url': 'https://imgur.dcard.tw/6kiq3Ab.jpg', 'normalizedUrl': '', 'thumbnail': 'https://imgur.dcard.tw/6kiq3Ab.jpg', 'type': 'image/jpeg', 'tags': ['ANNOTATED'], 'createdAt': '2020-05-06T11:43:37.319Z', 'updatedAt': '2020-05-06T11:43:37.319Z'}, {'id': 'd331dd4d-9af3-4b08-9342-9d9f4d3982dd', 'url': 'https://imgur.dcard.tw/SNfJcig.jpg', 'normalizedUrl': '', 'thumbnail': 'https://imgur.dcard.tw/SNfJcig.jpg', 'type': 'image/jpeg', 'tags': ['ANNOTATED_FAILED'], 'createdAt': '2020-05-06T11:43:37.319Z', 'updatedAt': '2020-05-06T11:43:37.319Z'}, {'id': '93b857ff-5e1a-47d6-a932-deb10c52a679', 'url': 'https://imgur.dcard.tw/6xzencL.jpg', 'normalizedUrl': '', 'thumbnail': 'https://imgur.dcard.tw/6xzencL.jpg', 'type': 'image/jpeg', 'tags': ['ANNOTATED'], 'createdAt': '2020-05-06T11:43:37.319Z', 'updatedAt': '2020-05-06T11:43:37.319Z'}, {'id': '0392bf55-2ca7-489a-bfff-e4e549a36412', 'url': 'https://imgur.dcard.tw/uR7RLOt.jpg', 'normalizedUrl': '', 'thumbnail': 'https://imgur.dcard.tw/uR7RLOt.jpg', 'type': 'image/jpeg', 'tags': ['ANNOTATED'], 'createdAt': '2020-05-06T11:43:37.319Z', 'updatedAt': '2020-05-06T11:43:37.319Z'}, {'id': 'cbbca6b2-1bcf-4fd4-a4f8-8f158b517066', 'url': 'https://imgur.dcard.tw/HSNotUm.jpg', 'normalizedUrl': '', 'thumbnail': 'https://imgur.dcard.tw/HSNotUm.jpg', 'type': 'image/jpeg', 'tags': ['ANNOTATED'], 'createdAt': '2020-05-06T11:43:37.319Z', 'updatedAt': '2020-05-06T11:43:37.319Z'}, {'id': 'b475dfcc-0b3f-4fd8-a664-ce05bebea79a', 'url': 'https://imgur.dcard.tw/Fxm2jQo.jpg', 'normalizedUrl': '', 'thumbnail': 'https://imgur.dcard.tw/Fxm2jQo.jpg', 'type': 'image/jpeg', 'tags': ['ANNOTATED'], 'createdAt': '2020-05-06T11:43:37.319Z', 'updatedAt': '2020-05-06T11:43:37.319Z'}, {'id': '05852466-88a4-4f3e-912f-351ebc049972', 'url': 'https://imgur.dcard.tw/CgSV0O3.jpg', 'normalizedUrl': '', 'thumbnail': 'https://imgur.dcard.tw/CgSV0O3.jpg', 'type': 'image/jpeg', 'tags': ['ANNOTATED_FAILED'], 'createdAt': '2020-05-06T11:43:37.319Z', 'updatedAt': '2020-05-06T11:43:37.319Z'}, {'id': '04bb33ee-57c5-4d45-bd2f-95c096ad3f90', 'url': 'https://imgur.dcard.tw/jo1W4WO.jpg', 'normalizedUrl': '', 'thumbnail': 'https://imgur.dcard.tw/jo1W4WO.jpg', 'type': 'image/jpeg', 'tags': ['ANNOTATED_FAILED'], 'createdAt': '2020-05-06T11:43:37.319Z', 'updatedAt': '2020-05-06T11:43:37.319Z'}, {'id': '557b9952-05cf-4907-8acd-60d25c911e1b', 'url': 'https://imgur.dcard.tw/3neeKi1.jpg', 'normalizedUrl': '', 'thumbnail': 'https://imgur.dcard.tw/3neeKi1.jpg', 'type': 'image/jpeg', 'tags': ['ANNOTATED'], 'createdAt': '2020-05-06T11:43:37.319Z', 'updatedAt': '2020-05-06T11:43:37.319Z'}, {'id': '21bef73c-7780-4b9f-a9eb-7c2365022afe', 'url': 'https://imgur.dcard.tw/AgWKBYQ.jpg', 'normalizedUrl': '', 'thumbnail': 'https://imgur.dcard.tw/AgWKBYQ.jpg', 'type': 'image/jpeg', 'tags': ['ANNOTATED_FAILED'], 'createdAt': '2020-05-06T11:43:37.319Z', 'updatedAt': '2020-05-06T11:43:37.319Z'}, {'id': '87184d61-6f6e-4b13-bc5b-443090395664', 'url': 'https://imgur.dcard.tw/youXt9b.jpg', 'normalizedUrl': '', 'thumbnail': 'https://imgur.dcard.tw/youXt9b.jpg', 'type': 'image/jpeg', 'tags': ['ANNOTATED'], 'createdAt': '2020-05-06T11:43:37.319Z', 'updatedAt': '2020-05-06T11:43:37.319Z'}, {'id': 'c64c632f-3ca3-40aa-97ef-5d5f24d58768', 'url': 'https://imgur.dcard.tw/7FluW77.jpg', 'normalizedUrl': '', 'thumbnail': 'https://imgur.dcard.tw/7FluW77.jpg', 'type': 'image/jpeg', 'tags': ['ANNOTATED'], 'createdAt': '2020-05-06T11:43:37.319Z', 'updatedAt': '2020-05-06T11:43:37.319Z'}, {'id': '4c175386-c07d-43cb-abd1-92158c9c3d72', 'url': 'https://imgur.dcard.tw/tANQHKQ.jpg', 'normalizedUrl': '', 'thumbnail': 'https://imgur.dcard.tw/tANQHKQ.jpg', 'type': 'image/jpeg', 'tags': ['ANNOTATED'], 'createdAt': '2020-05-06T11:43:37.319Z', 'updatedAt': '2020-05-06T11:43:37.319Z'}, {'id': 'b2a2dd2d-ba00-460d-911e-11154ae7ade6', 'url': 'https://imgur.dcard.tw/wGE1XBd.png', 'normalizedUrl': '', 'thumbnail': 'https://imgur.dcard.tw/wGE1XBd.png', 'type': 'image/png', 'tags': ['ANNOTATED'], 'createdAt': '2020-05-06T11:43:37.319Z', 'updatedAt': '2020-05-06T11:43:37.319Z'}]","[{'id': '286f599c-f86a-4932-82f0-f5a06f1eca03', 'count': 3}]",False,,False,classic,True,False,"[{'url': 'http://i.imgur.com/JVLbqiE.jpg'}, {'url': 'http://i.imgur.com/06jYTan.jpg'}, {'url': 'http://i.imgur.com/4RqzjJL.jpg'}, {'url': 'http://i.imgur.com/uCBMZMH.jpg'}, {'url': 'http://i.imgur.com/PrPOsKh.jpg'}, {'url': 'http://i.imgur.com/83Y3IFg.jpg'}, {'url': 'http://i.imgur.com/FU6B6W6.jpg'}, {'url': 'http://i.imgur.com/qhIKnlz.jpg'}, {'url': 'http://i.imgur.com/6kiq3Ab.jpg'}, {'url': 'http://i.imgur.com/SNfJcig.jpg'}, {'url': 'http://i.imgur.com/6xzencL.jpg'}, {'url': 'http://i.imgur.com/uR7RLOt.jpg'}, {'url': 'http://i.imgur.com/HSNotUm.jpg'}, {'url': 'http://i.imgur.com/Fxm2jQo.jpg'}, {'url': 'http://i.imgur.com/CgSV0O3.jpg'}, {'url': 'http://i.imgur.com/jo1W4WO.jpg'}, {'url': 'http://i.imgur.com/3neeKi1.jpg'}, {'url': 'http://i.imgur.com/AgWKBYQ.jpg'}, {'url': 'http://i.imgur.com/youXt9b.jpg'}, {'url': 'http://i.imgur.com/7FluW77.jpg'}, {'url': 'http://i.imgur.com/tANQHKQ.jpg'}, {'url': 'http://i.imgur.com/wGE1XBd.png'}]",,50220,,the_northlander
0,233621171,#問題臉書社團轉圈圈,我的手機是 note9，這一個月社團最新貼文都會轉圈圈，之前有好，但最近壞了，但開小臉書lite 卻沒這個問題，我爸媽的哀鳳也沒有，到底是誰的問題，以重新安裝，結果 只有一次好 下次進來又變這樣，有人,False,True,False,0e0bc27b-8c69-4149-b229-04e7a865a09d,,2020-05-06T11:34:14.212Z,2020-05-06T11:34:14.212Z,0,1,False,[],"['臉書', '手機']",{'layout': 'classic'},3C,3c,False,M,國立東華大學,,,"[{'id': 'de11ab44-b952-48c3-b138-580e3e39d56b', 'url': 'https://i.imgur.com/yfH52Zbl.jpg', 'normalizedUrl': 'https://i.imgur.com/yfH52Zbl.jpg', 'thumbnail': 'https://i.imgur.com/yfH52Zbl.jpg', 'type': 'image/thumbnail', 'tags': ['ANNOTATED'], 'createdAt': '2020-05-06T11:34:14.212Z', 'updatedAt': '2020-05-06T11:34:14.212Z'}, {'id': 'de11ab44-b952-48c3-b138-580e3e39d56b', 'url': 'https://i.imgur.com/yfH52Zb.jpg', 'normalizedUrl': 'https://imgur.com/yfH52Zb', 'thumbnail': 'https://i.imgur.com/yfH52Zbl.jpg', 'type': 'image/imgur', 'tags': ['ANNOTATED'], 'createdAt': '2020-05-06T11:34:14.212Z', 'updatedAt': '2020-05-06T11:34:14.212Z'}]","[{'id': '286f599c-f86a-4932-82f0-f5a06f1eca03', 'count': 1}]",False,,False,classic,True,False,[{'url': 'https://i.imgur.com/yfH52Zb.jpg'}],,50784,,
0,233621119,#閒聊 chrome 崩潰 wiki百科7zip,大家開啟這個網頁會導致chrome崩潰嗎，i5 6500 的電腦，chrome是最新的，但開啟維基百科7zip這個頁面chorme會全部當掉,False,True,False,0e0bc27b-8c69-4149-b229-04e7a865a09d,,2020-05-06T11:26:40.022Z,2020-05-06T11:26:40.022Z,10,0,False,[],"['當機', '維基百科', 'Intel', 'chrome']",{'layout': 'classic'},3C,3c,False,M,逢甲大學,,,[],[],False,,False,classic,False,False,[],,51240,,
0,233620757,筆電怎麼了(ಥ_ಥ),想跟大家求救一下，剛剛下課回來之後我開筆電，然後畫面突然變這樣，有人知道它怎麼了嗎‍️‍️,False,True,False,0e0bc27b-8c69-4149-b229-04e7a865a09d,,2020-05-06T10:22:34.344Z,2020-05-06T10:22:34.344Z,4,1,False,[],"['筆電', 'ASUS']",{'layout': 'classic'},3C,3c,False,F,銘傳大學,,,"[{'id': 'fa13182a-34a1-4be4-adb3-5a2938e1b66d', 'url': 'https://i.imgur.com/Eg05k9Sl.jpg', 'normalizedUrl': 'https://i.imgur.com/Eg05k9Sl.jpg', 'thumbnail': 'https://i.imgur.com/Eg05k9Sl.jpg', 'type': 'image/thumbnail', 'tags': ['ANNOTATED'], 'createdAt': '2020-05-06T10:22:34.344Z', 'updatedAt': '2020-05-06T10:22:34.344Z'}, {'id': 'fa13182a-34a1-4be4-adb3-5a2938e1b66d', 'url': 'https://i.imgur.com/Eg05k9S.jpg', 'normalizedUrl': 'https://imgur.com/Eg05k9S', 'thumbnail': 'https://i.imgur.com/Eg05k9Sl.jpg', 'type': 'image/imgur', 'tags': ['ANNOTATED'], 'createdAt': '2020-05-06T10:22:34.344Z', 'updatedAt': '2020-05-06T10:22:34.344Z'}]","[{'id': '286f599c-f86a-4932-82f0-f5a06f1eca03', 'count': 1}]",False,,False,classic,True,False,[{'url': 'https://i.imgur.com/Eg05k9S.jpg'}],,55087,,
0,233620699,#問 視訊時錄影沒聲音,大家好，想詢問一下視訊螢幕錄影對方聲音錄不到的問題，本身是使用三星的，使用內建功能只錄得到自己的聲音，朋友的是iphone，視訊時錄影的話是兩邊聲音都錄不到，想詢問一下是視訊本身的問題，還是有什麼ap,False,False,False,0e0bc27b-8c69-4149-b229-04e7a865a09d,,2020-05-06T10:12:05.822Z,2020-05-06T10:12:05.822Z,2,1,False,[],"['螢幕錄影', '手機', 'App', 'Apple', '三星']",{'layout': 'classic'},3C,3c,False,F,韓國中央大學,,,[],"[{'id': '286f599c-f86a-4932-82f0-f5a06f1eca03', 'count': 1}]",False,,False,classic,False,False,[],,55717,,韓國語言文學系
0,233620563,Redmi Note 8 Pro開箱,其實這一台手機是在勞動節當天買的，小米最近有出活動可以折600$，我就毫不考慮的手刀下單了阿！！！，不得不說小米在包裝的地方模仿的水果牌一模模一樣樣，盒蓋和盒體兩者非常緊密，非常的密實。這邊就不贅述啦,False,False,False,0e0bc27b-8c69-4149-b229-04e7a865a09d,,2020-05-06T09:52:17.059Z,2020-05-06T09:52:17.059Z,6,6,False,[],"['開箱', '手機']",{'layout': 'classic'},3C,3c,False,M,朝陽科技大學,,,"[{'id': 'd630aaa5-0039-4a11-8e91-f9fe4335b180', 'url': 'https://imgur.dcard.tw/eT8F7Ym.jpg', 'normalizedUrl': 'https://imgur.dcard.tw/eT8F7Ym.jpg', 'thumbnail': 'https://imgur.dcard.tw/eT8F7Ym.jpg', 'type': 'image/thumbnail', 'tags': ['ANNOTATED_FAILED'], 'createdAt': '2020-05-06T09:52:17.059Z', 'updatedAt': '2020-05-06T09:52:17.059Z'}, {'id': 'd630aaa5-0039-4a11-8e91-f9fe4335b180', 'url': 'https://imgur.dcard.tw/eT8F7Ym.jpg', 'normalizedUrl': '', 'thumbnail': 'https://imgur.dcard.tw/eT8F7Ym.jpg', 'type': 'image/jpeg', 'tags': ['ANNOTATED_FAILED'], 'createdAt': '2020-05-06T09:52:17.059Z', 'updatedAt': '2020-05-06T09:52:17.059Z'}, {'id': '59eb72ee-18e1-4c42-a1e9-a97e43440d41', 'url': 'https://imgur.dcard.tw/8RYcq6q.jpg', 'normalizedUrl': '', 'thumbnail': 'https://imgur.dcard.tw/8RYcq6q.jpg', 'type': 'image/jpeg', 'tags': ['ANNOTATED_FAILED'], 'createdAt': '2020-05-06T09:52:17.059Z', 'updatedAt': '2020-05-06T09:52:17.059Z'}, {'id': 'c552f38b-fa1f-4da6-801b-1ab2b7b12aba', 'url': 'https://imgur.dcard.tw/AcSTITS.jpg', 'normalizedUrl': '', 'thumbnail': 'https://imgur.dcard.tw/AcSTITS.jpg', 'type': 'image/jpeg', 'tags': ['ANNOTATED_FAILED'], 'createdAt': '2020-05-06T09:52:17.059Z', 'updatedAt': '2020-05-06T09:52:17.059Z'}, {'id': '822f3364-9413-48d4-a47d-e187fc4202a2', 'url': 'https://imgur.dcard.tw/LTv4nhK.jpg', 'normalizedUrl': '', 'thumbnail': 'https://imgur.dcard.tw/LTv4nhK.jpg', 'type': 'image/jpeg', 'tags': ['ANNOTATED_FAILED'], 'createdAt': '2020-05-06T09:52:17.059Z', 'updatedAt': '2020-05-06T09:52:17.059Z'}, {'id': '52c357a6-23e8-4640-84ba-3ef3f3d14b85', 'url': 'https://imgur.dcard.tw/QrRIUtc.jpg', 'normalizedUrl': '', 'thumbnail': 'https://imgur.dcard.tw/QrRIUtc.jpg', 'type': 'image/jpeg', 'tags': ['ANNOTATED'], 'createdAt': '2020-05-06T09:52:17.059Z', 'updatedAt': '2020-05-06T09:52:17.059Z'}, {'id': '2869ffcf-3f70-4c02-b7f7-6185252d626b', 'url': 'https://imgur.dcard.tw/OEGFtsu.jpg', 'normalizedUrl': '', 'thumbnail': 'https://imgur.dcard.tw/OEGFtsu.jpg', 'type': 'image/jpeg', 'tags': ['ANNOTATED_FAILED'], 'createdAt': '2020-05-06T09:52:17.059Z', 'updatedAt': '2020-05-06T09:52:17.059Z'}]","[{'id': '286f599c-f86a-4932-82f0-f5a06f1eca03', 'count': 6}]",False,,False,classic,True,False,"[{'url': 'http://i.imgur.com/eT8F7Ym.jpg'}, {'url': 'http://i.imgur.com/8RYcq6q.jpg'}, {'url': 'http://i.imgur.com/AcSTITS.jpg'}, {'url': 'http://i.imgur.com/LTv4nhK.jpg'}, {'url': 'http://i.imgur.com/QrRIUtc.jpg'}, {'url': 'http://i.imgur.com/OEGFtsu.jpg'}]",,56907,,環境工程與管理系
0,233620389,請問iphone11前鏡頭 拍起來感覺周圍霧霧的,請問iphone11前鏡頭 拍起來感覺周圍霧霧的，這樣是需要送原廠維修嗎？還是貼膜的關係？有去蘋果維修店檢測，相機系統是沒有問題的，但他說還是可以送回原廠維修看看，請問有人也遇到這樣的問題嗎？謝謝,False,True,False,0e0bc27b-8c69-4149-b229-04e7a865a09d,,2020-05-06T09:22:25.696Z,2020-05-06T09:22:25.696Z,4,2,False,[],"['手機', '鏡頭', 'iPhone', 'Apple', '3C']",{'layout': 'classic'},3C,3c,False,F,靜宜大學,,,"[{'id': '5273387a-ee8a-4ea1-8785-7b09133098ad', 'url': 'https://megapx-assets.dcard.tw/images/f81e75d2-7975-4605-9dba-e3857d79e819/160.jpeg', 'normalizedUrl': 'https://megapx-assets.dcard.tw/images/f81e75d2-7975-4605-9dba-e3857d79e819/160.jpeg', 'thumbnail': 'https://megapx-assets.dcard.tw/images/f81e75d2-7975-4605-9dba-e3857d79e819/160.jpeg', 'type': 'image/thumbnail', 'tags': [], 'createdAt': '2020-05-06T09:22:25.696Z', 'updatedAt': '2020-05-06T09:22:25.696Z', 'width': 120, 'height': 160}, {'id': '5273387a-ee8a-4ea1-8785-7b09133098ad', 'url': 'https://megapx-assets.dcard.tw/images/f81e75d2-7975-4605-9dba-e3857d79e819/640.jpeg', 'normalizedUrl': 'https://megapx.dcard.tw/v1/images/f81e75d2-7975-4605-9dba-e3857d79e819', 'thumbnail': 'https://megapx-assets.dcard.tw/images/f81e75d2-7975-4605-9dba-e3857d79e819/160.jpeg', 'type': 'image/megapx', 'tags': [], 'createdAt': '2020-05-06T09:22:25.696Z', 'updatedAt': '2020-05-06T09:22:25.696Z', 'width': 1500, 'height': 2000}, {'id': '82fa9adf-0978-4888-adc6-d03d4e2fdaa6', 'url': 'https://megapx-assets.dcard.tw/images/42346f95-b375-4ebd-8a12-4a93646a789d/640.jpeg', 'normalizedUrl': 'https://megapx.dcard.tw/v1/images/42346f95-b375-4ebd-8a12-4a93646a789d', 'thumbnail': 'https://megapx-assets.dcard.tw/images/42346f95-b375-4ebd-8a12-4a93646a789d/160.jpeg', 'type': 'image/megapx', 'tags': [], 'createdAt': '2020-05-06T09:22:25.696Z', 'updatedAt': '2020-05-06T09:22:25.696Z', 'width': 1500, 'height': 2000}, {'id': 'd7bad686-715c-4e5f-a29e-a5ae08f3a2e8', 'url': 'https://megapx-assets.dcard.tw/images/fa8a1332-fe8f-45b6-b97f-e74090412658/640.jpeg', 'normalizedUrl': 'https://megapx.dcard.tw/v1/images/fa8a1332-fe8f-45b6-b97f-e74090412658', 'thumbnail': 'https://megapx-assets.dcard.tw/images/fa8a1332-fe8f-45b6-b97f-e74090412658/160.jpeg', 'type': 'image/megapx', 'tags': [], 'createdAt': '2020-05-06T09:22:25.696Z', 'updatedAt': '2020-05-06T09:22:25.696Z', 'width': 2000, 'height': 1500}]","[{'id': '286f599c-f86a-4932-82f0-f5a06f1eca03', 'count': 2}]",False,,False,classic,True,False,"[{'url': 'https://megapx-assets.dcard.tw/images/f81e75d2-7975-4605-9dba-e3857d79e819/640.jpeg'}, {'url': 'https://megapx-assets.dcard.tw/images/42346f95-b375-4ebd-8a12-4a93646a789d/640.jpeg'}, {'url': 'https://megapx-assets.dcard.tw/images/fa8a1332-fe8f-45b6-b97f-e74090412658/640.jpeg'}]",,58699,,
0,233620352,#問題 換了一家網路就連不上網路,#問題，家裡最近從中華換了第4台的網路，我是用筆電 人員說直接插網路線就可以連了，但插下去乙太網路出現無法辨識網路，而我把之前寬頻都清掉了還是連不上，請問有啥辦法能解決嗎,False,True,False,0e0bc27b-8c69-4149-b229-04e7a865a09d,,2020-05-06T09:17:19.532Z,2020-05-06T09:17:19.532Z,1,1,False,['HIDE_THUMBNAIL'],['網路'],{'layout': 'classic'},3C,3c,False,M,淡江大學,,,[],"[{'id': '286f599c-f86a-4932-82f0-f5a06f1eca03', 'count': 1}]",False,,False,classic,False,False,[],,59007,,
0,233620333,拍賣二手電視附MOD,有人需要32吋的電視嗎？有附2台MOD 目前是只有用一台而已，一個月384，合約到明年7月。電視賣$3000，地址：台中市北區學士路178巷17號，如果沒有離很遠可以幫忙運送。,False,False,False,0e0bc27b-8c69-4149-b229-04e7a865a09d,,2020-05-06T09:12:58.159Z,2020-05-06T09:13:28.316Z,0,2,False,[],"['螢幕', '二手', '中科大']",{'layout': 'classic'},3C,3c,False,F,國立臺中科技大學,,,"[{'id': '7afff7a8-133f-4aae-bd44-61d28716780f', 'url': 'https://i.imgur.com/3RNYhUrl.jpg', 'normalizedUrl': 'https://i.imgur.com/3RNYhUrl.jpg', 'thumbnail': 'https://i.imgur.com/3RNYhUrl.jpg', 'type': 'image/thumbnail', 'tags': ['ANNOTATED'], 'createdAt': '2020-05-06T09:12:58.159Z', 'updatedAt': '2020-05-06T09:13:28.316Z'}, {'id': '7afff7a8-133f-4aae-bd44-61d28716780f', 'url': 'https://i.imgur.com/3RNYhUr.jpg', 'normalizedUrl': 'https://imgur.com/3RNYhUr', 'thumbnail': 'https://i.imgur.com/3RNYhUrl.jpg', 'type': 'image/imgur', 'tags': ['ANNOTATED'], 'createdAt': '2020-05-06T09:12:58.159Z', 'updatedAt': '2020-05-06T09:13:28.316Z'}]","[{'id': '286f599c-f86a-4932-82f0-f5a06f1eca03', 'count': 1}, {'id': 'aa0d425f-d530-4478-9a77-fe3aedc79eea', 'count': 1}]",False,,False,classic,True,False,[{'url': 'https://i.imgur.com/3RNYhUr.jpg'}],,59270,,商業設計系
0,233620207,#問題 看realme xt螢幕會不舒服嗎,本來已經決定買紅米，但還是覺得realme xt很香，還多2ram，只是又看很多人說，看xt螢幕眼睛容易不舒服，我自己眼睛算較敏感，也有看說，可能是較便宜AMOLED關係，聽說那個壽命還比較短，想問有,False,True,False,0e0bc27b-8c69-4149-b229-04e7a865a09d,,2020-05-06T08:55:06.099Z,2020-05-06T08:55:44.118Z,3,5,False,[],"['手機', 'Android']",{'layout': 'classic'},3C,3c,False,M,樹德科技大學,,,[],"[{'id': '286f599c-f86a-4932-82f0-f5a06f1eca03', 'count': 5}]",False,,False,classic,False,False,[],,60343,,
0,233620119,Switch 動物森有會特別版要等半年！,因為想買一台Switch 給老公當生日禮物，我知道現在買不到 還是抱著試看看說不定會有的心態去問 燦x 問要等兩個月 3井更扯 動森特別要等半年 而已一定要綁片 還要超過18000才可以出貨 今年年初,False,True,False,0e0bc27b-8c69-4149-b229-04e7a865a09d,,2020-05-06T08:38:12.856Z,2020-05-06T08:38:12.856Z,10,4,False,['HIDE_THUMBNAIL'],['Switch'],{'layout': 'classic'},3C,3c,False,F,國立臺中科技大學,,,[],"[{'id': '286f599c-f86a-4932-82f0-f5a06f1eca03', 'count': 4}]",False,,False,classic,False,False,[],,61358,,
0,233619990,#請益 真無線藍芽耳機 （內有選手）,是想送男友生日禮物，他目前有一條音質蠻好的有線耳機，但想要一個方便攜帶的無限耳機，主要拿來坐火車聽音樂，（他說人擠人的時候怕拉到線），所以音質沒有要求到很頂尖 但不要太差，要抗噪能力強 收納盒也可充電,False,True,False,0e0bc27b-8c69-4149-b229-04e7a865a09d,,2020-05-06T08:17:30.383Z,2020-05-06T08:21:01.201Z,5,1,False,['HIDE_THUMBNAIL'],"['無線', '藍芽', '耳機']",{'layout': 'classic'},3C,3c,False,F,國立勤益科技大學,,,[],"[{'id': '286f599c-f86a-4932-82f0-f5a06f1eca03', 'count': 1}]",False,,False,classic,False,False,[],,62561,,
0,233619916,#問題 7000買二手I7還是安卓機？,我知道這個問題看起來很蠢，但是我是真心的想要發問，因為我的手機快壞掉了（是小米機，這隻大概用了兩年半的時間，對小米印象還不錯所以還是很想要換小米或是OPPO，因為這隻手機的缺點只是相機畫質很差很差，那,False,True,False,0e0bc27b-8c69-4149-b229-04e7a865a09d,,2020-05-06T08:04:29.116Z,2020-05-06T08:04:29.116Z,30,2,False,[],"['安卓', '手機', 'iPhone', '小米', '二手']",{'layout': 'classic'},3C,3c,False,F,國立臺北大學,,,[],"[{'id': '286f599c-f86a-4932-82f0-f5a06f1eca03', 'count': 1}, {'id': 'aa0d425f-d530-4478-9a77-fe3aedc79eea', 'count': 1}]",False,,False,classic,False,False,[],,63344,,
0,233619908,premiere影片加快回音求解,想把有人聲的影片加快但PR都會有回音，試過變調效果卻一樣，在final cut上面調很簡單沒什麼問題，YouTube加快影片也沒有這個問題，想問什麼方法可以解決？因為在pr上面作業一段時間了也來不及換,False,True,False,0e0bc27b-8c69-4149-b229-04e7a865a09d,,2020-05-06T08:03:15.587Z,2020-05-06T08:03:15.587Z,0,0,False,[],"['MacBook', '筆電', '電腦']",{'layout': 'classic'},3C,3c,False,F,崑山科技大學,,,[],[],False,,False,classic,False,False,[],,63419,,
0,233619735,#問題 筆電鍵盤完全沒反應 acer,昨天我刷個牙回來 突然鍵盤完全沒有反應，有上網查一下有些人說按fn加f1.2.3那些的，但是試了之後還是沒用，當時有點晚了而且想說明天可能就好了，於是我就關機了，結果今天卡在這裡....，連密碼都打不,False,True,False,0e0bc27b-8c69-4149-b229-04e7a865a09d,,2020-05-06T07:31:15.208Z,2020-05-06T07:31:15.208Z,2,0,False,[],['筆電'],{'layout': 'classic'},3C,3c,False,F,文藻外語大學,,,"[{'id': '1a4ca72d-cb66-442c-a653-0220a05e1d55', 'url': 'https://i.imgur.com/eJnT87fl.jpg', 'normalizedUrl': 'https://i.imgur.com/eJnT87fl.jpg', 'thumbnail': 'https://i.imgur.com/eJnT87fl.jpg', 'type': 'image/thumbnail', 'tags': ['ANNOTATED'], 'createdAt': '2020-05-06T07:31:15.208Z', 'updatedAt': '2020-05-06T07:31:15.208Z'}, {'id': '1a4ca72d-cb66-442c-a653-0220a05e1d55', 'url': 'https://i.imgur.com/eJnT87f.jpg', 'normalizedUrl': 'https://imgur.com/eJnT87f', 'thumbnail': 'https://i.imgur.com/eJnT87fl.jpg', 'type': 'image/imgur', 'tags': ['ANNOTATED'], 'createdAt': '2020-05-06T07:31:15.208Z', 'updatedAt': '2020-05-06T07:31:15.208Z'}]",[],False,,False,classic,True,False,[{'url': 'https://i.imgur.com/eJnT87f.jpg'}],,65341,,
0,233619681,雲端硬碟顯示,大家好，想詢問一下有沒有人遇過一樣的情況QQ，下面是我的雲端登入的時候的畫面，資料夾跟帳號那邊都莫名變成黑色色塊（我也忘記原本是長什麼樣子了...，想問有人知道為什麼會這樣嗎QQ，雖然暫時不影響操作但,False,True,False,0e0bc27b-8c69-4149-b229-04e7a865a09d,,2020-05-06T07:22:16.688Z,2020-05-06T07:22:16.688Z,5,1,False,[],['雲端'],{'layout': 'classic'},3C,3c,False,F,中國醫藥大學,,,"[{'id': '05a0652c-cc02-4d47-9a7d-f2171876dd1c', 'url': 'https://megapx-assets.dcard.tw/images/fb4b7aa6-7e73-4a9c-bf90-d7e1485c7045/160.jpeg', 'normalizedUrl': 'https://megapx-assets.dcard.tw/images/fb4b7aa6-7e73-4a9c-bf90-d7e1485c7045/160.jpeg', 'thumbnail': 'https://megapx-assets.dcard.tw/images/fb4b7aa6-7e73-4a9c-bf90-d7e1485c7045/160.jpeg', 'type': 'image/thumbnail', 'tags': ['ANNOTATED'], 'createdAt': '2020-05-06T07:22:16.688Z', 'updatedAt': '2020-05-06T07:22:16.688Z', 'width': 114, 'height': 160}, {'id': '05a0652c-cc02-4d47-9a7d-f2171876dd1c', 'url': 'https://megapx-assets.dcard.tw/images/fb4b7aa6-7e73-4a9c-bf90-d7e1485c7045/640.jpeg', 'normalizedUrl': 'https://megapx.dcard.tw/v1/images/fb4b7aa6-7e73-4a9c-bf90-d7e1485c7045', 'thumbnail': 'https://megapx-assets.dcard.tw/images/fb4b7aa6-7e73-4a9c-bf90-d7e1485c7045/160.jpeg', 'type': 'image/megapx', 'tags': ['ANNOTATED'], 'createdAt': '2020-05-06T07:22:16.688Z', 'updatedAt': '2020-05-06T07:22:16.688Z', 'width': 750, 'height': 1054}, {'id': '5d3f6009-4e3d-4138-9406-58aafa3dde49', 'url': 'https://megapx-assets.dcard.tw/images/f5923161-3436-43dd-b11f-eba1de3fe0c2/640.jpeg', 'normalizedUrl': 'https://megapx.dcard.tw/v1/images/f5923161-3436-43dd-b11f-eba1de3fe0c2', 'thumbnail': 'https://megapx-assets.dcard.tw/images/f5923161-3436-43dd-b11f-eba1de3fe0c2/160.jpeg', 'type': 'image/megapx', 'tags': ['ANNOTATED'], 'createdAt': '2020-05-06T07:22:16.688Z', 'updatedAt': '2020-05-06T07:22:16.688Z', 'width': 750, 'height': 393}]","[{'id': '286f599c-f86a-4932-82f0-f5a06f1eca03', 'count': 1}]",False,,False,classic,True,False,"[{'url': 'https://megapx-assets.dcard.tw/images/fb4b7aa6-7e73-4a9c-bf90-d7e1485c7045/640.jpeg'}, {'url': 'https://megapx-assets.dcard.tw/images/f5923161-3436-43dd-b11f-eba1de3fe0c2/640.jpeg'}]",,65880,,
0,233619640,#問 #excel 曲線下部分上色,想問各位excel高手們，如果想要在以下這張圖x軸5～10（或是其他x軸的某區段）的曲線下上色，應該怎麼操作呢？我現在都用笨笨的小畫家上色，只是看起來很不專業><，大概的形式是這樣：謝謝大家,False,False,False,0e0bc27b-8c69-4149-b229-04e7a865a09d,,2020-05-06T07:14:46.405Z,2020-05-06T11:59:07.013Z,10,0,True,[],"['EXCEL', '問題']",{'layout': 'classic'},3C,3c,False,F,   ,,,"[{'id': '416a9e46-9a28-4640-af38-a6ea65dd183d', 'url': 'https://megapx-assets.dcard.tw/images/871067e4-59b4-444a-b409-aea93b58eb5a/160.jpeg', 'normalizedUrl': 'https://megapx-assets.dcard.tw/images/871067e4-59b4-444a-b409-aea93b58eb5a/160.jpeg', 'thumbnail': 'https://megapx-assets.dcard.tw/images/871067e4-59b4-444a-b409-aea93b58eb5a/160.jpeg', 'type': 'image/thumbnail', 'tags': ['ANNOTATED'], 'createdAt': '2020-05-06T07:14:46.405Z', 'updatedAt': '2020-05-06T11:59:07.013Z', 'width': 160, 'height': 120}, {'id': '416a9e46-9a28-4640-af38-a6ea65dd183d', 'url': 'https://megapx-assets.dcard.tw/images/871067e4-59b4-444a-b409-aea93b58eb5a/640.jpeg', 'normalizedUrl': 'https://megapx.dcard.tw/v1/images/871067e4-59b4-444a-b409-aea93b58eb5a', 'thumbnail': 'https://megapx-assets.dcard.tw/images/871067e4-59b4-444a-b409-aea93b58eb5a/160.jpeg', 'type': 'image/megapx', 'tags': ['ANNOTATED'], 'createdAt': '2020-05-06T07:14:46.405Z', 'updatedAt': '2020-05-06T11:59:07.013Z', 'width': 2000, 'height': 1500}, {'id': 'fe7cd4b2-24e3-484c-9909-0467b6a7a5d2', 'url': 'https://megapx-assets.dcard.tw/images/144cebdf-cb73-4f07-ab9b-750aaf00e20e/640.jpeg', 'normalizedUrl': 'https://megapx.dcard.tw/v1/images/144cebdf-cb73-4f07-ab9b-750aaf00e20e', 'thumbnail': 'https://megapx-assets.dcard.tw/images/144cebdf-cb73-4f07-ab9b-750aaf00e20e/160.jpeg', 'type': 'image/megapx', 'tags': ['ANNOTATED'], 'createdAt': '2020-05-06T07:14:46.405Z', 'updatedAt': '2020-05-06T11:59:07.013Z', 'width': 1242, 'height': 932}]",[],False,,False,classic,True,False,"[{'url': 'https://megapx-assets.dcard.tw/images/871067e4-59b4-444a-b409-aea93b58eb5a/640.jpeg'}, {'url': 'https://megapx-assets.dcard.tw/images/144cebdf-cb73-4f07-ab9b-750aaf00e20e/640.jpeg'}]",,66332,,bbbbbbeeeee
0,233619614,AMAZFIT 米動手錶 青春版,大大們好～想請教有使用過或有相關經驗的大大，詢問這隻手錶如果一直計時會很耗電嗎？由於運動的關係，需要一直計時。頻率差不多一天計時兩小時，一個禮拜使用五天。如果以這頻率大概多久需要充一次電呢？還是大大們,False,True,False,0e0bc27b-8c69-4149-b229-04e7a865a09d,,2020-05-06T07:10:27.657Z,2020-05-06T07:20:04.436Z,2,1,False,[],['手錶'],{'layout': 'classic'},3C,3c,False,M,國立勤益科技大學,,,[],"[{'id': '286f599c-f86a-4932-82f0-f5a06f1eca03', 'count': 1}]",False,,False,classic,False,False,[],,66592,,
0,233619545,#請益    行動硬碟的選擇與推薦,我目前看中兩款，一個是「SP Armor A60 5TB」4699元，和「Transcend StoreJet 25H3 4TB」3799元，兩個都是軍規防震，但前者還有說防水。大家覺得要哪個？或有沒,False,True,False,0e0bc27b-8c69-4149-b229-04e7a865a09d,,2020-05-06T06:57:12.483Z,2020-05-06T06:57:12.483Z,0,0,False,[],"['硬碟', '推薦', '請教', '選擇']",{'layout': 'classic'},3C,3c,False,M,玄奘大學,,,[],[],False,,False,classic,False,False,[],,67389,,
0,233619454,LINE有辦法設定群組某人發文通知嗎?,因為群組的人爆多，可是並非每個人發的文都是有意義的， 所以想要鎖定某人或某幾個人發訊息就可通知我，請問有這個功能嗎？,False,False,False,0e0bc27b-8c69-4149-b229-04e7a865a09d,,2020-05-06T06:40:27.731Z,2020-05-06T06:40:27.731Z,3,0,True,[],"['群組', '設定', 'Android', 'LINE']",{'layout': 'classic'},3C,3c,False,M,虛幻的藍天,,,[],[],False,,False,classic,False,False,[],,68395,,loveyouis999
0,233619235,e動郵局和郵保鑣打不開,請問有人這樣嗎，打開就一直閃退或是沒畫面，試過更新和重新開機都一樣沒好，還是app正在維修？？,False,True,False,0e0bc27b-8c69-4149-b229-04e7a865a09d,,2020-05-06T05:59:45.619Z,2020-05-06T05:59:45.619Z,6,0,False,['HIDE_THUMBNAIL'],"['郵局', 'App', 'iPhone', '手機']",{'layout': 'classic'},3C,3c,False,F,文藻外語大學,,,[],[],False,,False,classic,False,False,[],,70838,,
0,233618900,iPhone XS Max 自己播音樂,第一次發文如有錯請見諒，手機是靜音與開勿擾的狀態在玩遊戲，什麼也沒動 突然有一段7-8秒的音樂，沒有歌詞 像廣告的感覺（那個遊戲本身沒有廣告），但是拉下看 音樂的部分沒在播放，所以確定不是按到kkbo,False,True,False,0e0bc27b-8c69-4149-b229-04e7a865a09d,,2020-05-06T05:10:46.483Z,2020-05-06T08:03:29.481Z,3,2,False,['HIDE_THUMBNAIL'],"['iPhone', '手機', 'iOS']",{'layout': 'classic'},3C,3c,False,F,朝陽科技大學,,,[],"[{'id': '286f599c-f86a-4932-82f0-f5a06f1eca03', 'count': 2}]",False,,False,classic,False,False,[],,73779,,
0,233618844,手機選擇疑難排解,請問如果只選oppo，realme，紅米的話，哪個比較好呢,False,False,False,0e0bc27b-8c69-4149-b229-04e7a865a09d,,2020-05-06T05:02:02.160Z,2020-05-06T05:02:02.160Z,6,4,False,[],['手機'],{'layout': 'classic'},3C,3c,False,M,逢甲大學,,,"[{'id': '5b5ab4aa-8d5d-4f95-bd0d-eeec24f18098', 'url': 'https://i.imgur.com/sn6QsdAl.jpg', 'normalizedUrl': 'https://i.imgur.com/sn6QsdAl.jpg', 'thumbnail': 'https://i.imgur.com/sn6QsdAl.jpg', 'type': 'image/thumbnail', 'tags': ['ANNOTATED'], 'createdAt': '2020-05-06T05:02:02.160Z', 'updatedAt': '2020-05-06T05:02:02.160Z'}, {'id': '5b5ab4aa-8d5d-4f95-bd0d-eeec24f18098', 'url': 'https://i.imgur.com/sn6QsdA.png', 'normalizedUrl': 'https://imgur.com/sn6QsdA', 'thumbnail': 'https://i.imgur.com/sn6QsdAl.jpg', 'type': 'image/imgur', 'tags': ['ANNOTATED'], 'createdAt': '2020-05-06T05:02:02.160Z', 'updatedAt': '2020-05-06T05:02:02.160Z'}, {'id': '1443fdd4-4e61-4228-8516-b7dbb640d8a1', 'url': 'https://i.imgur.com/m8QNpDI.png', 'normalizedUrl': 'https://imgur.com/m8QNpDI', 'thumbnail': 'https://i.imgur.com/m8QNpDIl.jpg', 'type': 'image/imgur', 'tags': ['ANNOTATED'], 'createdAt': '2020-05-06T05:02:02.160Z', 'updatedAt': '2020-05-06T05:02:02.160Z'}, {'id': '2d604030-866b-4d1a-8289-8cb2154cb9a2', 'url': 'https://i.imgur.com/glHGajv.png', 'normalizedUrl': 'https://imgur.com/glHGajv', 'thumbnail': 'https://i.imgur.com/glHGajvl.jpg', 'type': 'image/imgur', 'tags': ['ANNOTATED'], 'createdAt': '2020-05-06T05:02:02.160Z', 'updatedAt': '2020-05-06T05:02:02.160Z'}]","[{'id': '286f599c-f86a-4932-82f0-f5a06f1eca03', 'count': 4}]",False,,False,classic,True,False,"[{'url': 'https://i.imgur.com/sn6QsdA.png'}, {'url': 'https://i.imgur.com/m8QNpDI.png'}, {'url': 'https://i.imgur.com/glHGajv.png'}]",,74305,,運輸與物流學系
0,233618782,平板選擇（文書）,tab s6 lite /tab a 8.0，純粹使用平板做筆記，完全不考慮追劇與玩遊戲，有筆電可製作其他筆電不能執行的功能，想請問這兩台 以性價比來說會比較推哪台，還是留點錢買中低階iPad，手機使,False,True,False,0e0bc27b-8c69-4149-b229-04e7a865a09d,,2020-05-06T04:52:56.927Z,2020-05-06T04:57:17.968Z,3,1,False,[],"['文書', '平板']",{'layout': 'classic'},3C,3c,False,M,輔仁大學,,,[],"[{'id': '286f599c-f86a-4932-82f0-f5a06f1eca03', 'count': 1}]",False,,False,classic,False,False,[],,74851,,
0,233618593,硬碟健康但是系統讀不到碟,本人身為一個工具人，幫朋友修修電腦是很正常的事情，最近朋友的電腦找不到硬碟，除錯後發現是SSD掛了，所以去RMA換新後裝系統，進系統後發現他的傳統硬碟讀不到，但是BIOS讀的到傳統硬碟，系統管理員也讀,False,False,False,0e0bc27b-8c69-4149-b229-04e7a865a09d,,2020-05-06T04:20:16.102Z,2020-05-06T04:20:16.102Z,9,2,True,[],"['硬碟', '電腦', '電腦維修']",{'layout': 'classic'},3C,3c,False,M,烤鴨王,,,"[{'id': 'd2279392-a099-4d9e-b502-8b4d8b3c4cda', 'url': 'https://i.imgur.com/RWAyLlpl.jpg', 'normalizedUrl': 'https://i.imgur.com/RWAyLlpl.jpg', 'thumbnail': 'https://i.imgur.com/RWAyLlpl.jpg', 'type': 'image/thumbnail', 'tags': ['ANNOTATED'], 'createdAt': '2020-05-06T04:20:16.102Z', 'updatedAt': '2020-05-06T04:20:16.102Z'}, {'id': 'd2279392-a099-4d9e-b502-8b4d8b3c4cda', 'url': 'https://i.imgur.com/RWAyLlp.jpg', 'normalizedUrl': 'https://imgur.com/RWAyLlp', 'thumbnail': 'https://i.imgur.com/RWAyLlpl.jpg', 'type': 'image/imgur', 'tags': ['ANNOTATED'], 'createdAt': '2020-05-06T04:20:16.102Z', 'updatedAt': '2020-05-06T04:20:16.102Z'}, {'id': 'acf45744-e7a8-47cb-b7e2-f4bdf37b1197', 'url': 'https://i.imgur.com/yBvSVmj.jpg', 'normalizedUrl': 'https://imgur.com/yBvSVmj', 'thumbnail': 'https://i.imgur.com/yBvSVmjl.jpg', 'type': 'image/imgur', 'tags': ['ANNOTATED'], 'createdAt': '2020-05-06T04:20:16.102Z', 'updatedAt': '2020-05-06T04:20:16.102Z'}]","[{'id': '286f599c-f86a-4932-82f0-f5a06f1eca03', 'count': 2}]",False,,False,classic,True,False,"[{'url': 'https://i.imgur.com/RWAyLlp.jpg'}, {'url': 'https://i.imgur.com/yBvSVmj.jpg'}]",,76813,,yehjen
