﻿,id,title,excerpt,anonymousSchool,anonymousDepartment,pinned,forumId,replyId,createdAt,updatedAt,commentCount,likeCount,withNickname,tags,topics,meta,forumName,forumAlias,nsfw,gender,replyTitle,reportReason,mediaMeta,reactions,hidden,customStyle,isSuspiciousAccount,layout,withImages,withVideos,media,reportReasonText,elapsedTime,postAvatar,school,department
0,233624702,因為工作忽略了另一半,以前我的他 是一個善解人意又體貼的伴侶，他比同年齡的其他人都還來的會想 雖然他偶爾也會有點小任性，但跟他在一起真的很幸福 一下班到家就飛撲過來抱我，當初在我找到工作時 他非常替我開心，我也在心裡默默的,True,True,False,b5b2653a-6304-4564-9ea0-a4cec0be7aee,,2020-05-07T01:32:00.024Z,2020-05-07T01:32:00.024Z,0,0,False,[],['感情'],{'layout': 'classic'},彩虹,rainbow,False,M,,,[],[],False,,False,classic,False,False,[],,178,,,
0,233624582,分手原因：交往但無法跟我單獨出門？,最近談了第一次戀愛，但其實也來來回回的跟很多人插肩而過或是因為我害怕大部分的都沒結果，這次終於遇到一個男生，不知道是不是沒人對我那麼好過，所以覺得他特別好，這次也沒想太多，告訴自己不要想那麼多，但..,True,True,False,b5b2653a-6304-4564-9ea0-a4cec0be7aee,,2020-05-07T00:47:34.238Z,2020-05-07T00:47:34.238Z,0,1,False,['HIDE_THUMBNAIL'],[],{'layout': 'classic'},彩虹,rainbow,False,M,,,[],"[{'id': '286f599c-f86a-4932-82f0-f5a06f1eca03', 'count': 1}]",False,,False,classic,False,False,[],,2846,,,
0,233624508,怎麼會讓最愛的妳受傷,為什麼總是容易傷到自己喜歡的人？將她捧在手掌心都來不及了，怎麼還是會做錯事/說錯話，讓她傷心難過呢？只是想說，謝謝你相信我說的。剩下沒說出口的是，那段時間腦補你的一舉一動時，感到很開心，因為不管是怎樣,True,True,False,b5b2653a-6304-4564-9ea0-a4cec0be7aee,,2020-05-07T00:19:25.564Z,2020-05-07T01:10:17.383Z,0,5,False,['HIDE_THUMBNAIL'],[],{'layout': 'classic'},彩虹,rainbow,False,F,,,[],"[{'id': '286f599c-f86a-4932-82f0-f5a06f1eca03', 'count': 4}, {'id': 'aa0d425f-d530-4478-9a77-fe3aedc79eea', 'count': 1}]",False,,False,classic,False,False,[],,4536,,,
0,233624503,覺得自己的年紀很尷尬..,最近有那麼一點點想談感情的衝動，所以想說打開聊天軟體看能不能遇到緣分（ ´▽｀），找對象希望是能和自己年紀差不多或大一些的，可是呢！！！！，本人我24歲了是個大三學生（´･ω･`），（之前因為一些因素,True,True,False,b5b2653a-6304-4564-9ea0-a4cec0be7aee,,2020-05-07T00:18:41.437Z,2020-05-07T00:18:41.437Z,1,10,False,['HIDE_THUMBNAIL'],"['Les', '年紀']",{'layout': 'classic'},彩虹,rainbow,False,F,,,[],"[{'id': '286f599c-f86a-4932-82f0-f5a06f1eca03', 'count': 9}, {'id': 'aa0d425f-d530-4478-9a77-fe3aedc79eea', 'count': 1}]",False,,False,classic,False,False,[],,4581,,,
0,233624357,七、手作是真理？,承繼上篇，大家一面倒覺得我在姊姊衣服裡做手作，如此煽風點火之行，該為自己負責，自己點燃的火自己滅，哈哈    你們真該曉得，我的手技奇爛無比，平常姊姊無論做事、追劇，我想怎麼摸就怎麼摸，放任給我玩也絲,False,True,False,b5b2653a-6304-4564-9ea0-a4cec0be7aee,233529707,2020-05-06T22:19:38.748Z,2020-05-06T22:19:38.748Z,1,26,True,[],"['床上', '手作', '訓練', '右手', '肌肉']",{'layout': 'classic'},彩虹,rainbow,False,F,六、丈母娘就在隔壁，姊姊不要啊！,,[],"[{'id': '286f599c-f86a-4932-82f0-f5a06f1eca03', 'count': 24}, {'id': 'aa0d425f-d530-4478-9a77-fe3aedc79eea', 'count': 1}, {'id': 'e8e6bc5d-41b0-4129-b134-97507523d7ff', 'count': 1}]",False,,False,classic,False,False,[],,11725,,陽光早點,b.b.
0,233624203,您已經很久沒有移動，是否要繼續偵測？,從來沒想過會是這樣被打斷（可憐🥺，昨晚開了一大段夜車後，到了某家還不錯的旅店，跟女友一起洗好澡後，沒穿好衣服的躺到床上準備舒服一場，一切順順利利，可是！，就在女友快到達天際的那刻🥰，傳來了一個熟悉,True,True,False,b5b2653a-6304-4564-9ea0-a4cec0be7aee,,2020-05-06T19:50:53.230Z,2020-05-06T19:56:10.307Z,1,7,False,['HIDE_THUMBNAIL'],"['西斯廢文', '有趣']",{'layout': 'classic'},彩虹,rainbow,False,F,,,[],"[{'id': '286f599c-f86a-4932-82f0-f5a06f1eca03', 'count': 6}, {'id': 'aa0d425f-d530-4478-9a77-fe3aedc79eea', 'count': 1}]",False,,False,classic,False,False,[],,20652,,,
0,233624194,我們之間 存在著時差,：你慢了一步。：是你走快了我的時間。我和他結束了，我想是因為我們之間存在著時差。和他認識是在冬日後 在軟體，他不常使用 偶爾會私訊我，我很健忘 聊完就過去了從不帶到明天，就這樣我們斷斷續續的交換了彼此,False,True,False,b5b2653a-6304-4564-9ea0-a4cec0be7aee,,2020-05-06T19:47:05.087Z,2020-05-06T19:47:05.087Z,1,9,True,['HIDE_THUMBNAIL'],"['曖昧', '故事']",{'layout': 'classic'},彩虹,rainbow,False,M,,,[],"[{'id': '286f599c-f86a-4932-82f0-f5a06f1eca03', 'count': 9}]",False,,False,classic,False,False,[],,20882,,鄰居,lllian
0,233624193,好朋友到不了愛情嗎？,我是一個有過一段異性戀的女子，她是一個從小就man的女子，誰有一樣的狀況呢？我用朋友的身份，默默的喜歡。經歷了她的劈腿前女友。經過九個月後，來不及表明，她出現了新女友，再經過三年多後，她們分手了，在她,True,True,False,b5b2653a-6304-4564-9ea0-a4cec0be7aee,,2020-05-06T19:47:02.022Z,2020-05-06T19:47:02.022Z,1,8,False,[],"['彩虹', '好朋友']",{'layout': 'classic'},彩虹,rainbow,False,F,,,[],"[{'id': '286f599c-f86a-4932-82f0-f5a06f1eca03', 'count': 7}, {'id': 'aa0d425f-d530-4478-9a77-fe3aedc79eea', 'count': 1}]",False,,False,classic,False,False,[],,20886,,,
0,233624165,回憶高冷男,突然想起高中的回憶，想要來分享一下，他呢是個十分受女生歡迎的人，有許多的學妹們喜歡他，（印像中也有學弟），但好像都沒有告白，他是個很神秘的人，神秘到沒有人知道他的生日，我甚至以為他跟我一樣是天蠍（但不,True,True,False,b5b2653a-6304-4564-9ea0-a4cec0be7aee,,2020-05-06T19:36:17.575Z,2020-05-06T19:36:17.575Z,2,9,False,['HIDE_THUMBNAIL'],"['半夜', '編舞', '困難的', 'gay']",{'layout': 'classic'},彩虹,rainbow,False,M,,,[],"[{'id': '286f599c-f86a-4932-82f0-f5a06f1eca03', 'count': 9}]",False,,False,classic,False,False,[],,21532,,,
0,233624018,這條路，很坎坷,最近面臨了見家長的壓力，雖說妳一直安撫我的心情，說妳媽媽是個開朗的人，但我的心一直忐忑不安，直到妳媽媽打來……我的心跳得更厲害了…，我們是遠距離，一個台灣頭一個台灣尾，從相識到相愛，已經半年時間。雖然,True,True,False,b5b2653a-6304-4564-9ea0-a4cec0be7aee,,2020-05-06T18:44:15.517Z,2020-05-06T18:44:15.517Z,3,12,False,[],"['彩虹', 'Les', '心情']",{'layout': 'classic'},彩虹,rainbow,False,F,,,[],"[{'id': '286f599c-f86a-4932-82f0-f5a06f1eca03', 'count': 11}, {'id': 'e8e6bc5d-41b0-4129-b134-97507523d7ff', 'count': 1}]",False,,False,classic,False,False,[],,24656,,,
0,233623875,裝什麼！,小的最近去拔了智齒（草泥馬的痛），雖然已經過一段時間，但就是缺了一顆牙，所以牙齒後面一直有個洞在ಠ_ಠ，時不時吃東西就會幫我自動儲存糧食在洞裡（貼心牙洞？總之為此感到困擾的我就求助她。：我的牙齒後面都,False,True,False,b5b2653a-6304-4564-9ea0-a4cec0be7aee,,2020-05-06T18:08:14.123Z,2020-05-06T18:08:14.123Z,4,26,True,[],"['大家期待的修理', '卡修理']",{'layout': 'classic'},彩虹,rainbow,False,F,,,"[{'id': 'c97a0590-f2c2-483e-ba26-4818bbbffe12', 'url': 'https://megapx-assets.dcard.tw/images/890fbc6f-7b15-45ad-9d24-d7d50d72b2d8/160.jpeg', 'normalizedUrl': 'https://megapx-assets.dcard.tw/images/890fbc6f-7b15-45ad-9d24-d7d50d72b2d8/160.jpeg', 'thumbnail': 'https://megapx-assets.dcard.tw/images/890fbc6f-7b15-45ad-9d24-d7d50d72b2d8/160.jpeg', 'type': 'image/thumbnail', 'tags': ['ANNOTATED'], 'createdAt': '2020-05-06T18:08:14.123Z', 'updatedAt': '2020-05-06T18:08:14.123Z', 'width': 159, 'height': 160}, {'id': 'c97a0590-f2c2-483e-ba26-4818bbbffe12', 'url': 'https://megapx-assets.dcard.tw/images/890fbc6f-7b15-45ad-9d24-d7d50d72b2d8/full.jpeg', 'normalizedUrl': 'https://megapx.dcard.tw/v1/images/890fbc6f-7b15-45ad-9d24-d7d50d72b2d8', 'thumbnail': 'https://megapx-assets.dcard.tw/images/890fbc6f-7b15-45ad-9d24-d7d50d72b2d8/160.jpeg', 'type': 'image/megapx', 'tags': ['ANNOTATED'], 'createdAt': '2020-05-06T18:08:14.123Z', 'updatedAt': '2020-05-06T18:08:14.123Z', 'width': 656, 'height': 662}]","[{'id': '286f599c-f86a-4932-82f0-f5a06f1eca03', 'count': 21}, {'id': 'e8e6bc5d-41b0-4129-b134-97507523d7ff', 'count': 4}, {'id': 'aa0d425f-d530-4478-9a77-fe3aedc79eea', 'count': 1}]",False,,False,classic,True,False,[{'url': 'https://megapx-assets.dcard.tw/images/890fbc6f-7b15-45ad-9d24-d7d50d72b2d8/full.jpeg'}],,26819,,🐶🦴,cherish_0813
0,233623722,成就達成:男朋友get,既然上次都講了曖昧的關係，那這次就來聊聊我們的歷程ㄅ~~，記得那時剛加完對方的line時，我整個人是有點呆掉的狀態，因為從小到大這還是第一次被要line，不知道怎麼會有人想要我的聯繫方式，而到了當天晚,True,True,False,b5b2653a-6304-4564-9ea0-a4cec0be7aee,233609431,2020-05-06T17:33:04.522Z,2020-05-06T17:33:04.522Z,0,29,False,[],"['彩虹', '同志', '男友', '愛情', '分享']",{'layout': 'classic'},彩虹,rainbow,False,M,我的曖昧朋友,,[],"[{'id': '286f599c-f86a-4932-82f0-f5a06f1eca03', 'count': 29}]",False,,False,classic,False,False,[],,28929,,,
0,233623580,說不出口,今天是U的生日，儘管我很想祝她生日快樂，但我又掙扎的說不出口，因為我知道我的訊息一傳出去我的內心就要不平靜了。她和我一樣是金牛座，也許兩隻固執的牛在一起，就是會撞的彼此遍體鱗傷吧。去年，為了送她生日禮,True,True,False,b5b2653a-6304-4564-9ea0-a4cec0be7aee,233533134,2020-05-06T17:08:39.311Z,2020-05-06T17:10:29.169Z,2,8,False,[],"['回憶', '前女友', '金牛座', '狐狸狸貓', '沒有妳的生日我也可以很好']",{'layout': 'classic'},彩虹,rainbow,False,F,妳是不是也很兩難呢,,[],"[{'id': '286f599c-f86a-4932-82f0-f5a06f1eca03', 'count': 7}, {'id': 'aa0d425f-d530-4478-9a77-fe3aedc79eea', 'count': 1}]",False,,False,classic,False,False,[],,30396,,,
0,233623569,我想...,回不去的過去，就讓它過去，至少我努力過，祝妳幸福，ㄧ定要幸福,True,True,False,b5b2653a-6304-4564-9ea0-a4cec0be7aee,,2020-05-06T17:06:24.201Z,2020-05-06T17:06:24.201Z,2,16,False,['HIDE_THUMBNAIL'],"['彩虹', '很痛']",{'layout': 'classic'},彩虹,rainbow,False,F,,,[],"[{'id': '286f599c-f86a-4932-82f0-f5a06f1eca03', 'count': 13}, {'id': '514c2569-fd53-4d9d-a415-bf0f88e7329f', 'count': 2}, {'id': 'aa0d425f-d530-4478-9a77-fe3aedc79eea', 'count': 1}]",False,,False,classic,False,False,[],,30532,,,
0,233623347,出櫃的那些故事- Taiki Noah篇,dcard上已經有介紹過這對情侶檔了，也想說一下這兩人的出櫃故事。-Noah篇- 一張照片的故事，在我初中的時候，有一個感情非常好的朋友，起先不知道自己其實是喜歡他的，只知道很喜歡跟他在一起玩，直到畢,False,True,False,b5b2653a-6304-4564-9ea0-a4cec0be7aee,,2020-05-06T16:38:07.589Z,2020-05-06T16:42:39.451Z,0,17,False,[],"['同志情侶', '出櫃', '彩虹']",{'layout': 'classic'},彩虹,rainbow,False,F,,,"[{'id': '2a41b105-33de-41eb-9581-ea1a64b9f126', 'url': 'https://i.imgur.com/OR4Wk91l.jpg', 'normalizedUrl': 'https://i.imgur.com/OR4Wk91l.jpg', 'thumbnail': 'https://i.imgur.com/OR4Wk91l.jpg', 'type': 'image/thumbnail', 'tags': ['ANNOTATED'], 'createdAt': '2020-05-06T16:42:39.451Z', 'updatedAt': '2020-05-06T16:42:39.451Z'}, {'id': '2a41b105-33de-41eb-9581-ea1a64b9f126', 'url': 'http://i.imgur.com/OR4Wk91.jpg', 'normalizedUrl': 'https://imgur.com/OR4Wk91', 'thumbnail': 'https://i.imgur.com/OR4Wk91l.jpg', 'type': 'image/imgur', 'tags': ['ANNOTATED'], 'createdAt': '2020-05-06T16:42:39.451Z', 'updatedAt': '2020-05-06T16:42:39.451Z'}, {'id': '83bf3f66-068e-444e-90ac-cdd8e3396a34', 'url': 'http://i.imgur.com/a8o3Ixf.jpg', 'normalizedUrl': 'https://imgur.com/a8o3Ixf', 'thumbnail': 'https://i.imgur.com/a8o3Ixfl.jpg', 'type': 'image/imgur', 'tags': ['ANNOTATED'], 'createdAt': '2020-05-06T16:42:39.451Z', 'updatedAt': '2020-05-06T16:42:39.451Z'}, {'id': '592fca71-c775-47cb-a179-2ac170496817', 'url': 'http://i.imgur.com/CtNdCzP.jpg', 'normalizedUrl': 'https://imgur.com/CtNdCzP', 'thumbnail': 'https://i.imgur.com/CtNdCzPl.jpg', 'type': 'image/imgur', 'tags': ['ANNOTATED'], 'createdAt': '2020-05-06T16:42:39.451Z', 'updatedAt': '2020-05-06T16:42:39.451Z'}, {'id': '6afb1373-a173-4407-bfcc-e3137ed50962', 'url': 'http://i.imgur.com/3nD5Gas.jpg', 'normalizedUrl': 'https://imgur.com/3nD5Gas', 'thumbnail': 'https://i.imgur.com/3nD5Gasl.jpg', 'type': 'image/imgur', 'tags': ['ANNOTATED'], 'createdAt': '2020-05-06T16:42:39.451Z', 'updatedAt': '2020-05-06T16:42:39.451Z'}]","[{'id': '286f599c-f86a-4932-82f0-f5a06f1eca03', 'count': 16}, {'id': 'aa0d425f-d530-4478-9a77-fe3aedc79eea', 'count': 1}]",False,,False,classic,True,False,"[{'url': 'http://i.imgur.com/OR4Wk91.jpg'}, {'url': 'http://i.imgur.com/a8o3Ixf.jpg'}, {'url': 'http://i.imgur.com/CtNdCzP.jpg'}, {'url': 'http://i.imgur.com/3nD5Gas.jpg'}]",,32230,,世新大學,
0,233623227,空虛寂寞,大家都是怎麼度過空虛寂寞的夜晚（除了約炮，有時心情不好真的想找人陪，殊不知大家都有伴了,True,True,False,b5b2653a-6304-4564-9ea0-a4cec0be7aee,,2020-05-06T16:23:31.194Z,2020-05-06T16:23:31.194Z,7,8,False,['HIDE_THUMBNAIL'],[],{'layout': 'classic'},彩虹,rainbow,False,M,,,[],"[{'id': '286f599c-f86a-4932-82f0-f5a06f1eca03', 'count': 7}, {'id': '514c2569-fd53-4d9d-a415-bf0f88e7329f', 'count': 1}]",False,,False,classic,False,False,[],,33108,,,
0,233623207,我喜歡的人是妳嗎？,從第一次看到妳的時候，噗對好喜歡的笑容，主動找妳相處，時不時偷鬧妳一下，講些笑話逗妳，時間一天一天過去，默默陪伴妳，有什麼問題我一定會衝第一幫妳，特別在乎你的舉動，喜歡與妳相處的時光。但我真的不懂這叫,True,True,False,b5b2653a-6304-4564-9ea0-a4cec0be7aee,,2020-05-06T16:21:29.927Z,2020-05-06T16:21:29.927Z,0,28,False,['HIDE_THUMBNAIL'],[],{'layout': 'classic'},彩虹,rainbow,False,F,,,[],"[{'id': '286f599c-f86a-4932-82f0-f5a06f1eca03', 'count': 26}, {'id': '514c2569-fd53-4d9d-a415-bf0f88e7329f', 'count': 1}, {'id': 'aa0d425f-d530-4478-9a77-fe3aedc79eea', 'count': 1}]",False,,False,classic,False,False,[],,33231,,,
0,233623196,睏低女友的上火夢話 完（微西斯）,有人催文..，只好用力擠一些出來🤣，這次的西斯跟夢話是分開的...，不過不變的是...，的意識依舊是模糊的....，最近忙翻了！，因為疫情的關係公司都要分組或是輪調...，每天都累到連夢話都沒有了！,True,True,False,b5b2653a-6304-4564-9ea0-a4cec0be7aee,233186865,2020-05-06T16:20:28.015Z,2020-05-06T22:06:44.997Z,5,47,False,[],"['TPL', '夢話', '日常']",{'layout': 'classic'},彩虹,rainbow,False,F,睏低女友的上火夢話2（微西斯）,,"[{'id': '82d51427-ba6f-496a-b953-23ee0ce13e3f', 'url': 'https://megapx-assets.dcard.tw/images/3e911a01-0c41-4b60-a925-90dd5cf620a9/160.jpeg', 'normalizedUrl': 'https://megapx-assets.dcard.tw/images/3e911a01-0c41-4b60-a925-90dd5cf620a9/160.jpeg', 'thumbnail': 'https://megapx-assets.dcard.tw/images/3e911a01-0c41-4b60-a925-90dd5cf620a9/160.jpeg', 'type': 'image/thumbnail', 'tags': ['ANNOTATED'], 'createdAt': '2020-05-06T16:20:28.015Z', 'updatedAt': '2020-05-06T22:06:44.997Z', 'width': 117, 'height': 160}, {'id': '82d51427-ba6f-496a-b953-23ee0ce13e3f', 'url': 'https://megapx-assets.dcard.tw/images/3e911a01-0c41-4b60-a925-90dd5cf620a9/640.jpeg', 'normalizedUrl': 'https://megapx.dcard.tw/v1/images/3e911a01-0c41-4b60-a925-90dd5cf620a9', 'thumbnail': 'https://megapx-assets.dcard.tw/images/3e911a01-0c41-4b60-a925-90dd5cf620a9/160.jpeg', 'type': 'image/megapx', 'tags': ['ANNOTATED'], 'createdAt': '2020-05-06T16:20:28.015Z', 'updatedAt': '2020-05-06T22:06:44.997Z', 'width': 921, 'height': 1263}]","[{'id': '286f599c-f86a-4932-82f0-f5a06f1eca03', 'count': 44}, {'id': 'e8e6bc5d-41b0-4129-b134-97507523d7ff', 'count': 2}, {'id': 'aa0d425f-d530-4478-9a77-fe3aedc79eea', 'count': 1}]",False,{},False,classic,True,False,[{'url': 'https://megapx-assets.dcard.tw/images/3e911a01-0c41-4b60-a925-90dd5cf620a9/640.jpeg'}],,33294,,,
0,233623125,我的伴在哪裡....,看到大家都分享很多自己交往女生的經驗，很想知道大家到底是怎麼在一起的...，是很順其自然還是直接告白表明心意？我有一個很喜歡的女孩 他是我很重要的朋友，但女生之間本來就有很多玩笑話愛來愛去的，就算我很,True,True,False,b5b2653a-6304-4564-9ea0-a4cec0be7aee,,2020-05-06T16:11:34.028Z,2020-05-06T16:11:34.028Z,2,15,False,['HIDE_THUMBNAIL'],[],{'layout': 'classic'},彩虹,rainbow,False,F,,,[],"[{'id': '286f599c-f86a-4932-82f0-f5a06f1eca03', 'count': 14}, {'id': 'aa0d425f-d530-4478-9a77-fe3aedc79eea', 'count': 1}]",False,,False,classic,False,False,[],,33830,,,
0,233623105,響應一下「麥當勞弟弟」,之前有一次我做BB（打烊清潔），我絕對不是為了偷工時主動幫忙代班的！，那一天！我一如往常的到二樓開始做清潔！剛好有一桌客人在我要打掃的地方內用餐！我便走過去說道：「不好意思！因為疫情的關係！此用餐區暫,True,True,False,b5b2653a-6304-4564-9ea0-a4cec0be7aee,,2020-05-06T16:08:54.279Z,2020-05-06T16:08:54.279Z,1,27,False,['HIDE_THUMBNAIL'],['彩虹'],{'layout': 'classic'},彩虹,rainbow,False,M,,,"[{'id': 'db65039e-e42d-4834-827b-bc6f6aff7a58', 'url': 'https://megapx-assets.dcard.tw/images/60f1f6ad-3f73-4f9a-9dea-c95d3c801048/640.jpeg', 'normalizedUrl': 'https://megapx.dcard.tw/v1/images/60f1f6ad-3f73-4f9a-9dea-c95d3c801048', 'thumbnail': 'https://megapx-assets.dcard.tw/images/60f1f6ad-3f73-4f9a-9dea-c95d3c801048/160.jpeg', 'type': 'image/megapx', 'tags': ['ANNOTATED'], 'createdAt': '2020-05-06T16:08:54.279Z', 'updatedAt': '2020-05-06T16:08:54.279Z', 'width': 828, 'height': 1472}]","[{'id': '286f599c-f86a-4932-82f0-f5a06f1eca03', 'count': 27}]",False,,False,classic,True,False,[],,33991,,,
0,233623039,副所長與菜鳥3,跟副所長的故事，正在展開中 ，究竟她對我的好，是照顧新人還是多了一份不一樣的感覺？我也不知道🤷‍️，不過重要的還是把工作做好，才不枉費副所長的栽培囉！，為了下禮拜的出差，所長給了我很多預備作業，這幾,True,True,False,b5b2653a-6304-4564-9ea0-a4cec0be7aee,,2020-05-06T16:00:35.256Z,2020-05-06T22:06:45.037Z,9,68,False,['HIDE_THUMBNAIL'],[],{'layout': 'classic'},彩虹,rainbow,False,F,,,[],"[{'id': '286f599c-f86a-4932-82f0-f5a06f1eca03', 'count': 66}, {'id': 'aa0d425f-d530-4478-9a77-fe3aedc79eea', 'count': 1}, {'id': 'e8e6bc5d-41b0-4129-b134-97507523d7ff', 'count': 1}]",False,{},False,classic,False,False,[],,34491,,,
0,233622894,互相報備,我跟女友在一起好幾年了，女友是踢，如果我今天要出門，我都會跟他說跟誰出去、去哪裡，到了跟朋友約好的地點、結束了要回家，到家了也會說，例如：我今天要跟xxx要去xx餐廳吃飯，但他總是含糊交代，不會跟我說,True,True,False,b5b2653a-6304-4564-9ea0-a4cec0be7aee,,2020-05-06T15:42:13.515Z,2020-05-06T15:44:43.902Z,3,13,False,['HIDE_THUMBNAIL'],[],{'layout': 'classic'},彩虹,rainbow,False,F,,,[],"[{'id': '286f599c-f86a-4932-82f0-f5a06f1eca03', 'count': 10}, {'id': 'aa0d425f-d530-4478-9a77-fe3aedc79eea', 'count': 2}, {'id': 'e8e6bc5d-41b0-4129-b134-97507523d7ff', 'count': 1}]",False,,False,classic,False,False,[],,35594,,,
0,233622604,是詐騙集團嗎,今天在交友軟體上面遇到一個女生前面我們聊的很好然後就突然約我看夜景，後面又突然跟我要電話號碼，我叫她打賴他死都不要，說要我電話讓她朋友確認我是不是本人，請問各位有遇過這樣的狀況嗎？你們會給嗎？,True,True,False,b5b2653a-6304-4564-9ea0-a4cec0be7aee,,2020-05-06T15:02:52.726Z,2020-05-06T15:02:52.726Z,14,5,False,['HIDE_THUMBNAIL'],['彩虹'],{'layout': 'classic'},彩虹,rainbow,False,F,,,[],"[{'id': '286f599c-f86a-4932-82f0-f5a06f1eca03', 'count': 4}, {'id': 'aa0d425f-d530-4478-9a77-fe3aedc79eea', 'count': 1}]",False,,False,classic,False,False,[],,37956,,,
0,233622573,我與巨蟹的日常（微西,我與巨蟹的日常（微西，（原文網址：我跟閃 現在剛認識沒多久，但因為平日都要上班 加上我們住的距離有點遠，差不多30分鐘路程要 所以我們假日才見面，但連假的時候閃也會回家裡一趟陪陪家人，所以我們有時候2,True,True,False,b5b2653a-6304-4564-9ea0-a4cec0be7aee,233602012,2020-05-06T14:58:29.263Z,2020-05-06T14:58:29.263Z,1,12,False,[],"['彩虹', '巨蟹', '日常']",{'layout': 'classic'},彩虹,rainbow,False,M,我與巨蟹的開始,,[],"[{'id': '286f599c-f86a-4932-82f0-f5a06f1eca03', 'count': 12}]",False,,False,classic,False,False,[],,38221,,,
0,233622547,我怎麼會喜歡上一個尬聊人-2.5,突然想到一些事情在高二上學期，所以補充一下，在12月底的時候，他喜歡的一個歌手要出唱片了，那時候他找我一起去她的簽售會，我買了那個歌手的專輯 拿給她簽名，甚至拿了海報，當時為了不想表現得像獻殷勤，所以,True,True,False,b5b2653a-6304-4564-9ea0-a4cec0be7aee,233620536,2020-05-06T14:55:37.745Z,2020-05-06T14:55:37.745Z,4,21,False,[],['彩虹'],{'layout': 'classic'},彩虹,rainbow,False,M,我怎麼會喜歡上一個尬聊人-2,,[],"[{'id': '286f599c-f86a-4932-82f0-f5a06f1eca03', 'count': 21}]",False,,False,classic,False,False,[],,38394,,,
0,233622530,我與巨蟹的日常（微西,我跟閃 現在剛認識沒多久，但因為平日都要上班 加上我們住的距離有點遠，差不多30分鐘路程要 所以我們假日才見面，但連假的時候閃也會回家裡一趟陪陪家人，所以我們有時候2個禮拜才見一次，平常也都是傳訊息的,True,True,False,b5b2653a-6304-4564-9ea0-a4cec0be7aee,,2020-05-06T14:53:48.456Z,2020-05-06T14:55:09.493Z,0,10,False,['HIDE_THUMBNAIL'],"['我與巨蟹', '巨蟹', '微西', '日常']",{'layout': 'classic'},彩虹,rainbow,False,M,,,[],"[{'id': '286f599c-f86a-4932-82f0-f5a06f1eca03', 'count': 10}]",False,,False,classic,False,False,[],,38505,,,
0,233622443,調皮羊捉弄呆呆獅 😁,今天一早🦁傳了這篇文字給我，親嘴親臉親額頭，愛妳到天荒地老，的确我們很合適，夫唱妻隨閃爆天，君子娘子在一起，說好一世只愛我，只會對妳獻出️，答應一世只愛妳，結果....我這樣回應她，打嘴打臉打額頭，,False,True,False,b5b2653a-6304-4564-9ea0-a4cec0be7aee,,2020-05-06T14:43:04.393Z,2020-05-06T14:43:04.393Z,3,15,True,[],"['調皮', 'TTL', '日常', 'Les', '心情']",{'layout': 'classic'},彩虹,rainbow,False,F,,,[],"[{'id': '286f599c-f86a-4932-82f0-f5a06f1eca03', 'count': 13}, {'id': 'aa0d425f-d530-4478-9a77-fe3aedc79eea', 'count': 1}, {'id': 'e8e6bc5d-41b0-4129-b134-97507523d7ff', 'count': 1}]",False,,False,classic,False,False,[],,39150,,匿名,winerrong
0,233622285,第21天,今天對於我剛好是第二十一天她離開的日子，真的還沒有習慣新的生活，前兩個禮拜真的是想到就哭，聽歌吃飯連呼吸都想吐，但最近越來越討厭自己這樣各種絕望的樣子，如果連自己都討厭自己了，那她一定也更討厭我，所以,True,True,False,b5b2653a-6304-4564-9ea0-a4cec0be7aee,,2020-05-06T14:20:11.672Z,2020-05-06T14:21:43.788Z,1,12,False,['HIDE_THUMBNAIL'],[],{'layout': 'classic'},彩虹,rainbow,False,F,,,[],"[{'id': '286f599c-f86a-4932-82f0-f5a06f1eca03', 'count': 11}, {'id': 'aa0d425f-d530-4478-9a77-fe3aedc79eea', 'count': 1}]",False,,False,classic,False,False,[],,40524,,,
0,233622247,助攻了自己被告白,我和她互相喜歡且坦白彼此心意，互動像情人那般親密卻都單身著，因為某些原因卻步而沒進入給予承諾的階段，那天來到書館，舊屋改造的日式平房裡，寧靜的氛圍帶點檀木的香氣，我們坐在榻榻米上翻閱著桌上的詩篇，感受,True,True,False,b5b2653a-6304-4564-9ea0-a4cec0be7aee,,2020-05-06T14:14:05.258Z,2020-05-06T20:06:02.629Z,5,122,False,[],"['告白', '詩集', '感謝我助攻我自己', '也感謝作者']",{'layout': 'classic'},彩虹,rainbow,False,F,,,"[{'id': 'db3ff2b2-8062-48c9-a31d-3fc75cf67feb', 'url': 'https://megapx-assets.dcard.tw/images/39092152-5ec9-45c3-8eca-fa071250968a/160.jpeg', 'normalizedUrl': 'https://megapx-assets.dcard.tw/images/39092152-5ec9-45c3-8eca-fa071250968a/160.jpeg', 'thumbnail': 'https://megapx-assets.dcard.tw/images/39092152-5ec9-45c3-8eca-fa071250968a/160.jpeg', 'type': 'image/thumbnail', 'tags': ['ANNOTATED'], 'createdAt': '2020-05-06T14:14:05.258Z', 'updatedAt': '2020-05-06T20:06:02.629Z', 'width': 160, 'height': 90}, {'id': 'db3ff2b2-8062-48c9-a31d-3fc75cf67feb', 'url': 'https://megapx-assets.dcard.tw/images/39092152-5ec9-45c3-8eca-fa071250968a/640.jpeg', 'normalizedUrl': 'https://megapx.dcard.tw/v1/images/39092152-5ec9-45c3-8eca-fa071250968a', 'thumbnail': 'https://megapx-assets.dcard.tw/images/39092152-5ec9-45c3-8eca-fa071250968a/160.jpeg', 'type': 'image/megapx', 'tags': ['ANNOTATED'], 'createdAt': '2020-05-06T14:14:05.258Z', 'updatedAt': '2020-05-06T20:06:02.629Z', 'width': 1242, 'height': 698}, {'id': 'f871856a-beee-4715-ab4c-fe52aa54fba9', 'url': 'https://megapx-assets.dcard.tw/images/f560f1b1-4383-4590-9947-f9e1c3a15dea/640.jpeg', 'normalizedUrl': 'https://megapx.dcard.tw/v1/images/f560f1b1-4383-4590-9947-f9e1c3a15dea', 'thumbnail': 'https://megapx-assets.dcard.tw/images/f560f1b1-4383-4590-9947-f9e1c3a15dea/160.jpeg', 'type': 'image/megapx', 'tags': ['ANNOTATED'], 'createdAt': '2020-05-06T14:14:05.258Z', 'updatedAt': '2020-05-06T20:06:02.629Z', 'width': 1242, 'height': 698}]","[{'id': '286f599c-f86a-4932-82f0-f5a06f1eca03', 'count': 121}, {'id': 'aa0d425f-d530-4478-9a77-fe3aedc79eea', 'count': 1}]",False,{},False,classic,True,False,"[{'url': 'https://megapx-assets.dcard.tw/images/39092152-5ec9-45c3-8eca-fa071250968a/640.jpeg'}, {'url': 'https://megapx-assets.dcard.tw/images/f560f1b1-4383-4590-9947-f9e1c3a15dea/640.jpeg'}]",,40892,,,
0,233622028,台南熱蠟除毛,欸抖，不知道發哪個版，台南有沒有推薦的地方可以提供男性熱蠟除毛的，天氣好熱！想除私密部欸嗚欸><,True,True,False,b5b2653a-6304-4564-9ea0-a4cec0be7aee,,2020-05-06T13:46:51.158Z,2020-05-06T13:46:51.158Z,4,3,False,['HIDE_THUMBNAIL'],"['除毛', '台南']",{'layout': 'classic'},彩虹,rainbow,False,M,,,[],"[{'id': '286f599c-f86a-4932-82f0-f5a06f1eca03', 'count': 3}]",False,,False,classic,False,False,[],,42527,,,
0,233622026,@原創 我的校草睡不著 #同居,十三、同居，為了哄姜皓，司空玄帶他去一間小巷裡的早餐店，是一對老夫婦經營的，菜色雖然沒有外面一般連鎖的多樣，但也足夠挑選。「跟你說，這家早餐店是我的口袋名單，很少人知道這裡。」「那為什麼現在客滿。」姜,False,True,False,b5b2653a-6304-4564-9ea0-a4cec0be7aee,233591597,2020-05-06T13:46:24.684Z,2020-05-06T13:46:24.684Z,5,7,True,[],"['BL小說', '輕小說', '彩虹', '原創小說', 'LGBT']",{'layout': 'classic'},彩虹,rainbow,False,M,@原創 我的校草睡不著 #12 正式關係,,[],"[{'id': '286f599c-f86a-4932-82f0-f5a06f1eca03', 'count': 7}]",False,,False,classic,False,False,[],,42513,,白衫,zebunyachi
0,233621977,☆身體的部位都有標準完美嗎？例如:廣告的部位模特兒(手指、腳、腿……）Ps.歡迎廠商找我當腳模♡,以下誰覺得自己最完美的部位，都可以po上來，歡迎請勿害羞,True,True,False,b5b2653a-6304-4564-9ea0-a4cec0be7aee,,2020-05-06T13:40:48.422Z,2020-05-06T13:40:48.422Z,6,5,False,[],"['廠商', '模特兒', '彩虹', '同志', '同性戀']",{'layout': 'classic'},彩虹,rainbow,False,M,,,[],"[{'id': '286f599c-f86a-4932-82f0-f5a06f1eca03', 'count': 4}, {'id': 'aa0d425f-d530-4478-9a77-fe3aedc79eea', 'count': 1}]",False,,False,classic,False,False,[],,42852,,,
0,233621943,如何找回感覺？,我們是透過交友軟體認識的，剛開始也都聊的還算愉快，也約出來吃飯、一起爬山，當然也滾了床單。我以為我們不會再見面，沒想到之後卻整天膩在一起；一個月內我們一共爬了十座山，我們一起漫遊在蜿蜒的北海岸，你也陪,True,True,False,b5b2653a-6304-4564-9ea0-a4cec0be7aee,,2020-05-06T13:36:12.733Z,2020-05-06T13:36:12.733Z,3,6,False,['HIDE_THUMBNAIL'],"['感情', '感情問題', '感情迷惘']",{'layout': 'classic'},彩虹,rainbow,False,M,,,[],"[{'id': '286f599c-f86a-4932-82f0-f5a06f1eca03', 'count': 6}]",False,,False,classic,False,False,[],,43129,,,
0,233621919,女生喜歡上有男友的女生,從小到大我都是喜歡男生，也交過男友，也曾經因為跟曖昧的男生沒開始而心痛過，我從沒想過自己的性向，因為理所當然的覺得是喜歡男生，看到同性戀合法，也不覺得和我有關係，但我沒想到會有這樣的一天，我認識一個女,False,True,False,b5b2653a-6304-4564-9ea0-a4cec0be7aee,,2020-05-06T13:33:25.275Z,2020-05-06T13:35:56.958Z,0,14,False,[],"['雙性戀', '女生']",{'layout': 'classic'},彩虹,rainbow,False,F,,,[],"[{'id': '286f599c-f86a-4932-82f0-f5a06f1eca03', 'count': 12}, {'id': '4b018f48-e184-445f-adf1-fc8e04ba09b9', 'count': 1}, {'id': 'aa0d425f-d530-4478-9a77-fe3aedc79eea', 'count': 1}]",False,,False,classic,False,False,[],,43298,,東吳大學,
0,233621792,我見過你愛我的樣子,從國中就潛水在這了，一直都很希望往後自己的幸福生活也能搬上來跟大家分享，現在我來了，只是曾經很幸福，我是艸明。嘿 小公舉 女漢子 木頭，你好嗎？我來了，但也許來晚了。曾經答應你的，要把我們的故事寫成文,False,True,False,b5b2653a-6304-4564-9ea0-a4cec0be7aee,,2020-05-06T13:12:20.559Z,2020-05-06T13:12:20.559Z,0,13,True,[],[],{'layout': 'classic'},彩虹,rainbow,False,F,,,"[{'id': '5f6914ba-9923-4e3c-bc0e-b4658c15a3b7', 'url': 'https://megapx-assets.dcard.tw/images/9761509e-ecfd-4225-bcf1-45045c1027fe/160.jpeg', 'normalizedUrl': 'https://megapx-assets.dcard.tw/images/9761509e-ecfd-4225-bcf1-45045c1027fe/160.jpeg', 'thumbnail': 'https://megapx-assets.dcard.tw/images/9761509e-ecfd-4225-bcf1-45045c1027fe/160.jpeg', 'type': 'image/thumbnail', 'tags': ['ANNOTATED'], 'createdAt': '2020-05-06T13:12:20.559Z', 'updatedAt': '2020-05-06T13:12:20.559Z', 'width': 107, 'height': 160}, {'id': '5f6914ba-9923-4e3c-bc0e-b4658c15a3b7', 'url': 'https://megapx-assets.dcard.tw/images/9761509e-ecfd-4225-bcf1-45045c1027fe/full.jpeg', 'normalizedUrl': 'https://megapx.dcard.tw/v1/images/9761509e-ecfd-4225-bcf1-45045c1027fe', 'thumbnail': 'https://megapx-assets.dcard.tw/images/9761509e-ecfd-4225-bcf1-45045c1027fe/160.jpeg', 'type': 'image/megapx', 'tags': ['ANNOTATED'], 'createdAt': '2020-05-06T13:12:20.559Z', 'updatedAt': '2020-05-06T13:12:20.559Z', 'width': 750, 'height': 1125}]","[{'id': '286f599c-f86a-4932-82f0-f5a06f1eca03', 'count': 11}, {'id': '514c2569-fd53-4d9d-a415-bf0f88e7329f', 'count': 1}, {'id': 'aa0d425f-d530-4478-9a77-fe3aedc79eea', 'count': 1}]",False,,False,classic,True,False,[{'url': 'https://megapx-assets.dcard.tw/images/9761509e-ecfd-4225-bcf1-45045c1027fe/full.jpeg'}],,44564,,艸明,z510160
0,233621755,愛上BL泰劇🥴,最近追了好多BL泰劇️，有不期而愛、與愛同居、逐月之月、一年生、待到重逢時～超多腐劇🥴🥴，接著介紹幾部我很喜歡的劇～～「不期而愛」是我入坑的第一部泰劇，特別的甜、超級清新啊，正CP整部看完真的姨母,True,True,False,b5b2653a-6304-4564-9ea0-a4cec0be7aee,,2020-05-06T13:05:51.898Z,2020-05-06T13:05:51.898Z,1,10,False,[],"['泰劇', 'BL推坑']",{'layout': 'classic'},彩虹,rainbow,False,F,,,"[{'id': '1ac958f4-700c-4d4e-89c7-6ceb78238ced', 'url': 'https://megapx-assets.dcard.tw/images/a4d2ba00-a148-4526-bcf6-cddec7d050bb/160.jpeg', 'normalizedUrl': 'https://megapx-assets.dcard.tw/images/a4d2ba00-a148-4526-bcf6-cddec7d050bb/160.jpeg', 'thumbnail': 'https://megapx-assets.dcard.tw/images/a4d2ba00-a148-4526-bcf6-cddec7d050bb/160.jpeg', 'type': 'image/thumbnail', 'tags': [], 'createdAt': '2020-05-06T13:05:51.898Z', 'updatedAt': '2020-05-06T13:05:51.898Z', 'width': 160, 'height': 90}, {'id': '1ac958f4-700c-4d4e-89c7-6ceb78238ced', 'url': 'https://megapx-assets.dcard.tw/images/a4d2ba00-a148-4526-bcf6-cddec7d050bb/640.jpeg', 'normalizedUrl': 'https://megapx.dcard.tw/v1/images/a4d2ba00-a148-4526-bcf6-cddec7d050bb', 'thumbnail': 'https://megapx-assets.dcard.tw/images/a4d2ba00-a148-4526-bcf6-cddec7d050bb/160.jpeg', 'type': 'image/megapx', 'tags': [], 'createdAt': '2020-05-06T13:05:51.898Z', 'updatedAt': '2020-05-06T13:05:51.898Z', 'width': 2000, 'height': 1125}, {'id': 'fb659b43-62a1-4037-8a3b-e78369561116', 'url': 'https://megapx-assets.dcard.tw/images/69d834fa-77f8-4a57-b39e-7b70767f34ec/640.jpeg', 'normalizedUrl': 'https://megapx.dcard.tw/v1/images/69d834fa-77f8-4a57-b39e-7b70767f34ec', 'thumbnail': 'https://megapx-assets.dcard.tw/images/69d834fa-77f8-4a57-b39e-7b70767f34ec/160.jpeg', 'type': 'image/megapx', 'tags': [], 'createdAt': '2020-05-06T13:05:51.898Z', 'updatedAt': '2020-05-06T13:05:51.898Z', 'width': 720, 'height': 720}, {'id': 'eb69a8c3-0586-40c0-8c58-2d9054b2fa53', 'url': 'https://megapx-assets.dcard.tw/images/3f7aa837-99c2-46d7-afc3-8252dc64e31a/640.jpeg', 'normalizedUrl': 'https://megapx.dcard.tw/v1/images/3f7aa837-99c2-46d7-afc3-8252dc64e31a', 'thumbnail': 'https://megapx-assets.dcard.tw/images/3f7aa837-99c2-46d7-afc3-8252dc64e31a/160.jpeg', 'type': 'image/megapx', 'tags': [], 'createdAt': '2020-05-06T13:05:51.898Z', 'updatedAt': '2020-05-06T13:05:51.898Z', 'width': 2000, 'height': 1125}]","[{'id': '286f599c-f86a-4932-82f0-f5a06f1eca03', 'count': 9}, {'id': 'aa0d425f-d530-4478-9a77-fe3aedc79eea', 'count': 1}]",False,,False,classic,True,False,"[{'url': 'https://megapx-assets.dcard.tw/images/a4d2ba00-a148-4526-bcf6-cddec7d050bb/640.jpeg'}, {'url': 'https://megapx-assets.dcard.tw/images/69d834fa-77f8-4a57-b39e-7b70767f34ec/640.jpeg'}, {'url': 'https://megapx-assets.dcard.tw/images/3f7aa837-99c2-46d7-afc3-8252dc64e31a/640.jpeg'}]",,44954,,,
0,233621539,我到底要不要再繼續暗戀著你,你突然在2年前闖進我的生命裡，我一開始只把你當朋友，你也對我很好，但不知道從何時，你對我多了好多肢體接觸，明明你對接觸很敏感的…你變得會牽我的手臂，站在我的後面摸著我肩膀，讓我靠著你的肚子而你輕輕摸著,True,True,False,b5b2653a-6304-4564-9ea0-a4cec0be7aee,,2020-05-06T12:32:17.072Z,2020-05-06T12:32:17.072Z,2,27,False,[],"['彩虹', 'Les', '感情', 'PPL', '同志']",{'layout': 'classic'},彩虹,rainbow,False,F,,,[],"[{'id': '286f599c-f86a-4932-82f0-f5a06f1eca03', 'count': 27}]",False,,False,classic,False,False,[],,46970,,,
0,233621527,用麵包換到漂亮姐姐！,和姐姐是在 R 開頭的軟體上認識的，雖然聽起來很荒唐，但我對姐姐（ 的照片 ）一見鍾情，不過我不是什麼膚淺的人，只是姐姐真的太太太太太漂亮了！，漂亮到曾經懷疑是詐騙集團什麼的，不過仗著自己沒錢沒色，完,True,True,False,b5b2653a-6304-4564-9ea0-a4cec0be7aee,,2020-05-06T12:30:13.390Z,2020-05-06T18:07:45.530Z,12,150,False,['HIDE_THUMBNAIL'],"['麵包是世界上最偉大的發明', '麵包應該要得諾貝爾獎', '姐姐真的好漂亮哦']",{'layout': 'classic'},彩虹,rainbow,False,F,,,[],"[{'id': '286f599c-f86a-4932-82f0-f5a06f1eca03', 'count': 144}, {'id': 'e8e6bc5d-41b0-4129-b134-97507523d7ff', 'count': 5}, {'id': 'aa0d425f-d530-4478-9a77-fe3aedc79eea', 'count': 1}]",False,{},False,classic,False,False,[],,47095,,,
0,233621265,在男生班教書的日常....,各位好，我是一名英文老師。高中兩年外加大學四年在女生為主的文科班裡面如魚得水的生活著，現在任教代理......教的是男生班.......我面臨到了一個很嚴峻的問題.......，我的課....其中一堂,True,True,False,b5b2653a-6304-4564-9ea0-a4cec0be7aee,,2020-05-06T11:46:16.374Z,2020-05-06T17:06:01.728Z,22,449,False,[],['心情'],{'layout': 'classic'},彩虹,rainbow,False,M,,,[],"[{'id': '286f599c-f86a-4932-82f0-f5a06f1eca03', 'count': 397}, {'id': 'e8e6bc5d-41b0-4129-b134-97507523d7ff', 'count': 51}, {'id': '011ead16-9b83-4729-9fde-c588920c6c2d', 'count': 1}]",False,{},False,classic,False,False,[],,49734,,,
0,233621261,誤會別人是gay 情侶還上前恭喜了他們怎麼辦😭,大家好又是我， 我今天要跟你們分享我人生最最最最尷尬的一天 ，還要是尷得要死的那種種，前文提要 ：我以為隔壁古董店店主有gay情， 我還以為他媽穩了，然後今天！！！！ 在一個風和日麗的早上，看到他們和,True,True,False,b5b2653a-6304-4564-9ea0-a4cec0be7aee,233501673,2020-05-06T11:45:30.005Z,2020-05-06T17:06:01.687Z,22,138,False,[],"['彩虹', '同性戀', '愛情', '暗戀']",{'layout': 'classic'},彩虹,rainbow,False,F,我好像目睹了一個gay 的求愛之旅,,[],"[{'id': '286f599c-f86a-4932-82f0-f5a06f1eca03', 'count': 118}, {'id': 'e8e6bc5d-41b0-4129-b134-97507523d7ff', 'count': 19}, {'id': 'aa0d425f-d530-4478-9a77-fe3aedc79eea', 'count': 1}]",False,{},False,classic,False,False,[],,49781,,,
0,233621245,如何維持關係？求幫助,我跟我男友才剛交往不到一個月，可是遠距，目前是一個月見面一次，平常也不會講電話（他說他不喜歡講，我覺得是因為他有室友的關係）。而他比我大一歲，今年畢業後準備去當兵了。我們現在每一天其實也沒什麼在聊天，,True,True,False,b5b2653a-6304-4564-9ea0-a4cec0be7aee,,2020-05-06T11:43:59.092Z,2020-05-06T11:43:59.092Z,7,8,False,['HIDE_THUMBNAIL'],"['彩虹', '感情困擾']",{'layout': 'classic'},彩虹,rainbow,False,M,,,[],"[{'id': '286f599c-f86a-4932-82f0-f5a06f1eca03', 'count': 8}]",False,,False,classic,False,False,[],,49874,,,
0,233621242,一百零一分不是情話,我常常和身邊的好友囔囔。妳是完美的化身，是我完美的對象，妳所有的不完美都造就了妳在我心中的完美，我好喜歡妳的溫柔，想念我們第一次同床，我翻身吵醒妳時，妳輕輕的摸摸我的頭，輕輕的說聲：「快睡。」我好想念,True,True,False,b5b2653a-6304-4564-9ea0-a4cec0be7aee,,2020-05-06T11:43:39.585Z,2020-05-06T11:43:39.585Z,0,20,False,['HIDE_THUMBNAIL'],[],{'layout': 'classic'},彩虹,rainbow,False,F,,,[],"[{'id': '286f599c-f86a-4932-82f0-f5a06f1eca03', 'count': 19}, {'id': 'aa0d425f-d530-4478-9a77-fe3aedc79eea', 'count': 1}]",False,,False,classic,False,False,[],,49895,,,
0,233621170,學妹 妳什麼意思啦-7,哈囉打ㄍㄟ後，看來大家都很關心我的車，我還是很照顧它的（⁎⁍̴̛ᴗ⁍̴̛⁎），而且學妹其實也蠻喜歡它的ㄛ，有時候都會說這是她的第二台車（˶‾᷄ ⁻̫ ‾᷅˵），從這篇開始呢，我想穿插一些小插曲，其實我,True,True,False,b5b2653a-6304-4564-9ea0-a4cec0be7aee,233612227,2020-05-06T11:34:09.948Z,2020-05-06T17:06:01.706Z,6,36,False,[],['學妹'],{'layout': 'classic'},彩虹,rainbow,False,F,學妹 妳什麼意思啦-6,,[],"[{'id': '286f599c-f86a-4932-82f0-f5a06f1eca03', 'count': 35}, {'id': 'aa0d425f-d530-4478-9a77-fe3aedc79eea', 'count': 1}]",False,{},False,classic,False,False,[],,50466,,,
0,233620573,身為同志卻第一次感受到身為同志的艱難,從小生長在很開放的家庭，從來沒喜歡過男生，一直都只跟女生玩。從國小開始，身邊同學就知道我喜歡女生，一直到大學，從來沒有出櫃的壓力，因為習慣了自由以及身邊人的尊重，所以從未感覺到身為同志是一件艱難的事情,False,True,False,b5b2653a-6304-4564-9ea0-a4cec0be7aee,,2020-05-06T09:53:35.582Z,2020-05-06T15:11:58.047Z,11,56,True,[],"['心情', 'HHL']",{'layout': 'classic'},彩虹,rainbow,False,F,,,"[{'id': '4967dacc-b2bb-49c7-8d14-2c277db9f328', 'url': 'https://i.imgur.com/MucciYIl.jpg', 'normalizedUrl': 'https://i.imgur.com/MucciYIl.jpg', 'thumbnail': 'https://i.imgur.com/MucciYIl.jpg', 'type': 'image/thumbnail', 'tags': ['ANNOTATED'], 'createdAt': '2020-05-06T09:53:35.582Z', 'updatedAt': '2020-05-06T15:11:58.047Z'}, {'id': '4967dacc-b2bb-49c7-8d14-2c277db9f328', 'url': 'https://i.imgur.com/MucciYI.png', 'normalizedUrl': 'https://imgur.com/MucciYI', 'thumbnail': 'https://i.imgur.com/MucciYIl.jpg', 'type': 'image/imgur', 'tags': ['ANNOTATED'], 'createdAt': '2020-05-06T09:53:35.582Z', 'updatedAt': '2020-05-06T15:11:58.047Z'}, {'id': '65e50178-bf61-4501-ad7e-de923fbb15ed', 'url': 'https://i.imgur.com/DtJwFzj.png', 'normalizedUrl': 'https://imgur.com/DtJwFzj', 'thumbnail': 'https://i.imgur.com/DtJwFzjl.jpg', 'type': 'image/imgur', 'tags': ['ANNOTATED'], 'createdAt': '2020-05-06T09:53:35.582Z', 'updatedAt': '2020-05-06T15:11:58.047Z'}, {'id': '1c4c4d59-c3a3-4a72-ac4e-6f693cb414f6', 'url': 'https://i.imgur.com/rYShD4w.png', 'normalizedUrl': 'https://imgur.com/rYShD4w', 'thumbnail': 'https://i.imgur.com/rYShD4wl.jpg', 'type': 'image/imgur', 'tags': ['ANNOTATED'], 'createdAt': '2020-05-06T09:53:35.582Z', 'updatedAt': '2020-05-06T15:11:58.047Z'}, {'id': 'f3946329-a6d8-4c97-8506-80cf22c28a9f', 'url': 'https://i.imgur.com/mlfG007.png', 'normalizedUrl': 'https://imgur.com/mlfG007', 'thumbnail': 'https://i.imgur.com/mlfG007l.jpg', 'type': 'image/imgur', 'tags': ['ANNOTATED'], 'createdAt': '2020-05-06T09:53:35.582Z', 'updatedAt': '2020-05-06T15:11:58.047Z'}]","[{'id': '286f599c-f86a-4932-82f0-f5a06f1eca03', 'count': 52}, {'id': '514c2569-fd53-4d9d-a415-bf0f88e7329f', 'count': 3}, {'id': 'aa0d425f-d530-4478-9a77-fe3aedc79eea', 'count': 1}]",False,{},False,classic,True,False,"[{'url': 'https://i.imgur.com/MucciYI.png'}, {'url': 'https://i.imgur.com/DtJwFzj.png'}, {'url': 'https://i.imgur.com/rYShD4w.png'}, {'url': 'https://i.imgur.com/mlfG007.png'}]",,56501,,ㄈㄈ（pho pho）,fddb08102003
0,233620546,問。要IG,如題，如果跟一個不是很熟的人要ig會被當成怪人嗎？這學期有實驗課，覺得實驗助教很可愛，也有打過幾次招呼，之前加臉書好友也有同意（我自己去找到她的臉書，按加朋友），但看到助教的機會基本上都是實驗課而已Q,True,True,False,b5b2653a-6304-4564-9ea0-a4cec0be7aee,,2020-05-06T09:49:27.114Z,2020-05-06T13:28:27.174Z,15,15,False,['HIDE_THUMBNAIL'],[],{'layout': 'classic'},彩虹,rainbow,False,F,,,[],"[{'id': '286f599c-f86a-4932-82f0-f5a06f1eca03', 'count': 14}, {'id': 'aa0d425f-d530-4478-9a77-fe3aedc79eea', 'count': 1}]",False,,False,classic,False,False,[],,56751,,,
0,233620536,我怎麼會喜歡上一個尬聊人-2,之後放暑假後，我們一群朋友去宜蘭玩三天兩夜，這是我第一次獨自跟朋友規劃一個沒有家長的旅行，然後房間分配是我跟他還有一個朋友三個人一間，我們去了童玩節 去了傳藝 去了蘭陽博物館，還有很多很多宜蘭的景點，,True,True,False,b5b2653a-6304-4564-9ea0-a4cec0be7aee,233602699,2020-05-06T09:48:15.116Z,2020-05-06T15:11:58.103Z,3,33,False,[],['彩虹'],{'layout': 'classic'},彩虹,rainbow,False,M,我怎麼會喜歡上一個尬聊人-1,,[],"[{'id': '286f599c-f86a-4932-82f0-f5a06f1eca03', 'count': 33}]",False,{},False,classic,False,False,[],,56824,,,
0,233620515,有可能的夜晚,距離第一次對妳告白已經一個多月了。而那天妳說，妳沒有心動，對我只有朋友的感覺。在那之後的互動， 熱絡的交流、冷漠的回應不停穿插在接下來的每一天。妳的熱切，常讓我覺得妳對我真的只是朋友嗎？而妳的冷漠，也,True,True,False,b5b2653a-6304-4564-9ea0-a4cec0be7aee,,2020-05-06T09:43:47.789Z,2020-05-06T10:22:49.573Z,1,16,False,['HIDE_THUMBNAIL'],['有可能的夜晚'],{'layout': 'classic'},彩虹,rainbow,False,F,,,[],"[{'id': '286f599c-f86a-4932-82f0-f5a06f1eca03', 'count': 15}, {'id': 'aa0d425f-d530-4478-9a77-fe3aedc79eea', 'count': 1}]",False,,False,classic,False,False,[],,57093,,,
0,233620348,你...討厭我嗎？,也許是因為家庭的關係，從小就跟女生比較要好，也因為家庭的關係，我對男生有著後天而來的厭惡，朋友圈中幾乎不見男生的蹤影，不知道如何也不敢，更多的是不屑去跟男生相處，而我...卻偏偏是個同性戀...，幼稚,False,True,False,b5b2653a-6304-4564-9ea0-a4cec0be7aee,,2020-05-06T09:16:03.565Z,2020-05-06T09:16:03.565Z,7,19,True,[],"['彩虹', '心情', '暗戀', '日常', '分享']",{'layout': 'classic'},彩虹,rainbow,False,M,,,[],"[{'id': '286f599c-f86a-4932-82f0-f5a06f1eca03', 'count': 19}]",False,,False,classic,False,False,[],,58759,,喜歡上一個人,zr54379
0,233620337,沒談戀愛的原因,身為一個大二生 我在思考自己魯的原因，分析如下，1.沒空  法律系課超重的...我又是轉學生，2.生活圈小  家裡宿舍 讀書會 圖書館，3.喜歡的不喜歡我 我喜歡的脫魯了，4.沒錢  平常沒空打工 暑,True,True,False,b5b2653a-6304-4564-9ea0-a4cec0be7aee,,2020-05-06T09:14:09.719Z,2020-05-06T15:11:57.960Z,8,43,False,[],"['Les', 'PPL', '彩虹']",{'layout': 'classic'},彩虹,rainbow,False,F,,,[],"[{'id': '286f599c-f86a-4932-82f0-f5a06f1eca03', 'count': 39}, {'id': 'e8e6bc5d-41b0-4129-b134-97507523d7ff', 'count': 3}, {'id': '4b018f48-e184-445f-adf1-fc8e04ba09b9', 'count': 1}]",False,{},False,classic,False,False,[],,58874,,,
0,233620152,。,繼我po上一篇才過去沒多久，沒想到這一刻來的那麼快，人生第一次粉真人CP，自從視頻照片被刪除之後，每天都很擔心，人生第一次那麼瘋狂，下載了各式各樣沒用過的app，每個直播都不想錯過，看著直播裡氣氛不對,True,True,False,b5b2653a-6304-4564-9ea0-a4cec0be7aee,233404844,2020-05-06T08:44:00.114Z,2020-05-06T08:48:57.203Z,0,18,False,['HIDE_THUMBNAIL'],"['大陸', 'ppl']",{'layout': 'classic'},彩虹,rainbow,False,F,太陽獸,,[],"[{'id': '286f599c-f86a-4932-82f0-f5a06f1eca03', 'count': 18}]",False,,False,classic,False,False,[],,60685,,,
0,233619985,交往三個月後的見面 3,後來上了火車，我趕緊站到窗戶旁，就為了看她一眼。在離開之前，我的視線都在她身上。-，火車上，手機裡，我：想妳了。：我真的好喜歡妳。我：我也喜歡妳。：沒有勉強的喜歡我吧。我：才沒有！，（我想我應該是又更,False,True,False,b5b2653a-6304-4564-9ea0-a4cec0be7aee,233610817,2020-05-06T08:17:15.205Z,2020-05-06T14:10:44.537Z,6,61,True,['HIDE_THUMBNAIL'],"['遠距離', 'Les']",{'layout': 'classic'},彩虹,rainbow,False,F,交往三個月後的見面 2,,[],"[{'id': '286f599c-f86a-4932-82f0-f5a06f1eca03', 'count': 60}, {'id': 'aa0d425f-d530-4478-9a77-fe3aedc79eea', 'count': 1}]",False,{},False,classic,False,False,[],,62291,,被🌱姐姐甜死的小螞蟻,reafeell
0,233619647,不斷錯過的我們終究會相遇-2,雖說想要好好認識她但要馬上變得很熱絡也挺難的，於是在同學A在旁邊的時候我才敢主動找她聊天，先跟同學A聊天再把話題帶到她身上趁機發問之術！，-，：啊⋯對了 學妹叫什麼？學妹（把胸口前的繡字往前給我看），,True,True,False,b5b2653a-6304-4564-9ea0-a4cec0be7aee,,2020-05-06T07:16:04.956Z,2020-05-06T07:16:04.956Z,1,15,False,['HIDE_THUMBNAIL'],"['學妹', '高中', '相遇']",{'layout': 'classic'},彩虹,rainbow,False,F,,,[],"[{'id': '286f599c-f86a-4932-82f0-f5a06f1eca03', 'count': 14}, {'id': 'aa0d425f-d530-4478-9a77-fe3aedc79eea', 'count': 1}]",False,,False,classic,False,False,[],,65963,,,
0,233619461,分手後才發現,分手後才發現，我好像在跟自己談戀愛，很多的一切啊，我都只感動到自己。就算我感動了全世界，也沒感動妳。真的很多事都分手才肯去檢視，這樣的我真的很值得被分手啊，再一點時間後，我想追回她了。,True,True,False,b5b2653a-6304-4564-9ea0-a4cec0be7aee,,2020-05-06T06:41:33.747Z,2020-05-06T12:08:40.436Z,8,25,False,['HIDE_THUMBNAIL'],[],{'layout': 'classic'},彩虹,rainbow,False,F,,,[],"[{'id': '286f599c-f86a-4932-82f0-f5a06f1eca03', 'count': 23}, {'id': '011ead16-9b83-4729-9fde-c588920c6c2d', 'count': 1}, {'id': 'aa0d425f-d530-4478-9a77-fe3aedc79eea', 'count': 1}]",False,{},False,classic,False,False,[],,68035,,,
0,233619316,知道不熟的朋友是gay 會跟他出櫃嗎？,之前在Grindr看到一個不熟的朋友，有點猶豫要不要跟他說，後來比較忙又把Grindr刪了，現在又想起來。大家會說嗎？而且我幾乎還沒跟任何人出櫃，在那上面也沒放照片...,False,True,False,b5b2653a-6304-4564-9ea0-a4cec0be7aee,,2020-05-06T06:14:25.220Z,2020-05-06T06:14:25.220Z,5,8,False,[],"['出櫃', '心情']",{'layout': 'classic'},彩虹,rainbow,False,M,,,[],"[{'id': '286f599c-f86a-4932-82f0-f5a06f1eca03', 'count': 8}]",False,,False,classic,False,False,[],,69665,,國立交通大學,
0,233619285,一週年禮物,如標題 下個月就要在一起一年️，真的不知道要送男友什麼 他什麼都不太缺的感覺，本來想送蘋果手錶 耳機 手機 但他都有了（有錢人，像各位大人一週年你們都在幹麻，想給他個驚喜,True,True,False,b5b2653a-6304-4564-9ea0-a4cec0be7aee,,2020-05-06T06:09:52.382Z,2020-05-06T06:09:52.382Z,11,5,False,['HIDE_THUMBNAIL'],[],{'layout': 'classic'},彩虹,rainbow,False,M,,,[],"[{'id': '286f599c-f86a-4932-82f0-f5a06f1eca03', 'count': 5}]",False,,False,classic,False,False,[],,69939,,,
0,233619282,尷尬的對上眼🤨,前提，他是一個很陽光又一副運動型的活潑男孩，看起來是個直男樣，原po則是可愛型的 天生害羞內向又很愛裝矜持，他比我高 大概有175吧 簡直是我的dish，我們兩不同系 但有修同一堂選修課 一次上兩節，,True,True,False,b5b2653a-6304-4564-9ea0-a4cec0be7aee,,2020-05-06T06:09:46.504Z,2020-05-06T12:08:40.378Z,8,65,False,['HIDE_THUMBNAIL'],"['彩虹', '暈船']",{'layout': 'classic'},彩虹,rainbow,False,M,,,[],"[{'id': '286f599c-f86a-4932-82f0-f5a06f1eca03', 'count': 62}, {'id': 'e8e6bc5d-41b0-4129-b134-97507523d7ff', 'count': 3}]",False,{},False,classic,False,False,[],,69947,,,
0,233619259,我跟姐姐的不期而遇（番很多的外,最近因為被逼著趕出很多東西，於是文章總是停擺，今天來聊聊關於吵架這檔事吧！，我實在很想很想知道大家的吵架都是如何的，畢竟我們兩個的吵架都是⋯⋯冷戰，最近因為相簿裡的合照少了，跟姐姐在討論要去哪兒，最後,False,True,False,b5b2653a-6304-4564-9ea0-a4cec0be7aee,233228185,2020-05-06T06:05:06.408Z,2020-05-06T12:08:40.461Z,3,47,True,[],"['彩虹', 'Les', '姐姐', '情侶', '感情']",{'layout': 'classic'},彩虹,rainbow,False,F,我跟姐姐的不期而遇,,"[{'id': '8ea0d425-57f0-47d9-afe7-42f4aa89f913', 'url': 'https://megapx-assets.dcard.tw/images/d9785f01-2225-4803-a40b-b10d932f9531/160.jpeg', 'normalizedUrl': 'https://megapx-assets.dcard.tw/images/d9785f01-2225-4803-a40b-b10d932f9531/160.jpeg', 'thumbnail': 'https://megapx-assets.dcard.tw/images/d9785f01-2225-4803-a40b-b10d932f9531/160.jpeg', 'type': 'image/thumbnail', 'tags': ['ANNOTATED'], 'createdAt': '2020-05-06T06:05:06.408Z', 'updatedAt': '2020-05-06T12:08:40.461Z', 'width': 120, 'height': 160}, {'id': '8ea0d425-57f0-47d9-afe7-42f4aa89f913', 'url': 'https://megapx-assets.dcard.tw/images/d9785f01-2225-4803-a40b-b10d932f9531/640.jpeg', 'normalizedUrl': 'https://megapx.dcard.tw/v1/images/d9785f01-2225-4803-a40b-b10d932f9531', 'thumbnail': 'https://megapx-assets.dcard.tw/images/d9785f01-2225-4803-a40b-b10d932f9531/160.jpeg', 'type': 'image/megapx', 'tags': ['ANNOTATED'], 'createdAt': '2020-05-06T06:05:06.408Z', 'updatedAt': '2020-05-06T12:08:40.461Z', 'width': 1108, 'height': 1478}]","[{'id': '286f599c-f86a-4932-82f0-f5a06f1eca03', 'count': 46}, {'id': 'aa0d425f-d530-4478-9a77-fe3aedc79eea', 'count': 1}]",False,{},False,classic,True,False,[{'url': 'https://megapx-assets.dcard.tw/images/d9785f01-2225-4803-a40b-b10d932f9531/640.jpeg'}],,70228,,卡稱是屁股的意思？,solu
0,233619030,遇見妳的第三個月,遇見妳的第三個月，不知道 你還記得我嗎？我想 就算你記得 也變得有點模糊了吧，如果 那時候我們沒有漸行漸遠，今天 就是我們第三個月的聊天日了，這個 值得紀念的日子，我記得 可是 我不敢打擾你，連一句關,True,True,False,b5b2653a-6304-4564-9ea0-a4cec0be7aee,,2020-05-06T05:29:07.550Z,2020-05-06T05:29:07.550Z,13,12,False,['HIDE_THUMBNAIL'],"['LGBT', 'Les']",{'layout': 'classic'},彩虹,rainbow,False,F,,,[],"[{'id': '286f599c-f86a-4932-82f0-f5a06f1eca03', 'count': 10}, {'id': '514c2569-fd53-4d9d-a415-bf0f88e7329f', 'count': 1}, {'id': 'aa0d425f-d530-4478-9a77-fe3aedc79eea', 'count': 1}]",False,,False,classic,False,False,[],,72388,,,
0,233618893,不斷錯過的我們終究會相遇-1,那年，我高二，上了校車，習慣性的拾起書包內的耳機塞住耳朵，播著歌，不是睡覺就是看窗外發呆。我的座位就在車門旁，快到站我就會背著書包等待，門一開就頭也不回的快速移動到教室。放學後和朋友們打鬧著，直到走到,True,True,False,b5b2653a-6304-4564-9ea0-a4cec0be7aee,,2020-05-06T05:09:16.296Z,2020-05-06T05:13:01.951Z,0,18,False,['HIDE_THUMBNAIL'],"['學妹', '高中', '相遇']",{'layout': 'classic'},彩虹,rainbow,False,F,,,[],"[{'id': '286f599c-f86a-4932-82f0-f5a06f1eca03', 'count': 17}, {'id': 'aa0d425f-d530-4478-9a77-fe3aedc79eea', 'count': 1}]",False,,False,classic,False,False,[],,73581,,,
0,233618891,果然還是該放棄,對你說了我藏在心底的秘密，你也承諾我不會跟任何人說，我如此的相信你，你卻還是跟別人說了，最後還是跟別人聊天，我自己發現的，我也早有隱隱約約察覺，身邊某些人是不是知道了這件事，我還一直告訴自己應該是錯覺,True,True,False,b5b2653a-6304-4564-9ea0-a4cec0be7aee,,2020-05-06T05:09:07.488Z,2020-05-06T05:09:07.488Z,0,9,False,[],['彩虹'],{'layout': 'classic'},彩虹,rainbow,False,M,,,[],"[{'id': '286f599c-f86a-4932-82f0-f5a06f1eca03', 'count': 9}]",False,,False,classic,False,False,[],,73591,,,
0,233618578,偷看都會被發現...,雖然都會提醒自己眼睛要克制一點，但每次忍不住ㄌ，偷看喜歡的人的時候，她都會突然轉過來，跟我對視幾秒，阿我就俗辣，只好尷尬ㄉ趕快撇開，我是不是沒救了 （；´༎ຶД༎ຶ`），大家也會這樣嘛..,True,True,False,b5b2653a-6304-4564-9ea0-a4cec0be7aee,,2020-05-06T04:17:37.857Z,2020-05-06T10:08:48.957Z,6,36,False,['HIDE_THUMBNAIL'],[],{'layout': 'classic'},彩虹,rainbow,False,F,,,[],"[{'id': '286f599c-f86a-4932-82f0-f5a06f1eca03', 'count': 35}, {'id': 'aa0d425f-d530-4478-9a77-fe3aedc79eea', 'count': 1}]",False,{},False,classic,False,False,[],,76640,,,
