﻿,id,title,excerpt,anonymousSchool,anonymousDepartment,pinned,forumId,replyId,createdAt,updatedAt,commentCount,likeCount,withNickname,tags,topics,meta,forumName,forumAlias,nsfw,gender,replyTitle,reportReason,mediaMeta,reactions,hidden,customStyle,isSuspiciousAccount,layout,withImages,withVideos,media,reportReasonText,elapsedTime,postAvatar,school,department
0,233610748,獅子女生的想法？,我是男的借我好閨蜜的帳號發的文章，因為他說不知道要怎麼評論，所以我想請網友們幫忙，以下正文，我在當兵的時候認識了獅子女，一開始我就是保持著尬聊的心態，她很熱情話題不斷的，之後我告訴她退伍後我要回高雄了,True,True,False,4c6964fc-8b39-4480-a844-847f09e4e09d,,2020-05-05T01:41:52.451Z,2020-05-05T01:41:52.451Z,1,0,False,['HIDE_THUMBNAIL'],"['獅子', '女生', '天蠍']",{'layout': 'classic'},星座,horoscopes,False,F,,,[],[],False,,False,classic,False,False,[],,827,,,
0,233610701,#問 雙子愛一個人,跟雙子男在一起一段時間了，我們是從認識一段時間的朋友昇華為情侶，彼此成熟且努力，在一起後很快他就把我帶回家見他所有家人，到現在我已經能很自然的跟他家人相處，下禮拜他們家還要帶我出去吃母親節餐，我是獅子,False,True,False,4c6964fc-8b39-4480-a844-847f09e4e09d,,2020-05-05T01:29:45.426Z,2020-05-05T01:32:05.676Z,1,0,False,[],['雙子'],{'layout': 'classic'},星座,horoscopes,False,F,,,[],[],False,,False,classic,False,False,[],,1556,,東吳大學,
0,233610595,射手女,今天跟學姊一起去唱ktv，我隱約看到她的桌布有一位女生，（但我不知道那位女生是誰 那時看到覺得自己沒望了，但我們在唱歌有合唱的部分，她就會跑來我旁邊，然後手竟然主動握著我，握到唱完，這是對的嗎 對朋友,True,True,False,4c6964fc-8b39-4480-a844-847f09e4e09d,,2020-05-05T00:56:19.190Z,2020-05-05T00:56:19.190Z,0,0,False,['HIDE_THUMBNAIL'],"['射手', '彩虹']",{'layout': 'classic'},星座,horoscopes,False,F,,,[],[],False,,False,classic,False,False,[],,3563,,,
0,233610500,雙魚男救救我,我現在跟一個處在一個不確定有沒有在一起的階段，他平常不太報備，訊息會隔一段時間才回，可能一個小時，慢慢的時間越來越長，現在直接不讀不回，我應該繼續密他還是放著不理他？拜託大家幫幫我解答！,True,True,False,4c6964fc-8b39-4480-a844-847f09e4e09d,,2020-05-05T00:13:28.861Z,2020-05-05T00:13:28.861Z,2,0,False,['HIDE_THUMBNAIL'],"['魚男', '救救我']",{'layout': 'classic'},星座,horoscopes,False,F,,,[],[],False,,False,classic,False,False,[],,6135,,,
0,233610471,雙子男魔羯女,請問各位大大 雙子男跟魔羯女配嗎？  如果雙子男對你有好感會有什麼跡象？ 我知道版上有 但希望大家還是幫我解答~~~,True,True,False,4c6964fc-8b39-4480-a844-847f09e4e09d,,2020-05-04T23:55:11.497Z,2020-05-04T23:55:11.497Z,1,1,False,[],"['雙子', '魔羯']",{'layout': 'classic'},星座,horoscopes,False,F,,,[],"[{'id': '286f599c-f86a-4932-82f0-f5a06f1eca03', 'count': 1}]",False,,False,classic,False,False,[],,7233,,,
0,233610358,怎麼安撫蠍蠍,一直以來都知道蠍蠍是個很會隱藏自己情緒的孩子，但最近看到我男友壓力很大就覺得很心疼，我有問過他是為了什麼在焦慮 他也說不出什麼，但他的焦慮時常引發偏頭痛，想問蠍眷～蠍蠍壓力大的時候要怎麼安撫或陪伴他,True,True,False,4c6964fc-8b39-4480-a844-847f09e4e09d,,2020-05-04T21:40:31.016Z,2020-05-04T21:40:31.016Z,3,4,False,['HIDE_THUMBNAIL'],"['安撫', '天蠍']",{'layout': 'classic'},星座,horoscopes,False,F,,,[],"[{'id': '286f599c-f86a-4932-82f0-f5a06f1eca03', 'count': 4}]",False,,False,classic,False,False,[],,15315,,,
0,233610301,處女男,一開始是他主動找我聊天的，有時候處女男會丟球然後我都會閃，也一直有在穩聊，也會約出去吃宵夜亂晃等等的，雖然沒有什麼肢體接觸，但他有時候又會叫我寶貝說愛你之類的，前陣子他又一直問我是不是對他有好感，但我,True,True,False,4c6964fc-8b39-4480-a844-847f09e4e09d,,2020-05-04T20:38:59.339Z,2020-05-04T20:52:20.388Z,2,2,False,['HIDE_THUMBNAIL'],"['處女', '十二星座', '愛情', '曖昧', '星座']",{'layout': 'classic'},星座,horoscopes,False,F,,,[],"[{'id': '286f599c-f86a-4932-82f0-f5a06f1eca03', 'count': 2}]",False,,False,classic,False,False,[],,19008,,,
0,233610277,想問問各位金牛男～,我是他的第二任 他很愛他前任在一起兩年分手了之後遇到我，後來在一起 現在也要一年了，但一直會覺得自己好像就是個替代品很努力想讓自己不這麼想 但就是控制不住，他以前會給她每篇文按讚 但是我甚至標他說生日,True,True,False,4c6964fc-8b39-4480-a844-847f09e4e09d,,2020-05-04T20:20:30.215Z,2020-05-04T20:22:31.155Z,6,1,False,['HIDE_THUMBNAIL'],['金牛'],{'layout': 'classic'},星座,horoscopes,False,F,,,[],"[{'id': '286f599c-f86a-4932-82f0-f5a06f1eca03', 'count': 1}]",False,,False,classic,False,False,[],,20119,,,
0,233610254,自私的摩羯座,他交女友的用意只是為了滿足自己心裡‘自我實現’的需求，並不是因為「愛」這個人，所以才對她好，而是為了要讓自己「看起來」很貼心才對她好，這樣以後才能在別人面前 '裝出‘好形象，一切都是為了「自己」的心理,True,True,False,4c6964fc-8b39-4480-a844-847f09e4e09d,,2020-05-04T20:08:54.703Z,2020-05-04T20:08:54.703Z,2,5,False,['HIDE_THUMBNAIL'],"['摩羯座', '摩羯', '十二星座', '愛情', '感情']",{'layout': 'classic'},星座,horoscopes,False,F,,,[],"[{'id': '286f599c-f86a-4932-82f0-f5a06f1eca03', 'count': 4}, {'id': 'aa0d425f-d530-4478-9a77-fe3aedc79eea', 'count': 1}]",False,,False,classic,False,False,[],,20815,,,
0,233610103,牡羊男求解,在一起之前很好溝通會互相講出自己的想法，就算想法不一樣也能接受，但在一起之後每次講到需要溝通事情，牡羊男就會不說話然後導致氣氛變得很尷尬，請問大家和牡羊男在一起都會遇到這個問題嗎,True,True,False,4c6964fc-8b39-4480-a844-847f09e4e09d,,2020-05-04T18:59:19.067Z,2020-05-04T18:59:19.067Z,0,0,False,['HIDE_THUMBNAIL'],['牡羊'],{'layout': 'classic'},星座,horoscopes,False,F,,,[],[],False,,False,classic,False,False,[],,24992,,,
0,233610041,雙魚女解析 !,這幾天有點無聊~想說可以跟大家分享一下總結我跟我雙魚朋友們的各方面總結 ！ 希望可以給有想要了解或追雙魚的大家一些方向 ！，（手機排版請見諒），1.聊天方面：對於喜歡的人一定會回，朋友就不一定（可能會,True,True,False,4c6964fc-8b39-4480-a844-847f09e4e09d,,2020-05-04T18:43:30.646Z,2020-05-04T18:43:30.646Z,3,17,False,[],['雙魚'],{'layout': 'classic'},星座,horoscopes,False,F,,,[],"[{'id': '286f599c-f86a-4932-82f0-f5a06f1eca03', 'count': 17}]",False,,False,classic,False,False,[],,25942,,,
0,233609933,摩羯女喜歡一個人的表現,我知道版面上有，但還是想聽聽看其他小魔女的看法~,True,True,False,4c6964fc-8b39-4480-a844-847f09e4e09d,,2020-05-04T18:20:35.573Z,2020-05-04T18:20:35.573Z,4,3,False,[],"['摩羯', '友情', '喜歡一個人']",{'layout': 'classic'},星座,horoscopes,False,M,,,[],"[{'id': '286f599c-f86a-4932-82f0-f5a06f1eca03', 'count': 3}]",False,,False,classic,False,False,[],,27318,,,
0,233609853,我的哞哞哞可愛金牛學長🐂,———————————————————，今天只是想曬一下可愛的牛牛學長，以下用  取代「牛牛學長」———————————————————，其實在看到上述這篇文章之前，恰巧我也和其他牛牛朋友聊起「金牛男,True,True,False,4c6964fc-8b39-4480-a844-847f09e4e09d,225506578,2020-05-04T18:07:17.291Z,2020-05-05T01:50:21.425Z,1,7,False,"['金牛', '責任', '牽牛', '護牛']",['金牛'],{'layout': 'classic'},星座,horoscopes,False,F,讓金牛去哞哞哞吃草吧,,"[{'id': 'ea5db790-87e7-4df2-8c22-6d52005cd6f1', 'url': 'https://megapx-assets.dcard.tw/images/6942d585-b5d0-4682-bb62-a0cfaa9a224c/160.jpeg', 'normalizedUrl': 'https://megapx-assets.dcard.tw/images/6942d585-b5d0-4682-bb62-a0cfaa9a224c/160.jpeg', 'thumbnail': 'https://megapx-assets.dcard.tw/images/6942d585-b5d0-4682-bb62-a0cfaa9a224c/160.jpeg', 'type': 'image/thumbnail', 'tags': ['ANNOTATED'], 'createdAt': '2020-05-04T18:07:17.291Z', 'updatedAt': '2020-05-05T01:50:21.425Z', 'width': 99, 'height': 160}, {'id': 'ea5db790-87e7-4df2-8c22-6d52005cd6f1', 'url': 'https://megapx-assets.dcard.tw/images/6942d585-b5d0-4682-bb62-a0cfaa9a224c/640.jpeg', 'normalizedUrl': 'https://megapx.dcard.tw/v1/images/6942d585-b5d0-4682-bb62-a0cfaa9a224c', 'thumbnail': 'https://megapx-assets.dcard.tw/images/6942d585-b5d0-4682-bb62-a0cfaa9a224c/160.jpeg', 'type': 'image/megapx', 'tags': ['ANNOTATED'], 'createdAt': '2020-05-04T18:07:17.291Z', 'updatedAt': '2020-05-05T01:50:21.425Z', 'width': 828, 'height': 1334}, {'id': '10f5d7b8-a649-443f-a253-866e826686ae', 'url': 'https://megapx-assets.dcard.tw/images/416f1aa1-94df-4e1d-9f3c-b602f261518b/640.jpeg', 'normalizedUrl': 'https://megapx.dcard.tw/v1/images/416f1aa1-94df-4e1d-9f3c-b602f261518b', 'thumbnail': 'https://megapx-assets.dcard.tw/images/416f1aa1-94df-4e1d-9f3c-b602f261518b/160.jpeg', 'type': 'image/megapx', 'tags': [], 'createdAt': '2020-05-05T01:50:21.425Z', 'updatedAt': '2020-05-05T01:50:21.425Z', 'width': 828, 'height': 878}, {'id': 'ece2c0d2-fc69-4975-a7b1-3139a3533f18', 'url': 'https://megapx-assets.dcard.tw/images/264dab89-acd8-404b-877b-4db4aa9d844f/640.jpeg', 'normalizedUrl': 'https://megapx.dcard.tw/v1/images/264dab89-acd8-404b-877b-4db4aa9d844f', 'thumbnail': 'https://megapx-assets.dcard.tw/images/264dab89-acd8-404b-877b-4db4aa9d844f/160.jpeg', 'type': 'image/megapx', 'tags': [], 'createdAt': '2020-05-05T01:50:21.425Z', 'updatedAt': '2020-05-05T01:50:21.425Z', 'width': 828, 'height': 1300}, {'id': 'd4b119b4-227e-41a5-aa10-0d4080e90e9a', 'url': 'https://megapx-assets.dcard.tw/images/2e12c60c-98f6-4591-b368-129fe31d315b/640.jpeg', 'normalizedUrl': 'https://megapx.dcard.tw/v1/images/2e12c60c-98f6-4591-b368-129fe31d315b', 'thumbnail': 'https://megapx-assets.dcard.tw/images/2e12c60c-98f6-4591-b368-129fe31d315b/160.jpeg', 'type': 'image/megapx', 'tags': ['ANNOTATED'], 'createdAt': '2020-05-04T18:07:17.291Z', 'updatedAt': '2020-05-05T01:50:21.425Z', 'width': 785, 'height': 2000}, {'id': 'f6646765-aa9b-4b33-a2a7-53c5c98ff03c', 'url': 'https://megapx-assets.dcard.tw/images/860989c3-f119-45a0-93e9-5c0ccb2d23ea/640.jpeg', 'normalizedUrl': 'https://megapx.dcard.tw/v1/images/860989c3-f119-45a0-93e9-5c0ccb2d23ea', 'thumbnail': 'https://megapx-assets.dcard.tw/images/860989c3-f119-45a0-93e9-5c0ccb2d23ea/160.jpeg', 'type': 'image/megapx', 'tags': ['ANNOTATED'], 'createdAt': '2020-05-04T18:07:17.291Z', 'updatedAt': '2020-05-05T01:50:21.425Z', 'width': 804, 'height': 2000}, {'id': 'f0266869-8a0e-4664-9595-c6187c7d0e52', 'url': 'https://megapx-assets.dcard.tw/images/411f8c07-73b2-44dd-b41c-12a7645508fb/640.jpeg', 'normalizedUrl': 'https://megapx.dcard.tw/v1/images/411f8c07-73b2-44dd-b41c-12a7645508fb', 'thumbnail': 'https://megapx-assets.dcard.tw/images/411f8c07-73b2-44dd-b41c-12a7645508fb/160.jpeg', 'type': 'image/megapx', 'tags': ['ANNOTATED'], 'createdAt': '2020-05-04T18:07:17.291Z', 'updatedAt': '2020-05-05T01:50:21.425Z', 'width': 828, 'height': 712}, {'id': 'bef1ac7c-29ff-4d65-ac7a-259d02639888', 'url': 'https://megapx-assets.dcard.tw/images/54c613c7-cfa9-49b1-93c4-3f9b0acb6f4e/640.jpeg', 'normalizedUrl': 'https://megapx.dcard.tw/v1/images/54c613c7-cfa9-49b1-93c4-3f9b0acb6f4e', 'thumbnail': 'https://megapx-assets.dcard.tw/images/54c613c7-cfa9-49b1-93c4-3f9b0acb6f4e/160.jpeg', 'type': 'image/megapx', 'tags': ['ANNOTATED'], 'createdAt': '2020-05-04T18:07:17.291Z', 'updatedAt': '2020-05-05T01:50:21.425Z', 'width': 828, 'height': 688}, {'id': 'e22c2096-9e55-4395-a191-775e7f606742', 'url': 'https://megapx-assets.dcard.tw/images/3cf758d6-625a-45a7-a28e-ef5f1ae08a52/640.jpeg', 'normalizedUrl': 'https://megapx.dcard.tw/v1/images/3cf758d6-625a-45a7-a28e-ef5f1ae08a52', 'thumbnail': 'https://megapx-assets.dcard.tw/images/3cf758d6-625a-45a7-a28e-ef5f1ae08a52/160.jpeg', 'type': 'image/megapx', 'tags': ['ANNOTATED'], 'createdAt': '2020-05-04T18:07:17.291Z', 'updatedAt': '2020-05-05T01:50:21.425Z', 'width': 828, 'height': 710}, {'id': 'eb1b134b-cfab-459d-a53d-fc2dba2d52d2', 'url': 'https://megapx-assets.dcard.tw/images/12279dca-8c76-4b4d-afc8-cbbfa1b3bc2f/640.jpeg', 'normalizedUrl': 'https://megapx.dcard.tw/v1/images/12279dca-8c76-4b4d-afc8-cbbfa1b3bc2f', 'thumbnail': 'https://megapx-assets.dcard.tw/images/12279dca-8c76-4b4d-afc8-cbbfa1b3bc2f/160.jpeg', 'type': 'image/megapx', 'tags': ['ANNOTATED'], 'createdAt': '2020-05-04T18:07:17.291Z', 'updatedAt': '2020-05-05T01:50:21.425Z', 'width': 828, 'height': 1512}]","[{'id': '286f599c-f86a-4932-82f0-f5a06f1eca03', 'count': 7}]",False,,False,classic,True,False,"[{'url': 'https://megapx-assets.dcard.tw/images/6942d585-b5d0-4682-bb62-a0cfaa9a224c/640.jpeg'}, {'url': 'https://megapx-assets.dcard.tw/images/416f1aa1-94df-4e1d-9f3c-b602f261518b/640.jpeg'}, {'url': 'https://megapx-assets.dcard.tw/images/264dab89-acd8-404b-877b-4db4aa9d844f/640.jpeg'}, {'url': 'https://megapx-assets.dcard.tw/images/2e12c60c-98f6-4591-b368-129fe31d315b/640.jpeg'}, {'url': 'https://megapx-assets.dcard.tw/images/860989c3-f119-45a0-93e9-5c0ccb2d23ea/640.jpeg'}, {'url': 'https://megapx-assets.dcard.tw/images/411f8c07-73b2-44dd-b41c-12a7645508fb/640.jpeg'}, {'url': 'https://megapx-assets.dcard.tw/images/54c613c7-cfa9-49b1-93c4-3f9b0acb6f4e/640.jpeg'}, {'url': 'https://megapx-assets.dcard.tw/images/3cf758d6-625a-45a7-a28e-ef5f1ae08a52/640.jpeg'}, {'url': 'https://megapx-assets.dcard.tw/images/12279dca-8c76-4b4d-afc8-cbbfa1b3bc2f/640.jpeg'}]",,28118,,,
0,233609756,請益水瓶座,兩個月前剛跟水瓶座分手，今天在她限時看到，一直讓我在意的前任去她家玩，跟她家人在客廳聊天，請問水瓶男女們 分手後會刻意做，讓前任很在意的事嗎，我真的超她媽無敵爆幹吃醋的欸！,True,True,False,4c6964fc-8b39-4480-a844-847f09e4e09d,,2020-05-04T17:49:37.397Z,2020-05-04T17:49:37.397Z,3,3,False,['HIDE_THUMBNAIL'],"['水瓶座', '金牛']",{'layout': 'classic'},星座,horoscopes,False,F,,,[],"[{'id': '286f599c-f86a-4932-82f0-f5a06f1eca03', 'count': 3}]",False,,False,classic,False,False,[],,29180,,,
0,233609666,射手男這樣是在吃醋嗎？,本來都很正常好好的還會傳撒嬌貼圖給我，結果我跟異性朋友去吃飯後突然對我很冷淡，（要跟異性吃飯我是有經過他同意的喔！！），開始不對我報備，本來騎車或要回家都會跟我說一下，結果聊一聊才知道他一小時前就回家,True,True,False,4c6964fc-8b39-4480-a844-847f09e4e09d,,2020-05-04T17:32:46.507Z,2020-05-04T17:40:54.745Z,7,4,False,['HIDE_THUMBNAIL'],"['射手', '吃醋']",{'layout': 'classic'},星座,horoscopes,False,F,,,[],"[{'id': '286f599c-f86a-4932-82f0-f5a06f1eca03', 'count': 4}]",False,,False,classic,False,False,[],,30192,,,
0,233609664,獅子男說休息一陣子,我的🦁️跟我吵架之後，他說了要分開一陣子彼此冷靜，原因是我踩到他的雷，但我當初說的時候不是，那個意思，他說他要休息一陣子因為壓力真的很大，但他要我去找更好的人，說他不夠好 不能讓我開心，之後就不讀不,True,True,False,4c6964fc-8b39-4480-a844-847f09e4e09d,,2020-05-04T17:31:51.838Z,2020-05-04T21:43:39.352Z,37,0,False,['HIDE_THUMBNAIL'],"['獅子', '分手', '獅子男']",{'layout': 'classic'},星座,horoscopes,False,F,,,[],[],False,,False,classic,False,False,[],,30248,,,
0,233609498,處女女曖昧突然冷掉怎麼辦,就如標題說的一樣 我本身是處女男 前一個禮拜朋友介紹的 她是處女女 我們每天都聊的很好很棒 她還會傳一些愛心的貼圖安慰我 就在某一天我覺得她打字的方式開始怪怪的了 請問一下遇到這種狀況怎麼辦 我覺得這,True,True,False,4c6964fc-8b39-4480-a844-847f09e4e09d,,2020-05-04T17:05:01.465Z,2020-05-04T17:05:01.465Z,18,0,False,['HIDE_THUMBNAIL'],"['處女', '感情', '曖昧', '星座']",{'layout': 'classic'},星座,horoscopes,False,M,,,[],[],False,,False,classic,False,False,[],,31860,,,
0,233609423,獅子女 求救🆘,上個月剛認識一位獅子女，我們算是工作上認識的，一開始剛認識我們只用ig聊天，過程還算蠻熱絡的大致上是我主動，她偶爾會回我動態，有時候會叫我那個少吃這個少吃之類，之後不知道怎樣突然開始對我冷漠，我也開始,True,True,False,4c6964fc-8b39-4480-a844-847f09e4e09d,,2020-05-04T16:52:37.584Z,2020-05-04T16:57:33.995Z,14,0,False,['HIDE_THUMBNAIL'],"['獅子', '十二星座', '曖昧', '心情', '天蠍']",{'layout': 'classic'},星座,horoscopes,False,M,,,[],[],False,,False,classic,False,False,[],,32605,,,
0,233609266,天蠍男 我搞不懂呀～,男主是天蠍  小女是水瓶，曖昧了好一陣子 都很互相喜歡，有天他卻開始慢慢變冷淡，最後才坦承沒有感覺了，說做回朋友就好，但是每次下班還是會作弄我，也有肢體接觸，讓本人我不太懂 他是在欲擒故縱嘛 ？明明說,True,True,False,4c6964fc-8b39-4480-a844-847f09e4e09d,,2020-05-04T16:34:21.034Z,2020-05-04T16:34:21.034Z,4,0,False,['HIDE_THUMBNAIL'],"['天蠍', '愛情', '曖昧', '天蠍男']",{'layout': 'classic'},星座,horoscopes,False,F,,,[],[],False,,False,classic,False,False,[],,33703,,,
0,233609226,土象男可以進來回覆一下嗎,認識一個土象男，認識他的時候 他剛告白失敗兩個月，2019 10月告白失敗，2019 12月認識我，他告白失敗的那個女生，是他的高中同學，他喜歡她三年。認識我以後 他依然經常提到她，我們認識了五個月，,True,True,False,4c6964fc-8b39-4480-a844-847f09e4e09d,,2020-05-04T16:30:04.976Z,2020-05-04T21:02:55.170Z,6,1,False,['HIDE_THUMBNAIL'],"['魔羯', '魔羯男']",{'layout': 'classic'},星座,horoscopes,False,F,,,[],"[{'id': '286f599c-f86a-4932-82f0-f5a06f1eca03', 'count': 1}]",False,,False,classic,False,False,[],,33960,,,
0,233609225,#問 要如何吸引天蠍女,最近很想追一個天蠍座的女生，但是我們的關係也只是普通同學，講過一兩次話，最近看了很多攻略文，有提到天蠍座的女生喜歡強者，因此最近想認真讀書，讓自己變得很強，但是要怎麼吸引她啊（´Д` ）,True,True,False,4c6964fc-8b39-4480-a844-847f09e4e09d,,2020-05-04T16:30:03.576Z,2020-05-04T16:30:03.576Z,5,2,False,['HIDE_THUMBNAIL'],"['天蠍女', '天蠍', '愛情']",{'layout': 'classic'},星座,horoscopes,False,M,,,[],"[{'id': '286f599c-f86a-4932-82f0-f5a06f1eca03', 'count': 2}]",False,,False,classic,False,False,[],,33963,,,
0,233609083,關於相差15歲的差距處女女&天蠍男,不知道大家對於相差15歲的感情是如何的看法，我是23歲、對方是38歲，但他真的看不出年齡 關於穿搭都是很年輕的，前陣子聊了好久、因為他的工作都很忙碌的關係我們很少聊天，但ㄧ聊就是2小時了，在了解他的其,True,True,False,4c6964fc-8b39-4480-a844-847f09e4e09d,,2020-05-04T16:11:59.505Z,2020-05-04T16:11:59.505Z,3,0,False,['HIDE_THUMBNAIL'],"['天蠍', '處女', '差距']",{'layout': 'classic'},星座,horoscopes,False,F,,,[],[],False,,False,classic,False,False,[],,35048,,,
0,233609063,我的處女男。朋友,我有一個認識十年以上的好朋友，我們的緣分很奇妙，國中、高中、大學都同校，但我們不算常見面，大學時半年一年才聯絡一次，卻感覺他一直都在，他看過我交的每一任男友，聽我抱怨每任的種種，然後擺出一副我很麻煩很,True,True,False,4c6964fc-8b39-4480-a844-847f09e4e09d,,2020-05-04T16:10:17.124Z,2020-05-04T16:10:47.569Z,5,14,False,['HIDE_THUMBNAIL'],"['處女', '朋友']",{'layout': 'classic'},星座,horoscopes,False,F,,,[],"[{'id': '286f599c-f86a-4932-82f0-f5a06f1eca03', 'count': 14}]",False,,False,classic,False,False,[],,35152,,,
0,233609054,雙子座的男生到底在想什麼呢？,雙子座的男生到底在想什麼呢？感覺雙子真的很難懂⋯，最近在軟體上認識了一位雙子座的男生，一開始也是他主動密我，就這樣聊了起來一開始他都很熱絡的聊，聊沒多久也主動的加我LINE然後還問我要不要追他IG～～,True,True,False,4c6964fc-8b39-4480-a844-847f09e4e09d,,2020-05-04T16:09:28.769Z,2020-05-04T16:09:28.769Z,0,2,False,['HIDE_THUMBNAIL'],"['男生', '雙子座', '天蠍', '愛情']",{'layout': 'classic'},星座,horoscopes,False,M,,,[],"[{'id': '286f599c-f86a-4932-82f0-f5a06f1eca03', 'count': 2}]",False,,False,classic,False,False,[],,35201,,,
0,233608975,更）天蠍男到底想什麼！！！,（更了之後沒人理我 只好重發，/////更//////，這陣子常常做球直接往他臉上丟，但他真的死都不接，「怎麼可能喜歡你呀，我們是好朋友欸」之類的話聽到我欲哭無淚了，是我平常太多異性朋友讓他沒有安全感,True,True,False,4c6964fc-8b39-4480-a844-847f09e4e09d,,2020-05-04T15:58:55.512Z,2020-05-04T15:58:55.512Z,5,4,False,['HIDE_THUMBNAIL'],"['天蠍', '感情', '曖昧', '愛情', '天蠍男']",{'layout': 'classic'},星座,horoscopes,False,F,,,[],"[{'id': '286f599c-f86a-4932-82f0-f5a06f1eca03', 'count': 4}]",False,,False,classic,False,False,[],,35836,,,
0,233608762,對巨蟹男很疑惑啊啊啊啊,前幾天無聊打給他聊天，才得知是他的休息時間，我：還是你要去休息 他：沒關係 然後我們就聊大概一個小時，聊天過程我有問他有沒有羅的公仔 然後也不了了之 今天見面的時候 他就說 欸 羅的公仔給你 我有點小,True,True,False,4c6964fc-8b39-4480-a844-847f09e4e09d,,2020-05-04T15:31:59.150Z,2020-05-04T15:31:59.150Z,17,3,False,['HIDE_THUMBNAIL'],"['巨蟹', '感情']",{'layout': 'classic'},星座,horoscopes,False,F,,,[],"[{'id': '286f599c-f86a-4932-82f0-f5a06f1eca03', 'count': 3}]",False,,False,classic,False,False,[],,37453,,,
0,233608651,🐮男&🐟女。我們在一起啦,對滴～～我是那個原po，謝謝各位給我一些建議，因為抓不清楚他到底在想什麼，所以一直沒有太大的進一步，在那之後因為po了一篇蟑螂文章，我們又開始聊天了，（（我應該感謝我最可恨的蟑螂嗎）），因為那句話的關,False,True,False,4c6964fc-8b39-4480-a844-847f09e4e09d,233554418,2020-05-04T15:19:06.984Z,2020-05-04T15:29:16.450Z,1,4,True,['HIDE_THUMBNAIL'],"['金牛', '十二星座', '雙魚', '感情']",{'layout': 'classic'},星座,horoscopes,False,F,更）🐮🐮男請進～～（（不是也可以進啦😂,,[],"[{'id': '286f599c-f86a-4932-82f0-f5a06f1eca03', 'count': 4}]",False,,False,classic,False,False,[],,38227,,戀愛中的小魚兒🐟,onlyone8823
0,233608631,請教雙魚女,我本身是獅男，常常覺得管不動另一半，也常常無法理解她在想什麼，似乎互相這個概念從來沒有出現在她的腦中，我們吵架的頻率很頻繁，她覺得我太兇 但我覺得她只想玩，想問問其他版友獅男跟雙魚女是如何相處的,True,True,False,4c6964fc-8b39-4480-a844-847f09e4e09d,,2020-05-04T15:17:01.869Z,2020-05-04T15:17:01.869Z,5,1,False,['HIDE_THUMBNAIL'],"['雙魚', '獅子']",{'layout': 'classic'},星座,horoscopes,False,M,,,[],"[{'id': '286f599c-f86a-4932-82f0-f5a06f1eca03', 'count': 1}]",False,,False,classic,False,False,[],,38353,,,
0,233608395,雙子女,每天都會聊天，女生也會主動密我，有發生什麼有趣的事都會跟我說，真的會很熱烈分享的那種（我還沒已讀連續傳個10-30封訊息那種），而且聊天過程中也基本上是一個小時多秒讀秒回那種，但是有時候會突然聊一聊就,True,True,False,4c6964fc-8b39-4480-a844-847f09e4e09d,,2020-05-04T14:47:16.327Z,2020-05-04T14:47:16.327Z,11,3,False,['HIDE_THUMBNAIL'],['雙子'],{'layout': 'classic'},星座,horoscopes,False,M,,,[],"[{'id': '286f599c-f86a-4932-82f0-f5a06f1eca03', 'count': 3}]",False,,False,classic,False,False,[],,40140,,,
0,233608264,射手男到底想怎樣！,射手男一月的時候還會說我可愛，現在只會：蠢、你很廢 這種之類的⋯⋯⋯⋯，頂多偶爾「身材很好」這種==，到底想怎樣！，給我去鼠去鼠,True,True,False,4c6964fc-8b39-4480-a844-847f09e4e09d,,2020-05-04T14:34:40.691Z,2020-05-04T14:34:40.691Z,5,2,False,['HIDE_THUMBNAIL'],"['射手', '射手男']",{'layout': 'classic'},星座,horoscopes,False,F,,,[],"[{'id': '286f599c-f86a-4932-82f0-f5a06f1eca03', 'count': 2}]",False,,False,classic,False,False,[],,40897,,,
0,233608235,求解摩羯男,據我所知，摩羯座滿懶得解釋的，尤其是不重要的人事物，就是關我屁事，他說工作忙就被不讀不回了一週，我又丟了一個話題開場，他回的很快，內容也多，也分享假日去了哪裡做了什麼，今天自己報告工作進度，讓我嚇到，,True,True,False,4c6964fc-8b39-4480-a844-847f09e4e09d,,2020-05-04T14:31:57.412Z,2020-05-04T14:31:57.412Z,4,5,False,['HIDE_THUMBNAIL'],['摩羯'],{'layout': 'classic'},星座,horoscopes,False,F,,,[],"[{'id': '286f599c-f86a-4932-82f0-f5a06f1eca03', 'count': 5}]",False,,False,classic,False,False,[],,41022,,,
0,233608156,請問天蠍男,如果喜歡上有男友的女生，會繼續追求嗎？謝謝,True,True,False,4c6964fc-8b39-4480-a844-847f09e4e09d,,2020-05-04T14:21:05.374Z,2020-05-04T14:21:05.374Z,4,0,False,['HIDE_THUMBNAIL'],['天蠍'],{'layout': 'classic'},星座,horoscopes,False,F,,,[],[],False,,False,classic,False,False,[],,41676,,,
0,233608033,雙子家族請教幫幫忙😣,認識一個雙子男接近快半年了，斷斷續續有在聊天（最長斷聯不超過2天），通常我有回他都會回快慢而已，偶爾他會開開玩笑說能不能把自己打包寄給他，前幾天在煩惱母親節禮物跟他說，他說很簡單買個男友回家就解決了，,True,True,False,4c6964fc-8b39-4480-a844-847f09e4e09d,,2020-05-04T14:06:45.089Z,2020-05-04T14:06:45.089Z,3,6,False,['HIDE_THUMBNAIL'],['雙子'],{'layout': 'classic'},星座,horoscopes,False,F,,,[],"[{'id': '286f599c-f86a-4932-82f0-f5a06f1eca03', 'count': 6}]",False,,False,classic,False,False,[],,42537,,,
0,233608003,與處女男和好,前陣子因為小事跟男友有了點摩擦。加上那陣子他因為一些事所以夠煩壓力夠大了，後續因為我的處事方式不當，溝通方法錯誤以致他覺得失落失望而提了分開。當下的他也因為情緒上說了很多很絕的話，包含封鎖等等，但之後,True,True,False,4c6964fc-8b39-4480-a844-847f09e4e09d,,2020-05-04T14:01:20.770Z,2020-05-04T14:01:20.770Z,8,3,False,[],"['處女', '和好']",{'layout': 'classic'},星座,horoscopes,False,F,,,[],"[{'id': '286f599c-f86a-4932-82f0-f5a06f1eca03', 'count': 3}]",False,,False,classic,False,False,[],,42863,,,
0,233607986,天蠍男躲一個人,和蠍男每天穩聊半年後對方突然不讀不回，雖然相處一直沒有太曖昧的舉動，可是可以知道他對我跟別的女生不同，甚至特別，斷聯後因為生活圈不近所以不太會遇到，但最近偶遇，發現他看到後立馬躲我，請問這樣是討厭還是,True,True,False,4c6964fc-8b39-4480-a844-847f09e4e09d,,2020-05-04T13:59:11.827Z,2020-05-04T13:59:11.827Z,3,2,False,[],['天蠍'],{'layout': 'classic'},星座,horoscopes,False,F,,,[],"[{'id': '286f599c-f86a-4932-82f0-f5a06f1eca03', 'count': 2}]",False,,False,classic,False,False,[],,42993,,,
0,233607979,如何追回雙子男（求解）,我跟雙子男分手了ㄧ個月（他提的），前幾天恢復了聯絡，第一天大概就是互貼圖而已，我感覺有點尷尬就是了- -，我有問他會不會尷尬，他說就正常朋友聊天（心塞塞），前天跟他說，這次換我追他，他說沒被追過（我當,True,True,False,4c6964fc-8b39-4480-a844-847f09e4e09d,,2020-05-04T13:58:12.392Z,2020-05-04T13:58:12.392Z,7,5,False,['HIDE_THUMBNAIL'],"['雙子', '處女', '分手']",{'layout': 'classic'},星座,horoscopes,False,F,,,[],"[{'id': '286f599c-f86a-4932-82f0-f5a06f1eca03', 'count': 5}]",False,,False,classic,False,False,[],,43054,,,
0,233607950,雙子男請進！（幫幫解答疑惑~~）,有一個雙子座的男生，總是會主動找我問問題，基本上是一個禮拜好幾天，但是都是問學術的問題。只有偶爾會小聊一下 ，最近明顯面對面說話變多了 ，這樣子是對我單純是朋友 還是有好感？,True,True,False,4c6964fc-8b39-4480-a844-847f09e4e09d,,2020-05-04T13:52:50.500Z,2020-05-04T23:35:15.461Z,7,4,False,[],['雙子'],{'layout': 'classic'},星座,horoscopes,False,F,,,[],"[{'id': '286f599c-f86a-4932-82f0-f5a06f1eca03', 'count': 4}]",False,,False,classic,False,False,[],,43377,,,
0,233607722,天秤男請進！！,請問天秤男分手是因為感情變淡覺得價值觀有落差而分開，那還有可能和好嗎，目前相處還是朋友而且挺快樂的，想說能不能主動再追回天秤男，或是讓舊情重新熱起來，如果有機會要怎麼做好謝謝,True,True,False,4c6964fc-8b39-4480-a844-847f09e4e09d,,2020-05-04T13:20:05.830Z,2020-05-04T13:20:05.830Z,8,2,False,['HIDE_THUMBNAIL'],['天秤'],{'layout': 'classic'},星座,horoscopes,False,F,,,[],"[{'id': '286f599c-f86a-4932-82f0-f5a06f1eca03', 'count': 2}]",False,,False,classic,False,False,[],,45343,,,
0,233607618,我的樂觀讓巨蟹男生氣了,其實今天想了一整天，我還是不是很懂，為什麼他要生氣，於是想要上來求解，請各位幫我解答一下，因為我真的好在意啊，今天早上我帶著傷口去學校，然後剛好進到教室，有許多的同學都問我怎麼受傷的，因為看到有些朋友,True,True,False,4c6964fc-8b39-4480-a844-847f09e4e09d,,2020-05-04T13:09:01.542Z,2020-05-04T13:17:17.475Z,4,4,False,[],"['巨蟹', '感情']",{'layout': 'classic'},星座,horoscopes,False,F,,,[],"[{'id': '286f599c-f86a-4932-82f0-f5a06f1eca03', 'count': 4}]",False,,False,classic,False,False,[],,46009,,,
0,233607584,天秤女躲避眼神,我是男生 借我同學的來發發文解我的疑惑，一直都對班上的她很有好感 根本就是我的菜，最近都會跟她對到眼神 但她馬上就躲開了，甚至會躲到另外一個女生的後面 最近我都會看向她那邊 但我發現她根本不太會看過來,True,True,False,4c6964fc-8b39-4480-a844-847f09e4e09d,,2020-05-04T13:03:02.718Z,2020-05-04T13:03:02.718Z,8,1,False,[],"['天秤', '眼神', '愛情', '曖昧', '感情']",{'layout': 'classic'},星座,horoscopes,False,F,,,[],"[{'id': '286f599c-f86a-4932-82f0-f5a06f1eca03', 'count': 1}]",False,,False,classic,False,False,[],,46369,,,
0,233607564,雙子男真的超溫柔的,有一次我送雙子男一個非常爛的禮物，我說上次送的禮物我覺得很不夠誠意，等我賺了錢在送你好的禮物，雙子男說不會我覺得很有意義的禮物是用錢比不上的，聽到的時候好窩心🥺🥺，我們是朋友關係,True,True,False,4c6964fc-8b39-4480-a844-847f09e4e09d,,2020-05-04T13:00:02.696Z,2020-05-04T13:15:35.624Z,1,6,False,['HIDE_THUMBNAIL'],"['雙子', '雙子男']",{'layout': 'classic'},星座,horoscopes,False,F,,,[],"[{'id': '286f599c-f86a-4932-82f0-f5a06f1eca03', 'count': 6}]",False,,False,classic,False,False,[],,46550,,,
0,233607514,天蠍男到底什麼意思><,苦惱很久了才上來求助，大約二月多認識，之前剛認識的時候覺得很霸氣的會照顧我，就有點很在意 ><，但其實我們的生活不太會遇到，連見面的機會都很少，但他三不五時會回覆我的動態（他自己很少發），但我偶爾又覺,True,True,False,4c6964fc-8b39-4480-a844-847f09e4e09d,,2020-05-04T12:52:11.860Z,2020-05-04T12:52:11.860Z,2,4,False,['HIDE_THUMBNAIL'],"['天蠍', '巨蟹']",{'layout': 'classic'},星座,horoscopes,False,F,,,[],"[{'id': '286f599c-f86a-4932-82f0-f5a06f1eca03', 'count': 4}]",False,,False,classic,False,False,[],,47022,,,
0,233607437,心測-你最近的桃花運好壞？,我相信，沒有人真的會缺桃花運，大傢真正缺的其實是高質量的桃花運。對吧？！，1、過去的一年，你曾遭遇了感情打擊嗎？是的——轉2題，沒有——轉3題，正在打擊中——轉4題，2、與戀人一起，你更喜歡看朝陽還是,True,True,False,4c6964fc-8b39-4480-a844-847f09e4e09d,,2020-05-04T12:41:06.118Z,2020-05-04T12:41:06.118Z,0,18,False,[],"['愛情', '感情', '戀愛', '曖昧', '心理測驗']",{'layout': 'classic'},星座,horoscopes,False,F,,,[],"[{'id': '286f599c-f86a-4932-82f0-f5a06f1eca03', 'count': 18}]",False,,False,classic,False,False,[],,47690,,,
0,233607434,求解雙子男,跟️分手之後半年來都沒聯絡，他會看我的定位蠻多次的（app是冰棒 確定他有看 因為我沒幾個好友，之前把他移除粉絲了 如果又再追他ig會不會很好笑，對 我就只是想聽別人勸 不管好壞,True,True,False,4c6964fc-8b39-4480-a844-847f09e4e09d,,2020-05-04T12:40:44.418Z,2020-05-04T12:41:53.210Z,1,2,False,['HIDE_THUMBNAIL'],"['雙子', '十二星座', '愛情', '心情']",{'layout': 'classic'},星座,horoscopes,False,F,,,[],"[{'id': '286f599c-f86a-4932-82f0-f5a06f1eca03', 'count': 2}]",False,,False,classic,False,False,[],,47713,,,
0,233607414,各星座大師一週運勢(2020/05/04~2020/05/10),一週的新開始，來看看這週各個星座大師怎麼分析吧！，幫大家整理好文章列表了！，如果發現各個大師的解說打架，以後就挑著自己覺得準的看就好囉！，另外附上之前貼的 5 月份星座運勢：蘇珊米勒：道不精Athen,False,True,False,4c6964fc-8b39-4480-a844-847f09e4e09d,,2020-05-04T12:38:10.849Z,2020-05-04T12:38:10.849Z,2,33,True,[],"['星座', '星座運勢', '星座農場', '十二星座', 'Alex是大叔']",{'layout': 'classic'},星座,horoscopes,False,M,,,[],"[{'id': '286f599c-f86a-4932-82f0-f5a06f1eca03', 'count': 33}]",False,,False,classic,False,False,[],,47868,,星座農場,horoscopefarm
0,233607408,雙魚男求解,一開始的各種撩各種好聽話，才過不到一個月就開始不回 放鳥，是怎樣，中間我們也有約出來，過程應該算還可以，到了約出來之後的兩天，他就開始沒有很快回也不太會說他去幹嘛，甚至直接不回 這是什麼操作,True,True,False,4c6964fc-8b39-4480-a844-847f09e4e09d,,2020-05-04T12:37:08.106Z,2020-05-04T12:37:08.106Z,10,4,False,['HIDE_THUMBNAIL'],"['魚男', '雙魚']",{'layout': 'classic'},星座,horoscopes,False,F,,,[],"[{'id': '286f599c-f86a-4932-82f0-f5a06f1eca03', 'count': 4}]",False,,False,classic,False,False,[],,47932,,,
0,233607338,牡羊女求救,請問版上的大大們跟牡羊女聊什麼比較好，我最近跟她聊天有時候  可能是我不太會聊天  沒什麼話題  所以聊一下就被被句點了或傳一個貼圖而已，想請問各位有沒有什麼撇步可以教教小的我  我平常很少跟女生聊天,True,True,False,4c6964fc-8b39-4480-a844-847f09e4e09d,,2020-05-04T12:28:27.163Z,2020-05-04T12:28:27.163Z,5,5,False,['HIDE_THUMBNAIL'],"['牡羊女', '天蠍男']",{'layout': 'classic'},星座,horoscopes,False,M,,,[],"[{'id': '286f599c-f86a-4932-82f0-f5a06f1eca03', 'count': 5}]",False,,False,classic,False,False,[],,48454,,,
0,233607281,別想再猜前男友的心,過了一個多月，想來分享發生了什麼事，電話隔天我們就約出去吃飯了，過程都很開心，但我們也不知道要不要再進一步發展，就持續著每天有一搭沒一搭的聊天，三四天見一次面，會kiss goodbye ，大約維持快,True,True,False,4c6964fc-8b39-4480-a844-847f09e4e09d,233358479,2020-05-04T12:21:18.023Z,2020-05-04T12:21:18.023Z,3,2,False,[],"['巨蟹', '雙子', '前任']",{'layout': 'classic'},星座,horoscopes,False,F,雙子前任的默默愛著妳？,,[],"[{'id': '286f599c-f86a-4932-82f0-f5a06f1eca03', 'count': 2}]",False,,False,classic,False,False,[],,48884,,,
0,233607065,（積德）想認識瓶男的歡迎進來🤗,歡迎各位想問有關於任何瓶子的事，都可以呦～我覺得我算是個還蠻典型的瓶子🤭，星座版之前幫助我很多該來回饋社會了🤗，歡迎底下踴躍發問與討論呦！,True,True,False,4c6964fc-8b39-4480-a844-847f09e4e09d,,2020-05-04T11:47:48.505Z,2020-05-04T11:47:48.505Z,35,11,False,['HIDE_THUMBNAIL'],"['水瓶', '感情', '星座']",{'layout': 'classic'},星座,horoscopes,False,M,,,[],"[{'id': '286f599c-f86a-4932-82f0-f5a06f1eca03', 'count': 10}, {'id': 'e8e6bc5d-41b0-4129-b134-97507523d7ff', 'count': 1}]",False,,False,classic,False,False,[],,50895,,,
0,233607026,Alex是大叔-和雙子座戀愛是什麼體驗,今天我找了一位初戀是雙子座，現在正在和雙子座戀愛，以及身邊有一群雙子座朋友的女同學來講講和雙子座在一起的感受，以下是她的聲明：“我被要求寫一篇如何與雙子座相處的成功經驗，但是我覺得我可能會寫成一篇求助,True,True,False,4c6964fc-8b39-4480-a844-847f09e4e09d,,2020-05-04T11:42:08.607Z,2020-05-04T11:42:08.607Z,13,104,False,[],"['雙子座', '雙子', '天蠍', '處女', '水瓶']",{'layout': 'classic'},星座,horoscopes,False,F,,,[],"[{'id': '286f599c-f86a-4932-82f0-f5a06f1eca03', 'count': 104}]",False,,False,classic,False,False,[],,51236,,,
0,233607023,#問 如何挽回雙子男,因為朋友沒有帳號所以代幫發文，先跟大家說聲抱歉 手機排版，上禮拜前任（19y）因為期中考，所以一個星期沒有講電話 也沒什麼聊天，如果要聊天報備都是對方用筆電來進行，但是在上星期五的時候對方從中午消失到,False,True,False,4c6964fc-8b39-4480-a844-847f09e4e09d,,2020-05-04T11:41:19.132Z,2020-05-04T11:41:19.132Z,14,3,False,[],"['雙子', '挽回', '分手']",{'layout': 'classic'},星座,horoscopes,False,F,,,[],"[{'id': '286f599c-f86a-4932-82f0-f5a06f1eca03', 'count': 3}]",False,,False,classic,False,False,[],,51287,,樹人醫護管理專科學校,
0,233606785,看不懂摩羯座,不想再看問魔羯男的了他就是不給你看懂所以你才看不懂...有天秤女的眷屬感想可以看嗎,False,True,False,4c6964fc-8b39-4480-a844-847f09e4e09d,,2020-05-04T11:03:40.673Z,2020-05-04T11:03:40.673Z,7,8,True,['HIDE_THUMBNAIL'],"['天秤', '星座', '魔羯', '感情']",{'layout': 'classic'},星座,horoscopes,False,F,,,[],"[{'id': '286f599c-f86a-4932-82f0-f5a06f1eca03', 'count': 7}, {'id': 'e8e6bc5d-41b0-4129-b134-97507523d7ff', 'count': 1}]",False,,False,classic,False,False,[],,53547,,超人不會飛,capricorn1999
0,233606622,請求處女男解答,我有一個處女男友，他總是希望我更好更美麗，我身高164 體重45 有胸但沒屁股，外表自認是個美女，謙虛一點也有中上！，他總要我去練翹臀，不然就是做瑜伽，平常我穿五公分高跟鞋不夠，要我穿到7公分，是要我,True,True,False,4c6964fc-8b39-4480-a844-847f09e4e09d,,2020-05-04T10:33:42.195Z,2020-05-04T10:33:42.195Z,11,9,False,['HIDE_THUMBNAIL'],"['處女', '愛情', '心情', '男友']",{'layout': 'classic'},星座,horoscopes,False,F,,,[],"[{'id': '286f599c-f86a-4932-82f0-f5a06f1eca03', 'count': 9}]",False,,False,classic,False,False,[],,55347,,,
0,233606567,金牛男行為真的沒什麼嗎？2,我是那篇原po，這次我畫很醜的圖形容那天的樣子🤣🤣🤣,True,True,False,4c6964fc-8b39-4480-a844-847f09e4e09d,233458508,2020-05-04T10:24:07.265Z,2020-05-04T10:24:32.359Z,18,4,False,['HIDE_THUMBNAIL'],"['金牛', '愛情', '感情', '曖昧']",{'layout': 'classic'},星座,horoscopes,False,F,0504更新）金牛男行為真的沒什麼嗎？,,[],"[{'id': '286f599c-f86a-4932-82f0-f5a06f1eca03', 'count': 4}]",False,,False,classic,False,False,[],,55923,,,
0,233606473,從星象看疫情走向,上次有分享過這家的運勢文，看大家反應都蠻好的～上次截手機板的星盤，這次截網頁的，hen美，反正就是今天逛臉書發現他們還有預測武漢肺炎的文，看完感覺疫情會再爆發．．．（怕 .jpg），不過觀點蠻新鮮的，,True,True,False,4c6964fc-8b39-4480-a844-847f09e4e09d,,2020-05-04T10:08:29.324Z,2020-05-04T10:16:43.588Z,2,1,False,[],"['運勢', '疫情', '武漢肺炎', '占星']",{'layout': 'classic'},星座,horoscopes,False,F,,,"[{'id': '8af11491-73fe-4ab6-9982-0f1f863633eb', 'url': 'https://imgur.dcard.tw/8KWR5bi.png', 'normalizedUrl': 'https://imgur.dcard.tw/8KWR5bi.png', 'thumbnail': 'https://imgur.dcard.tw/8KWR5bi.png', 'type': 'image/thumbnail', 'tags': ['ANNOTATED'], 'createdAt': '2020-05-04T10:08:29.324Z', 'updatedAt': '2020-05-04T10:16:43.588Z'}, {'id': '8af11491-73fe-4ab6-9982-0f1f863633eb', 'url': 'https://imgur.dcard.tw/8KWR5bi.png', 'normalizedUrl': '', 'thumbnail': 'https://imgur.dcard.tw/8KWR5bi.png', 'type': 'image/png', 'tags': ['ANNOTATED'], 'createdAt': '2020-05-04T10:08:29.324Z', 'updatedAt': '2020-05-04T10:16:43.588Z'}, {'id': 'ddc6f6fd-8542-4b01-b59c-2724449534b1', 'url': 'https://imgur.dcard.tw/YL2zqrg.jpg', 'normalizedUrl': '', 'thumbnail': 'https://imgur.dcard.tw/YL2zqrg.jpg', 'type': 'image/jpeg', 'tags': ['ANNOTATED'], 'createdAt': '2020-05-04T10:08:29.324Z', 'updatedAt': '2020-05-04T10:16:43.588Z'}, {'id': '02cb697a-e4f7-4f78-aa75-045b601a7c5f', 'url': 'https://imgur.dcard.tw/SDNmrOq.jpg', 'normalizedUrl': '', 'thumbnail': 'https://imgur.dcard.tw/SDNmrOq.jpg', 'type': 'image/jpeg', 'tags': ['ANNOTATED'], 'createdAt': '2020-05-04T10:08:29.324Z', 'updatedAt': '2020-05-04T10:16:43.588Z'}, {'id': '4885af08-253d-4d5f-ac8c-a20a503eaa5e', 'url': 'https://imgur.dcard.tw/q9MsG4Y.jpg', 'normalizedUrl': '', 'thumbnail': 'https://imgur.dcard.tw/q9MsG4Y.jpg', 'type': 'image/jpeg', 'tags': ['ANNOTATED'], 'createdAt': '2020-05-04T10:08:29.324Z', 'updatedAt': '2020-05-04T10:16:43.588Z'}]","[{'id': '286f599c-f86a-4932-82f0-f5a06f1eca03', 'count': 1}]",False,,False,classic,True,False,"[{'url': 'http://i.imgur.com/8KWR5bi.png'}, {'url': 'http://i.imgur.com/YL2zqrg.jpg'}, {'url': 'http://i.imgur.com/SDNmrOq.jpg'}, {'url': 'http://i.imgur.com/q9MsG4Y.jpg'}]",,56862,,,
0,233606198,求解 牡羊男分手一個月突然傳簡訊給我,因為疫情的關係 跟牡羊男需要遠距4個月，但遠距不到兩個禮拜 就吵架了，然後牡羊男說要分開一段時間 等我回去再說，他說他沒辦法遠距離 因為之前遠距也都分手，我當下很生氣就說要分就分一分，我不想等四個月 ,True,True,False,4c6964fc-8b39-4480-a844-847f09e4e09d,,2020-05-04T09:23:14.411Z,2020-05-04T09:23:37.361Z,16,0,False,['HIDE_THUMBNAIL'],"['牡羊', '復合', '挽回', '前男友']",{'layout': 'classic'},星座,horoscopes,False,F,,,[],[],False,,False,classic,False,False,[],,59578,,,
0,233606177,水瓶男這樣閃是？瓶男瓶眷請幫忙解答,跟瓶男聊了兩個多月快三個月，有熱情過（蠻明顯的），現在我丟球（偶爾丟，因為漸漸發現他好像會閃），他大多數讓我覺得他算閃開，但又會繼續跟我聊，會開話題，雖然我過了訊息地獄，但現在這樣我到底是可以繼續用聊,True,True,False,4c6964fc-8b39-4480-a844-847f09e4e09d,,2020-05-04T09:19:38.396Z,2020-05-04T09:19:38.396Z,8,5,False,[],"['瓶眷', '水瓶', '感情', '曖昧']",{'layout': 'classic'},星座,horoscopes,False,F,,,[],"[{'id': '286f599c-f86a-4932-82f0-f5a06f1eca03', 'count': 5}]",False,,False,classic,False,False,[],,59796,,,
0,233606030,雙子女請進,最近跟雙子女大吵了一架，她已經訊息冷淡我一個禮拜，回家也說最近工作真的很累不想講話而沒講電話，但我打給她還是會接，只是也沒聊什麼，但她可以跟朋友聊工作的事，最近也都不會跟我說，前幾天有找她出來聊一下，,True,True,False,4c6964fc-8b39-4480-a844-847f09e4e09d,,2020-05-04T08:53:26.198Z,2020-05-04T08:58:08.027Z,6,3,False,['HIDE_THUMBNAIL'],"['雙子', '感情', '十二星座']",{'layout': 'classic'},星座,horoscopes,False,M,,,[],"[{'id': '286f599c-f86a-4932-82f0-f5a06f1eca03', 'count': 3}]",False,,False,classic,False,False,[],,61369,,,
0,233605827,還有機會追求牛女嗎？,和牛女認識快三年，我比她大六歲，曾經關係不錯，到哪裡她都會好奇或想跟，也會主動邀我出門走走、吃飯看電影，一直到認識一年多時，因為一件事情整個大吵到冷戰，她想收留她朋友家負擔不起的小貓，而且不是一隻，是,True,True,False,4c6964fc-8b39-4480-a844-847f09e4e09d,,2020-05-04T08:16:28.389Z,2020-05-04T08:41:53.489Z,3,4,False,[],"['牛女', '金牛', '感情', '十二星座', '雙魚']",{'layout': 'classic'},星座,horoscopes,False,M,,,[],"[{'id': '286f599c-f86a-4932-82f0-f5a06f1eca03', 'count': 4}]",False,,False,classic,False,False,[],,63588,,,
0,233605811,處女男請進😢,第一次發文請見諒，我是天秤女，把版上天秤女跟處女男的文章翻爆了還是很無解，我們是網路上認識的，一開始我只是想找聊天對象而已完全沒有要幹嘛，但處女男一開始就對我超熱絡，明明說不愛回訊息卻都會秒回我或是三,True,True,False,4c6964fc-8b39-4480-a844-847f09e4e09d,,2020-05-04T08:13:24.001Z,2020-05-04T08:16:18.901Z,13,4,False,['HIDE_THUMBNAIL'],"['處女', '天秤']",{'layout': 'classic'},星座,horoscopes,False,F,,,[],"[{'id': '286f599c-f86a-4932-82f0-f5a06f1eca03', 'count': 4}]",False,,False,classic,False,False,[],,63774,,,
0,233605613,射手男挽回我？,前陣子大吵，他對我很兇很大聲，那陣子常吵架然後他口氣都不好，所以這一次大吵我就超傷心直接離開他家，那天是他載我去他家的，我離開時自己搭公車離開而且手機關機，（第一次吵成這樣），雖然我還沒明確說出口分手,True,True,False,4c6964fc-8b39-4480-a844-847f09e4e09d,,2020-05-04T07:37:28.329Z,2020-05-04T07:43:48.626Z,7,2,False,[],['射手'],{'layout': 'classic'},星座,horoscopes,False,F,,,[],"[{'id': '286f599c-f86a-4932-82f0-f5a06f1eca03', 'count': 2}]",False,,False,classic,False,False,[],,65891,,,
0,233605532,雙子女問題,我想問之前喜歡過的雙子女（她知道我喜歡她），有一陣子沒聯絡了，然後最近突然變得很主動找我聊天 還說他知道我喜歡她 肯跟我單獨出去吃飯 會唸我騎車不要回訊息哈哈哈 這樣我算有機會了嗎？雖然我很喜歡她 但,True,True,False,4c6964fc-8b39-4480-a844-847f09e4e09d,,2020-05-04T07:24:36.834Z,2020-05-04T07:24:36.834Z,3,7,False,['HIDE_THUMBNAIL'],['雙子'],{'layout': 'classic'},星座,horoscopes,False,M,,,[],"[{'id': '286f599c-f86a-4932-82f0-f5a06f1eca03', 'count': 7}]",False,,False,classic,False,False,[],,66703,,,
0,233605496,追射手女請益,最近認識了一個射手女孩，因為不是很懂所以就上來星座版發問，最開始聊天的時候是對方主動找我的，因為幾件不太重要的小事，我是一個不太會透過網路跟別人聊天的人，但她主動密我幾次之後我也開始會跟她閒聊，於是不,True,True,False,4c6964fc-8b39-4480-a844-847f09e4e09d,,2020-05-04T07:19:15.057Z,2020-05-04T07:20:37.542Z,4,8,False,[],['射手'],{'layout': 'classic'},星座,horoscopes,False,M,,,[],"[{'id': '286f599c-f86a-4932-82f0-f5a06f1eca03', 'count': 8}]",False,,False,classic,False,False,[],,67026,,,
0,233605442,為何會選擇金牛男當男友,悶騷木訥是大多金牛男的特點，固執小氣也是通病。結婚後顧家有責任感，孝順家事一手包是大家推薦的好老公。但很好奇的是金牛男是怎麼通過“男友”這道關卡。我常常在未成為男友前就出局。結果都是“悶.木訥”，大家,True,True,False,4c6964fc-8b39-4480-a844-847f09e4e09d,,2020-05-04T07:11:17.477Z,2020-05-04T07:11:17.477Z,18,23,False,[],"['金牛', '感情', '星座', '男友']",{'layout': 'classic'},星座,horoscopes,False,M,,,[],"[{'id': '286f599c-f86a-4932-82f0-f5a06f1eca03', 'count': 23}]",False,,False,classic,False,False,[],,67505,,,
0,233605355,金牛男求解,請問金牛男會因為自卑而不敢跟喜歡的人在一起嗎，去年被他封鎖過後難過了一陣子，今年情人節前他突然把我解封鎖之後說想找我講清楚，他說他其實有想跟我在一起，但是因為一些現實的考量而決定不要，但他又一直重複問,True,True,False,4c6964fc-8b39-4480-a844-847f09e4e09d,,2020-05-04T06:53:11.308Z,2020-05-04T06:53:34.868Z,15,6,False,['HIDE_THUMBNAIL'],"['金牛男', '金牛']",{'layout': 'classic'},星座,horoscopes,False,F,,,[],"[{'id': '286f599c-f86a-4932-82f0-f5a06f1eca03', 'count': 6}]",False,,False,classic,False,False,[],,68592,,,
0,233605127,好喜歡天蠍座❤️,不知道是不是因為身邊朋友（男女都是）很多天蠍的原因，我對天蠍真的很有好感！！，佔有慾、控制慾：我超愛被人家管的啦（˶‾᷄ ⁻̫ ‾᷅˵），每次想偷做一些壞事的時候（翹課、亂吃零食），就會被天蠍朋友警告,False,True,False,4c6964fc-8b39-4480-a844-847f09e4e09d,,2020-05-04T06:11:44.108Z,2020-05-04T07:41:07.916Z,61,184,True,['HIDE_THUMBNAIL'],['天蠍'],{'layout': 'classic'},星座,horoscopes,False,F,,,[],"[{'id': '286f599c-f86a-4932-82f0-f5a06f1eca03', 'count': 180}, {'id': 'e8e6bc5d-41b0-4129-b134-97507523d7ff', 'count': 4}]",False,,False,classic,False,False,[],,71081,,優秀的峽谷召喚師,hiisrose
0,233605054,獅子女主動出擊牡羊男,第一次認識你，我們一起喝酒，很貼心的陪我去停車的地方，之後幾次偶遇總是如此，很暖，你我工作的地方1、20分鐘的車程，你開車過來找我只為了四處都能買到的東西，你對我說時間距離都不是問題，你請我吃飯，目的,True,True,False,4c6964fc-8b39-4480-a844-847f09e4e09d,,2020-05-04T05:59:00.216Z,2020-05-04T11:00:12.794Z,2,5,False,['HIDE_THUMBNAIL'],"['牡羊', '獅子', '牡羊男', '獅子女']",{'layout': 'classic'},星座,horoscopes,False,F,,,[],"[{'id': '286f599c-f86a-4932-82f0-f5a06f1eca03', 'count': 5}]",False,,False,classic,False,False,[],,71846,,,
0,233605029,問在場各位天蠍男,會在意另一半的年齡嗎？差距多少會無法接受？謝謝你們,True,True,False,4c6964fc-8b39-4480-a844-847f09e4e09d,,2020-05-04T05:53:44.347Z,2020-05-04T05:53:44.347Z,4,2,False,['HIDE_THUMBNAIL'],['天蠍'],{'layout': 'classic'},星座,horoscopes,False,F,,,[],"[{'id': '286f599c-f86a-4932-82f0-f5a06f1eca03', 'count': 1}, {'id': '4b018f48-e184-445f-adf1-fc8e04ba09b9', 'count': 1}]",False,,False,classic,False,False,[],,72163,,,
0,233604973,問雙子男,當一個捉摸不定的雙子座定下來的時候會有什麼表現？,True,True,False,4c6964fc-8b39-4480-a844-847f09e4e09d,,2020-05-04T05:44:15.696Z,2020-05-04T05:44:38.729Z,20,5,False,['HIDE_THUMBNAIL'],['雙子'],{'layout': 'classic'},星座,horoscopes,False,F,,,[],"[{'id': '286f599c-f86a-4932-82f0-f5a06f1eca03', 'count': 5}]",False,,False,classic,False,False,[],,72733,,,
0,233604627,金牛通病？嗎,在ig上看到的一篇文，裡面一句話看到立馬大笑出來，「金牛的愛心一膨脹，錢包就會跟著縮水」真的是100%符合我，前陣子交了男朋友，現在真的是花錢都沒在考慮的，這個好適合他喔，下單，這個他說過他需要欸，下,True,True,False,4c6964fc-8b39-4480-a844-847f09e4e09d,,2020-05-04T04:47:58.685Z,2020-05-04T04:47:58.685Z,8,78,False,['HIDE_THUMBNAIL'],['金牛'],{'layout': 'classic'},星座,horoscopes,False,F,,,[],"[{'id': '286f599c-f86a-4932-82f0-f5a06f1eca03', 'count': 75}, {'id': 'e8e6bc5d-41b0-4129-b134-97507523d7ff', 'count': 3}]",False,,False,classic,False,False,[],,76111,,,
0,233604395,跪求天秤男解答...,最近在GN上認識了一位天秤男，認識了2.3個禮拜以來幾乎每天都有通電話聊天，傳訊息對方也幾乎都秒回，也都會關心我每天的生活，會說早安晚安也會報備，但遲遲沒有要我的Line或IG，雙方的感情觀也都有深深,False,True,False,4c6964fc-8b39-4480-a844-847f09e4e09d,,2020-05-04T04:03:39.297Z,2020-05-04T04:03:39.297Z,3,2,False,[],['天秤'],{'layout': 'classic'},星座,horoscopes,False,F,,,[],"[{'id': '286f599c-f86a-4932-82f0-f5a06f1eca03', 'count': 2}]",False,,False,classic,False,False,[],,78771,,國立臺中科技大學,
0,233604239,傲嬌水瓶求助射手男攻略😂,因為本人就是水瓶+上升天蠍，心中小劇場太多 理性感性的思考快速拉扯～所以不容易心動 可是一旦有好感會馬上一頭栽進去（但當然不會讓對方發現傲嬌到底），100%感覺派又加上過去一些受傷經驗，現在也因為工作,True,True,False,4c6964fc-8b39-4480-a844-847f09e4e09d,,2020-05-04T03:37:03.667Z,2020-05-04T03:37:43.626Z,23,11,False,['HIDE_THUMBNAIL'],"['射手', '水瓶', '曖昧', '感情']",{'layout': 'classic'},星座,horoscopes,False,F,,,[],"[{'id': '286f599c-f86a-4932-82f0-f5a06f1eca03', 'count': 11}]",False,,False,classic,False,False,[],,80368,,,
0,233604218,雙魚男幫幫我,前幾天我跟我男友剛分手，原本一個月前是說暫時分開，但我們還是跟在一起時一樣的傳訊息、視訊，我覺得繼續這樣不行，所以在一個禮拜前跟他提說要先不聯絡，後來他在那個禮拜有跟新認識的女生單獨出去，他說會認識那,True,True,False,4c6964fc-8b39-4480-a844-847f09e4e09d,,2020-05-04T03:34:15.378Z,2020-05-04T03:35:03.692Z,12,2,False,['HIDE_THUMBNAIL'],['魚男'],{'layout': 'classic'},星座,horoscopes,False,F,,,[],"[{'id': '286f599c-f86a-4932-82f0-f5a06f1eca03', 'count': 2}]",False,,False,classic,False,False,[],,80538,,,
0,233604203,跟處女女遠距吵架後,因為很久沒見面加上很多小事情而吵架，現在我們氣氛有點小尷尬，但我們還是把對方當男女朋友，每天也一樣有訊息有電話 也會分享生活的大小事，而在昨天我們輕鬆聊天的時候我試探性問她會不會不想見到我，她用很輕鬆,True,True,False,4c6964fc-8b39-4480-a844-847f09e4e09d,,2020-05-04T03:31:42.546Z,2020-05-04T03:31:42.546Z,11,5,False,[],"['處女', '天秤']",{'layout': 'classic'},星座,horoscopes,False,M,,,[],"[{'id': '286f599c-f86a-4932-82f0-f5a06f1eca03', 'count': 5}]",False,,False,classic,False,False,[],,80692,,,
0,233604141,吉星入果宮或兇宮是不是就浪費了？,之前的文下面常常遇到如標題的問題，於是決定專門寫一篇來討論。在討論這個問題之前首先必須認知：入果宮和入兇宮會有什麼影響！，星盤中的1、4、7和10宮是始宮或稱角宮，行星在這個位置有非常強的表現能力尤其,False,True,False,4c6964fc-8b39-4480-a844-847f09e4e09d,,2020-05-04T03:20:01.668Z,2020-05-04T03:20:01.668Z,1,0,True,[],"['占星', '古典占星', '占卜']",{'layout': 'classic'},星座,horoscopes,False,M,,,[],[],False,,False,classic,False,False,[],,81394,,初星者,ingress
