﻿,id,title,excerpt,anonymousSchool,anonymousDepartment,pinned,forumId,replyId,createdAt,updatedAt,commentCount,likeCount,withNickname,tags,topics,meta,forumName,forumAlias,nsfw,gender,replyTitle,reportReason,mediaMeta,reactions,hidden,customStyle,isSuspiciousAccount,layout,withImages,withVideos,media,reportReasonText,elapsedTime,postAvatar,school,department
0,233618408,獅子男請進來！,跟男友交往要一年了，他身邊的朋友都知道他很愛我 比所有以前女友都還愛，任何事都讓著我 即使是我任性 他都跟我低頭，天氣熱也陪我去想去的地方，但我們常常吵架 因為我都會找小事跟他吵 管他很多 他累的時候,True,True,False,4c6964fc-8b39-4480-a844-847f09e4e09d,,2020-05-06T03:51:17.479Z,2020-05-06T03:53:57.047Z,0,0,False,['HIDE_THUMBNAIL'],"['獅子', '十二星座', '感情', '星座', '愛情']",{'layout': 'classic'},星座,horoscopes,False,F,,,[],[],False,,False,classic,False,False,[],,1074,,,
0,233618365,求助嗚嗚 怎麼認識射手女,在讀書館看到一個女生，也在重考的樣子，我覺得她超級可愛的，知道他是射手座的，因為有共同好友 所以知道了他的賴，有密他，但他好像覺得很怪，應該要怎麼認識他啊，他好像不是典型的射手女，聽說她很乖 很害羞的,True,True,False,4c6964fc-8b39-4480-a844-847f09e4e09d,,2020-05-06T03:44:22.728Z,2020-05-06T03:44:22.728Z,5,0,False,['HIDE_THUMBNAIL'],"['射手女', '射手', '獅子', '認識新朋友']",{'layout': 'classic'},星座,horoscopes,False,M,,,[],[],False,,False,classic,False,False,[],,1490,,,
0,233618325,請問巨蟹男都這樣嗎？,我昨天只是因為快碰到我地雷，小小警告了一個我在曖昧中的巨蟹男，結果他就崩潰了以為我要離開他，然後訊息傳了爆炸多有點情緒化，甚至說上班要請假要當面跟我說對不起，是巨蟹男都這樣還是他特別沒安全感？如果以往,True,True,False,4c6964fc-8b39-4480-a844-847f09e4e09d,,2020-05-06T03:38:27.504Z,2020-05-06T03:38:27.504Z,1,0,False,['HIDE_THUMBNAIL'],['巨蟹'],{'layout': 'classic'},星座,horoscopes,False,F,,,[],[],False,,False,classic,False,False,[],,1847,,,
0,233618272,！求解 金牛座請進！,前幾天跟牛男吵架，是吵關於母親節送媽媽蛋糕的事情，他說他找到的幾家蛋糕都不是他媽媽喜歡的，所以他有在打算再找找或是去手作店做一個給他媽媽，希望他媽媽能過一個開心的母親節，（因為他從小家裡就過的不好，經,True,True,False,4c6964fc-8b39-4480-a844-847f09e4e09d,,2020-05-06T03:26:56.829Z,2020-05-06T03:46:21.323Z,3,2,False,[],"['金牛座', '天秤']",{'layout': 'classic'},星座,horoscopes,False,F,,,"[{'id': '8a6d9ef8-46f2-447b-afae-7772bafa2441', 'url': 'https://i.imgur.com/LAvUkLQl.jpg', 'normalizedUrl': 'https://i.imgur.com/LAvUkLQl.jpg', 'thumbnail': 'https://i.imgur.com/LAvUkLQl.jpg', 'type': 'image/thumbnail', 'tags': ['ANNOTATED'], 'createdAt': '2020-05-06T03:26:56.829Z', 'updatedAt': '2020-05-06T03:46:21.323Z'}, {'id': '8a6d9ef8-46f2-447b-afae-7772bafa2441', 'url': 'https://i.imgur.com/LAvUkLQ.jpg', 'normalizedUrl': 'https://imgur.com/LAvUkLQ', 'thumbnail': 'https://i.imgur.com/LAvUkLQl.jpg', 'type': 'image/imgur', 'tags': ['ANNOTATED'], 'createdAt': '2020-05-06T03:26:56.829Z', 'updatedAt': '2020-05-06T03:46:21.323Z'}]","[{'id': '286f599c-f86a-4932-82f0-f5a06f1eca03', 'count': 2}]",False,,False,classic,True,False,[{'url': 'https://i.imgur.com/LAvUkLQ.jpg'}],,2539,,,
0,233618193,求解分手後雙子男,我們會分手是因為他比較注重自己的生活，前幾天我想跟他溝通這件事情，殊不知他卻說要分開一陣子給彼此一點空間，聽起來很有機會但感覺又不太有，我剛開始很難過，就提出能不能像朋友一樣繼續聯絡，他也說可以啊什麼,True,True,False,4c6964fc-8b39-4480-a844-847f09e4e09d,,2020-05-06T03:10:02.260Z,2020-05-06T03:10:02.260Z,0,0,False,[],"['雙子', '感情', '分手']",{'layout': 'classic'},星座,horoscopes,False,F,,,[],[],False,,False,classic,False,False,[],,3554,,,
0,233618166,這隻雙魚男要撈嗎？,小女子最近因為一起意外認識了這個魚男，對方拿到我手機號碼後主動傳簡訊來，告訴我如果有需要幫忙都可以找他，因為他外表完全是我的菜（我這個膚淺的），我就回了「沒事也能找你嗎？」後來他還說了需不需要載我去看,True,True,False,4c6964fc-8b39-4480-a844-847f09e4e09d,,2020-05-06T03:05:17.498Z,2020-05-06T03:29:53.836Z,2,2,False,['HIDE_THUMBNAIL'],"['魚男', '雙魚', '牡羊']",{'layout': 'classic'},星座,horoscopes,False,F,,,[],"[{'id': '286f599c-f86a-4932-82f0-f5a06f1eca03', 'count': 2}]",False,,False,classic,False,False,[],,3840,,,
0,233617985,天秤女,我們認識已一個月 都是頻繁聯繫 就算課堂繁忙也會回，漸漸變成會用電話聊天 無論大小事都會主動跟我分享，甚至是自己會主動跟我報備行程，以上這些情況 確定有好感了吧？好想約她出門喔喔喔 彼此都像工作狂QQ,True,True,False,4c6964fc-8b39-4480-a844-847f09e4e09d,,2020-05-06T02:30:37.962Z,2020-05-06T02:31:03.736Z,1,1,False,[],['天秤'],{'layout': 'classic'},星座,horoscopes,False,F,,,[],"[{'id': '286f599c-f86a-4932-82f0-f5a06f1eca03', 'count': 1}]",False,,False,classic,False,False,[],,5921,,,
0,233617944,又惹一個朋友生氣…然後她們都不理我了…我該追回這段友誼嗎？（內容很長）,嗯…對…我又是上次po這個的原po（魔羯O），天坪O［血型驗出來是B可是她媽媽堅持她是O］她很認真念書…可是都沒有比天坪A還高，（天坪A是那種不讀書也能考很好的），她覺得心裡有點不平衡…，然後啊…在夜,False,True,False,4c6964fc-8b39-4480-a844-847f09e4e09d,233570595,2020-05-06T02:22:57.385Z,2020-05-06T02:22:57.385Z,0,0,False,[],"['心情', '原諒', '生氣', '友誼']",{'layout': 'classic'},星座,horoscopes,False,F,不曉得到底該怎麼面對水瓶女…,,"[{'id': '600b93ca-f99e-4344-8345-027dff658588', 'url': 'https://i.imgur.com/x61VMCCl.jpg', 'normalizedUrl': 'https://i.imgur.com/x61VMCCl.jpg', 'thumbnail': 'https://i.imgur.com/x61VMCCl.jpg', 'type': 'image/thumbnail', 'tags': ['ANNOTATED'], 'createdAt': '2020-05-06T02:22:57.385Z', 'updatedAt': '2020-05-06T02:22:57.385Z'}, {'id': '600b93ca-f99e-4344-8345-027dff658588', 'url': 'https://i.imgur.com/x61VMCC.jpg', 'normalizedUrl': 'https://imgur.com/x61VMCC', 'thumbnail': 'https://i.imgur.com/x61VMCCl.jpg', 'type': 'image/imgur', 'tags': ['ANNOTATED'], 'createdAt': '2020-05-06T02:22:57.385Z', 'updatedAt': '2020-05-06T02:22:57.385Z'}, {'id': '94bcc617-64da-4f42-8a21-3ff5db66f6c0', 'url': 'https://i.imgur.com/NoTjhyz.png', 'normalizedUrl': 'https://imgur.com/NoTjhyz', 'thumbnail': 'https://i.imgur.com/NoTjhyzl.jpg', 'type': 'image/imgur', 'tags': ['ANNOTATED'], 'createdAt': '2020-05-06T02:22:57.385Z', 'updatedAt': '2020-05-06T02:22:57.385Z'}, {'id': 'ee0316f0-a687-4a4a-b390-53fc10d37183', 'url': 'https://i.imgur.com/pDTzhWm.jpg', 'normalizedUrl': 'https://imgur.com/pDTzhWm', 'thumbnail': 'https://i.imgur.com/pDTzhWml.jpg', 'type': 'image/imgur', 'tags': ['ANNOTATED'], 'createdAt': '2020-05-06T02:22:57.385Z', 'updatedAt': '2020-05-06T02:22:57.385Z'}, {'id': 'd4687be6-8a16-456f-85c9-82819ecf3a30', 'url': 'https://i.imgur.com/O9gywzl.jpg', 'normalizedUrl': 'https://imgur.com/O9gywzl', 'thumbnail': 'https://i.imgur.com/O9gywzll.jpg', 'type': 'image/imgur', 'tags': ['ANNOTATED'], 'createdAt': '2020-05-06T02:22:57.385Z', 'updatedAt': '2020-05-06T02:22:57.385Z'}, {'id': '11990559-1ea7-402a-9fc9-daef6edf7362', 'url': 'https://i.imgur.com/G33IlR7.png', 'normalizedUrl': 'https://imgur.com/G33IlR7', 'thumbnail': 'https://i.imgur.com/G33IlR7l.jpg', 'type': 'image/imgur', 'tags': ['ANNOTATED'], 'createdAt': '2020-05-06T02:22:57.385Z', 'updatedAt': '2020-05-06T02:22:57.385Z'}, {'id': '31e6002a-cca1-452c-9edd-db7589d15e18', 'url': 'https://i.imgur.com/82MLaEU.jpg', 'normalizedUrl': 'https://imgur.com/82MLaEU', 'thumbnail': 'https://i.imgur.com/82MLaEUl.jpg', 'type': 'image/imgur', 'tags': ['ANNOTATED'], 'createdAt': '2020-05-06T02:22:57.385Z', 'updatedAt': '2020-05-06T02:22:57.385Z'}, {'id': 'daa472af-6aff-4859-b6ca-e2e13328e029', 'url': 'https://i.imgur.com/nP5cveG.jpg', 'normalizedUrl': 'https://imgur.com/nP5cveG', 'thumbnail': 'https://i.imgur.com/nP5cveGl.jpg', 'type': 'image/imgur', 'tags': ['ANNOTATED'], 'createdAt': '2020-05-06T02:22:57.385Z', 'updatedAt': '2020-05-06T02:22:57.385Z'}]",[],False,,False,classic,True,False,"[{'url': 'https://i.imgur.com/x61VMCC.jpg'}, {'url': 'https://i.imgur.com/NoTjhyz.png'}, {'url': 'https://i.imgur.com/pDTzhWm.jpg'}, {'url': 'https://i.imgur.com/O9gywzl.jpg'}, {'url': 'https://i.imgur.com/G33IlR7.png'}, {'url': 'https://i.imgur.com/82MLaEU.jpg'}, {'url': 'https://i.imgur.com/nP5cveG.jpg'}]",,6383,,康寧醫護暨管理專科學校,
0,233617729,獅子男幫幫我😭,認識一個月中間有出去過幾次，他有承認對我有好感但是我們之間一直沒辦法升溫的感覺。有時候我太久沒回他會再密說在幹嘛之類，但有時候又會已讀我，他偶爾會吃醋也會跟我講一些他說不會跟別人講的話，但是他很少會報,True,True,False,4c6964fc-8b39-4480-a844-847f09e4e09d,,2020-05-06T01:30:07.105Z,2020-05-06T01:34:14.070Z,3,0,False,['HIDE_THUMBNAIL'],"['獅子', '感情']",{'layout': 'classic'},星座,horoscopes,False,F,,,[],[],False,,False,classic,False,False,[],,9555,,,
0,233617725,對🐟男表明心意之後,對方雙魚座，月亮水瓶，火星摩羯，去年十二月中開始跟同事男互動很好，基本上我要求的他都會幫我達成，會用暱稱叫我，買咖啡他會說那是我的愛心，也有買過可可給我說是他的愛心，放假會叫我不要太想他，受傷會拍照跟,True,True,False,4c6964fc-8b39-4480-a844-847f09e4e09d,,2020-05-06T01:29:40.737Z,2020-05-06T01:33:20.607Z,0,1,False,['HIDE_THUMBNAIL'],"['雙魚', '魚男']",{'layout': 'classic'},星座,horoscopes,False,F,,,[],"[{'id': '286f599c-f86a-4932-82f0-f5a06f1eca03', 'count': 1}]",False,,False,classic,False,False,[],,9582,,,
0,233617718,對水瓶女直接告白 會嚇跑嘛,我因為上份工作認識一個水瓶女，不過我是在離職後跟她要Line，聊了一年多 但是她個性很冷，訊息雖然一天回一次 我覺得也好，彼此聊的順 沒有壓力 但是我約她兩次都被打槍，訊息上不會敷衍回覆 也會分享她的,True,True,False,4c6964fc-8b39-4480-a844-847f09e4e09d,,2020-05-06T01:27:40.684Z,2020-05-06T01:27:40.684Z,4,1,False,['HIDE_THUMBNAIL'],"['水瓶', '告白']",{'layout': 'classic'},星座,horoscopes,False,M,,,[],"[{'id': '286f599c-f86a-4932-82f0-f5a06f1eca03', 'count': 1}]",False,,False,classic,False,False,[],,9704,,,
0,233617647,如何看出牡羊男吃醋（羊男進來拜託🙏）,我的羊是3/22ㄉ孩子，為什麼他都不會吃醋啦！！，是我太乖嗎⋯⋯，我只要要出門，去哪 跟誰 到下一個地點 要去搭車 到家都會說！也有忘了說的時候，只說要出門，羊羊就會問去哪 跟誰然後都會讓我去！（我出,True,True,False,4c6964fc-8b39-4480-a844-847f09e4e09d,,2020-05-06T01:08:47.465Z,2020-05-06T01:08:47.465Z,7,2,False,['HIDE_THUMBNAIL'],"['牡羊', '牡羊男', '牡羊男x獅子女', '獅子', '獅子女']",{'layout': 'classic'},星座,horoscopes,False,F,,,[],"[{'id': '286f599c-f86a-4932-82f0-f5a06f1eca03', 'count': 2}]",False,,False,classic,False,False,[],,10838,,,
0,233617589,想知道雙子女的內心,請各位雙雙幫偶一下，在一個月我的雙雙就要生日了，想要做卡片寫字給她，但我想要趁這之前，再多了解她一點，要怎麼讓她更愛我，怎麼跟她相處，想要了解她在想什麼，拜託拜託，然後最近跟雙雙摩擦很多，她非常愛惹我,True,True,False,4c6964fc-8b39-4480-a844-847f09e4e09d,,2020-05-06T00:48:56.643Z,2020-05-06T00:48:56.643Z,4,0,False,['HIDE_THUMBNAIL'],"['雙子', '愛情', '摩羯']",{'layout': 'classic'},星座,horoscopes,False,F,,,[],[],False,,False,classic,False,False,[],,12030,,,
0,233617520,摩羯男,被忽略相信答案很明顯了，謝謝你總比你繼續對我好一直感覺有希望，嗚嗚不說了，我要重新為自己認真生活,True,True,False,4c6964fc-8b39-4480-a844-847f09e4e09d,,2020-05-06T00:13:46.356Z,2020-05-06T00:13:46.356Z,0,2,False,['HIDE_THUMBNAIL'],['摩羯'],{'layout': 'classic'},星座,horoscopes,False,F,,,[],"[{'id': '286f599c-f86a-4932-82f0-f5a06f1eca03', 'count': 2}]",False,,False,classic,False,False,[],,14142,,,
0,233617476,水瓶們拜託救救我啊啊啊啊,拜託救救我！！！祝水瓶今年發票都中獎！！，雖然我走某篇底下也有留言但還是希望能獲得更多看法跟建議！！謝謝你們！！，我是4月份金牛在南部他是2月份水瓶在中部，我們在遊戲認識一年半 前面都各自有對象 後來,False,True,False,4c6964fc-8b39-4480-a844-847f09e4e09d,,2020-05-05T23:46:16.180Z,2020-05-05T23:46:16.180Z,1,2,False,['HIDE_THUMBNAIL'],"['水瓶', '救救我', '拜託', '金牛']",{'layout': 'classic'},星座,horoscopes,False,F,,,[],"[{'id': '286f599c-f86a-4932-82f0-f5a06f1eca03', 'count': 2}]",False,,False,classic,False,False,[],,15793,,樹德科技大學,
0,233617458,蠍男什麼意思,被天蠍男說：「你對我太好了」是不是就出局了？跟天蠍也曖昧半年了，但遲遲都沒有被告白，但他常說我對他太好。我也問過他：「反正你也沒有喜歡我」，他又說不是，真的被搞的好煩呀,True,True,False,4c6964fc-8b39-4480-a844-847f09e4e09d,,2020-05-05T23:30:30.522Z,2020-05-05T23:30:30.522Z,0,1,False,['HIDE_THUMBNAIL'],"['天蠍', '雙子', '曖昧']",{'layout': 'classic'},星座,horoscopes,False,F,,,[],"[{'id': '286f599c-f86a-4932-82f0-f5a06f1eca03', 'count': 1}]",False,,False,classic,False,False,[],,16740,,,
0,233617432,處女男,處女男到底要怎麼追比較好～啊啊啊真的好難懂他們啊？還有如果覺得他可能喜歡你，那要怎樣會讓他們更愛我們呢、他們地雷又大概是怎樣呢？嗚嗚真的太懊惱了～,True,True,False,4c6964fc-8b39-4480-a844-847f09e4e09d,,2020-05-05T23:10:48.991Z,2020-05-05T23:10:48.991Z,5,7,False,['HIDE_THUMBNAIL'],"['處女', '處女男', '處女男生']",{'layout': 'classic'},星座,horoscopes,False,F,,,[],"[{'id': '286f599c-f86a-4932-82f0-f5a06f1eca03', 'count': 7}]",False,,False,classic,False,False,[],,17923,,,
0,233617310,嗨 我是喜歡上雙子的金牛女,嗨 各位，想請教身為雙子的男生 或身邊的閃是雙子男的卡友們～我跟雙子男是在交友APP上認識，剛認識的時候，兩個人都很聊得來，約莫聊了兩個星期左右 我們碰面了，第一次的見面 我們在東區逛街，他告訴我 妳,True,True,False,4c6964fc-8b39-4480-a844-847f09e4e09d,,2020-05-05T20:34:33.675Z,2020-05-05T20:34:33.675Z,12,0,False,['HIDE_THUMBNAIL'],"['雙子', '愛情', '曖昧', '星座']",{'layout': 'classic'},星座,horoscopes,False,F,,,[],[],False,,False,classic,False,False,[],,27300,,,
0,233617217,摩羯女請進,她是摩羯座，喜歡女生，經常秒回我，辦重要事情還會要我陪她聊天，常會主動打給我或要我打給她，每天白天晚上聊，無論家人朋友前任都聊，會和我分享日常生活，明天要幹嘛，喜怒哀樂之類，常常傳給我她自拍，也會問我,True,True,False,4c6964fc-8b39-4480-a844-847f09e4e09d,,2020-05-05T19:36:14.023Z,2020-05-05T19:36:14.023Z,5,2,False,['HIDE_THUMBNAIL'],"['摩羯', '天蠍']",{'layout': 'classic'},星座,horoscopes,False,F,,,[],"[{'id': '286f599c-f86a-4932-82f0-f5a06f1eca03', 'count': 2}]",False,,False,classic,False,False,[],,30801,,,
0,233617038,被羊男搞得好凌亂呀🙈,我是被忽冷忽熱/說自己很忙的悶騷（？）羊所困擾的蟹女，經過快一周的不讀不回以及羊男答應要打來結果毫無音訊的痛苦之後，終於讓我盼到一通短短的電話，但是該死的耳機一直壞掉，只講一小時就被迫掛掉了，後來還是,True,True,False,4c6964fc-8b39-4480-a844-847f09e4e09d,,2020-05-05T18:50:08.290Z,2020-05-05T18:50:08.290Z,8,2,False,[],"['感情', '曖昧', '白羊', '牡羊', '巨蟹']",{'layout': 'classic'},星座,horoscopes,False,F,,,[],"[{'id': '286f599c-f86a-4932-82f0-f5a06f1eca03', 'count': 2}]",False,,False,classic,False,False,[],,33568,,,
0,233617026,問這個魔羯男是不是玩玩,前一陣子在大學認識了摩羯座的學長，他偶爾會回我限時動態，在我身體不舒服、心情不好的時候更會回，不過並不會有曖昧的聊天，會叫我出去玩一個人要小心、偶爾問我要不要一起搭火車回家、或是看到我限時動態問我那個,True,True,False,4c6964fc-8b39-4480-a844-847f09e4e09d,,2020-05-05T18:46:46.705Z,2020-05-05T18:46:46.705Z,2,0,False,['HIDE_THUMBNAIL'],"['魔羯', '渣男嗎']",{'layout': 'classic'},星座,horoscopes,False,F,,,[],[],False,,False,classic,False,False,[],,33771,,,
0,233617008,求解射手男是不是沒有可能了,我跟射手男在去年初因為工作認識，跟他年紀相差快10歲，剛開始因為年齡差距對他沒有很關心，但他會主動找我聊天 主動傳訊息，單獨找我一起出去吃飯出去玩，因為一開始我對他沒什麼想法所以沒有答應，到後來越來越,True,True,False,4c6964fc-8b39-4480-a844-847f09e4e09d,,2020-05-05T18:42:25.749Z,2020-05-05T18:42:25.749Z,5,1,False,['HIDE_THUMBNAIL'],['射手'],{'layout': 'classic'},星座,horoscopes,False,F,,,[],"[{'id': '286f599c-f86a-4932-82f0-f5a06f1eca03', 'count': 1}]",False,,False,classic,False,False,[],,34033,,,
0,233617001,雙子男問題⋯,認識一個雙子男大概三個月⋯，他有說過自己是安靜的人，在line聊天他很多時候都對我很冷淡（我可能打五句他回一句那種），不會超過一天不回我有時候還會秒回（但還是一樣回個貼圖或是只打一點點⋯，然後一個禮拜,True,True,False,4c6964fc-8b39-4480-a844-847f09e4e09d,,2020-05-05T18:41:21.041Z,2020-05-05T18:41:21.041Z,1,0,False,['HIDE_THUMBNAIL'],"['雙子', '十二星座', '愛情', '曖昧', '心情']",{'layout': 'classic'},星座,horoscopes,False,F,,,[],[],False,,False,classic,False,False,[],,34099,,,
0,233616945,金牛女在想什麼🤔,剛看了金牛女黑暗版，有了一個更深刻的了解，但我還是有些地方很納悶，比如說一開始說好就是互相陪伴，但是相處到後來幾乎跟情侶一樣了，接下來突然的冷淡，問她後他說他想一個人，太曖昧會讓她反彈，說知道我對他很,True,True,False,4c6964fc-8b39-4480-a844-847f09e4e09d,,2020-05-05T18:26:51.991Z,2020-05-05T18:26:51.991Z,3,2,False,['HIDE_THUMBNAIL'],"['金牛', '曖昧']",{'layout': 'classic'},星座,horoscopes,False,M,,,[],"[{'id': '286f599c-f86a-4932-82f0-f5a06f1eca03', 'count': 2}]",False,,False,classic,False,False,[],,34970,,,
0,233616915,雙子男的喜歡？,本人天秤女～認識一個雙子男大概快半年，是在工作場合認識的，其實之前就很想認識他覺得他很有吸引力，認識後開始聊天覺得他似乎是個很含蓄害羞的人，跟我所認知的雙子不大一樣，就連在朋友面前也是一副乖又溫柔的樣,True,True,False,4c6964fc-8b39-4480-a844-847f09e4e09d,,2020-05-05T18:18:35.750Z,2020-05-05T18:18:35.750Z,1,0,False,['HIDE_THUMBNAIL'],"['雙子', '天秤', '愛情']",{'layout': 'classic'},星座,horoscopes,False,F,,,[],[],False,,False,classic,False,False,[],,35467,,,
0,233616893,不知道發生什麼事的天秤座,我男友是天秤的，在一起快一年多了，已經有點像老夫老妻了之，其實有時候聊天也忽冷忽熱，但是最近突然常常搞失蹤找不到人或是跟我說他特別的忙，結果突然跟我說他對我沒感覺了不愛了，覺得讓我繼續跟他在一起很對不,True,True,False,4c6964fc-8b39-4480-a844-847f09e4e09d,,2020-05-05T18:14:27.376Z,2020-05-05T18:14:27.376Z,1,0,False,[],"['感情', '分手', '男友', '天秤座', '天蠍']",{'layout': 'classic'},星座,horoscopes,False,F,,,[],[],False,,False,classic,False,False,[],,35717,,,
0,233616875,天蠍女獅子男,最近板上真的好多都是天蠍女跟獅子男的問題喔，我一直以為這樣的組合很少，然後我想問天蠍女跟獅子男到底合嗎？,True,True,False,4c6964fc-8b39-4480-a844-847f09e4e09d,,2020-05-05T18:08:53.217Z,2020-05-05T18:08:53.217Z,2,2,False,['HIDE_THUMBNAIL'],"['獅子', '天蠍']",{'layout': 'classic'},星座,horoscopes,False,F,,,[],"[{'id': '286f599c-f86a-4932-82f0-f5a06f1eca03', 'count': 2}]",False,,False,classic,False,False,[],,36052,,,
0,233616799,處女座男生 分手一段時間了 還在乎我？,我們大概分了半年多了，分手是他提的，原因是他覺得我們如果沒有待在一起時的親密關係，興趣差太多 聊天也沒有話題。我們同校 不同系。分手後，他很長一段時間不看我的ig 限時。而我們那學期剛好有共同的通識課,True,True,False,4c6964fc-8b39-4480-a844-847f09e4e09d,,2020-05-05T17:54:53.590Z,2020-05-05T17:54:53.590Z,1,4,False,[],['處女座'],{'layout': 'classic'},星座,horoscopes,False,F,,,[],"[{'id': '286f599c-f86a-4932-82f0-f5a06f1eca03', 'count': 4}]",False,,False,classic,False,False,[],,36893,,,
0,233616523,雙子女請進,上上禮拜因為交友軟體認識了一個雙子女，相談甚歡後也加賴了，他會主動開話題 但感覺忽冷忽熱的，有時回很多 有時很少 有時秒回 有時很久才回（可能快半天），目前算是對她有好感，想請問雙子的女生，我該如何才,False,True,False,4c6964fc-8b39-4480-a844-847f09e4e09d,,2020-05-05T17:06:58.789Z,2020-05-05T17:06:58.789Z,9,4,False,['HIDE_THUMBNAIL'],"['雙子', '感情']",{'layout': 'classic'},星座,horoscopes,False,M,,,[],"[{'id': '286f599c-f86a-4932-82f0-f5a06f1eca03', 'count': 4}]",False,,False,classic,False,False,[],,39769,,國立臺灣大學,
0,233616496,射手座,射手女偶爾會秒讀秒回嗎，真的很懶得回訊息嗎,True,True,False,4c6964fc-8b39-4480-a844-847f09e4e09d,,2020-05-05T17:03:11.013Z,2020-05-05T17:03:11.013Z,20,3,False,['HIDE_THUMBNAIL'],['射手座'],{'layout': 'classic'},星座,horoscopes,False,F,,,[],"[{'id': '286f599c-f86a-4932-82f0-f5a06f1eca03', 'count': 3}]",False,,False,classic,False,False,[],,39998,,,
0,233616468,金牛男到底有沒有意思,我是蠍女，我本來就對公司一個牛牛同事有興趣，覺得是我的菜這樣，剛好有一個週末同事都來我家玩，大家喝酒玩國王遊戲弄到凌晨三點多才各自散，牛牛可能太累就被其他人叫上床睡覺，最後我家地板躺了兩三個，我跟牛牛,True,True,False,4c6964fc-8b39-4480-a844-847f09e4e09d,,2020-05-05T16:59:21.863Z,2020-05-05T16:59:21.863Z,3,4,False,['HIDE_THUMBNAIL'],"['金牛', '天蠍']",{'layout': 'classic'},星座,horoscopes,False,F,,,[],"[{'id': '286f599c-f86a-4932-82f0-f5a06f1eca03', 'count': 4}]",False,,False,classic,False,False,[],,40189,,,
0,233616443,魔女的考驗😈,大家晚上好～最近因為期中考搞的我心煩意亂，星座版一直是我的支柱呀，希望我的回饋也可以幫助版上困擾的你們，我自認為是比較活潑的魔女，可能是因為家庭環境吧，至少給朋友的感覺都是很正向的小太陽️（誤），簡介,False,True,False,4c6964fc-8b39-4480-a844-847f09e4e09d,,2020-05-05T16:55:50.753Z,2020-05-06T00:40:10.472Z,6,29,True,['HIDE_THUMBNAIL'],"['魔羯女', '魔羯', '摩羯女', '摩羯', '自我探索']",{'layout': 'classic'},星座,horoscopes,False,F,,,[],"[{'id': '286f599c-f86a-4932-82f0-f5a06f1eca03', 'count': 29}]",False,,False,classic,False,False,[],,40402,,縭,yukiyaya
0,233616356,教教我怎麼虐摩羯男,和摩羯曖昧已有2.3個月了，中間有和他沒聯絡1.2個星期，因為摩羯剛開始就是十分熱情  後面開始冷淡，我貼冷屁股幾次後  索性也不理他了，過了2週他自己回來找我了，回來找我後我能感覺到我們感情變得更好,True,True,False,4c6964fc-8b39-4480-a844-847f09e4e09d,,2020-05-05T16:44:52.064Z,2020-05-05T16:52:21.490Z,15,3,False,['HIDE_THUMBNAIL'],['摩羯'],{'layout': 'classic'},星座,horoscopes,False,F,,,[],"[{'id': '286f599c-f86a-4932-82f0-f5a06f1eca03', 'count': 3}]",False,,False,classic,False,False,[],,41062,,,
0,233616339,天蠍座男孩,想請問各位天蠍男孩 有女朋友會想公開嗎，還是低調不公開,True,True,False,4c6964fc-8b39-4480-a844-847f09e4e09d,,2020-05-05T16:42:14.751Z,2020-05-05T16:42:14.751Z,6,0,False,['HIDE_THUMBNAIL'],['天蠍座'],{'layout': 'classic'},星座,horoscopes,False,F,,,[],[],False,,False,classic,False,False,[],,41221,,,
0,233616318,獅子男突然不回ಥ_ಥ,如題 就是突然沒回了，想說他應該忙工作所以沒回，（因為之前有幾次1-2沒回都是工作忙），忙完回來也都會告訴我去忙什麼，之前回訊息的狀況都是秒回有忙工作才會晚一點回，也很確定他對我有好感，（他都直接說而,False,True,False,4c6964fc-8b39-4480-a844-847f09e4e09d,,2020-05-05T16:38:24.572Z,2020-05-05T16:38:24.572Z,4,5,False,[],"['獅子', '天蠍']",{'layout': 'classic'},星座,horoscopes,False,F,,,"[{'id': '4b17c7a4-5b95-4e9b-9b00-f7cacc2a46a3', 'url': 'https://i.imgur.com/SciSiNol.jpg', 'normalizedUrl': 'https://i.imgur.com/SciSiNol.jpg', 'thumbnail': 'https://i.imgur.com/SciSiNol.jpg', 'type': 'image/thumbnail', 'tags': ['ANNOTATED'], 'createdAt': '2020-05-05T16:38:24.572Z', 'updatedAt': '2020-05-05T16:38:24.572Z'}, {'id': '4b17c7a4-5b95-4e9b-9b00-f7cacc2a46a3', 'url': 'https://i.imgur.com/SciSiNo.jpg', 'normalizedUrl': 'https://imgur.com/SciSiNo', 'thumbnail': 'https://i.imgur.com/SciSiNol.jpg', 'type': 'image/imgur', 'tags': ['ANNOTATED'], 'createdAt': '2020-05-05T16:38:24.572Z', 'updatedAt': '2020-05-05T16:38:24.572Z'}]","[{'id': '286f599c-f86a-4932-82f0-f5a06f1eca03', 'count': 5}]",False,,False,classic,True,False,[{'url': 'https://i.imgur.com/SciSiNo.jpg'}],,41452,,嘉南藥理大學,
0,233616207,處女男到底是怎樣！,在網路上認識一個處女男 聊天快一個月，很正常的聊天但回覆都很慢 所以我也回很慢，聊天聊的很正常但是完全不曖昧，有時候我真的聊到要放棄就回覆得很句點，他自己又會開新話題或講自己生活發生的事，主要是我覺得,True,True,False,4c6964fc-8b39-4480-a844-847f09e4e09d,,2020-05-05T16:24:48.939Z,2020-05-05T16:24:48.939Z,4,7,False,['HIDE_THUMBNAIL'],['處女'],{'layout': 'classic'},星座,horoscopes,False,F,,,[],"[{'id': '286f599c-f86a-4932-82f0-f5a06f1eca03', 'count': 7}]",False,,False,classic,False,False,[],,42269,,,
0,233616202,天秤男到底在想什麼,他說如果他一旦交了女朋友，就不會主動提分手 因為他不想當壞人，所以決定權都是在女生身上，這樣意思是，就算他對那個女生沒感情了也不會說出來，而是用冷淡或疏遠來讓女方受不了自己提分手嗎🤨，不知道大家有沒,True,True,False,4c6964fc-8b39-4480-a844-847f09e4e09d,,2020-05-05T16:24:25.218Z,2020-05-05T16:24:25.218Z,5,0,False,['HIDE_THUMBNAIL'],"['感情', '天秤', '天秤男']",{'layout': 'classic'},星座,horoscopes,False,F,,,[],[],False,,False,classic,False,False,[],,42294,,,
0,233616192,有點想放棄忽冷忽熱的天秤男了⋯(文有點長),我們是在夜店認識的，我天蠍，我們幾乎每天都會保持聯絡，也會互相約出去。有次我跟他說我跟朋友去喝酒，他跟我說快點回來，他會來接我，還會一直念幹嘛要喝酒幹嘛不早點回來⋯還有一次我跟他說有店員跟我要賴，還叫,True,True,False,4c6964fc-8b39-4480-a844-847f09e4e09d,,2020-05-05T16:23:28.605Z,2020-05-05T16:23:28.605Z,2,1,False,['HIDE_THUMBNAIL'],"['天秤', '天蠍', '感情', '忽冷忽熱']",{'layout': 'classic'},星座,horoscopes,False,F,,,[],"[{'id': '286f599c-f86a-4932-82f0-f5a06f1eca03', 'count': 1}]",False,,False,classic,False,False,[],,42352,,,
0,233616119,想多認識的水瓶男,我是個天秤女，這學期因為一堂英文選修剛好跟水瓶男分在同組（共三人 ： 我、我室友、瓶男），開學前一兩個禮拜完全沒多留意他，因為在課堂上很常需要一組派一人分享發言，本來很懶得主動上台，又感覺水瓶男蠻想上,True,True,False,4c6964fc-8b39-4480-a844-847f09e4e09d,,2020-05-05T16:13:35.916Z,2020-05-05T16:13:35.916Z,2,4,False,[],"['水瓶', '天秤', '感情', '認識']",{'layout': 'classic'},星座,horoscopes,False,F,,,[],"[{'id': '286f599c-f86a-4932-82f0-f5a06f1eca03', 'count': 4}]",False,,False,classic,False,False,[],,42946,,,
0,233616072,巨蟹女感覺有點...可愛,最近認識一個巨蟹妹，他感覺很可愛，聊天也聊了快3個月，她常常說自己難過，我安慰她、逗她開心，他就說我是她的天使，上星期我送她一盒拼圖，她很開心的拿了，跟我說她看過一部電影「星空」，說男女主角是因拼圖熟,True,True,False,4c6964fc-8b39-4480-a844-847f09e4e09d,,2020-05-05T16:07:36.011Z,2020-05-05T16:07:36.011Z,5,1,False,['HIDE_THUMBNAIL'],"['巨蟹', '天蠍']",{'layout': 'classic'},星座,horoscopes,False,F,,,[],"[{'id': '286f599c-f86a-4932-82f0-f5a06f1eca03', 'count': 1}]",False,,False,classic,False,False,[],,43307,,,
0,233616055,致 同是🐮的你,這標題 … 是否有點熟悉，你 … 最近還好嗎 ？然後 ～ 生日快樂,True,True,False,4c6964fc-8b39-4480-a844-847f09e4e09d,,2020-05-05T16:06:07.344Z,2020-05-05T16:17:36.797Z,3,8,False,[],['金牛'],{'layout': 'classic'},星座,horoscopes,False,F,,,[],"[{'id': '286f599c-f86a-4932-82f0-f5a06f1eca03', 'count': 8}]",False,,False,classic,False,False,[],,43397,,,
0,233616038,巨蟹女請進～文長的故事,我是金牛男，經營小攤販，故事是這樣開始的，她第一次來買，之後連續來買三天，當時我都低頭在忙，是我弟在招呼客人，後來我弟就跟我說有一個女生很漂亮，已經連買三天了，都買一樣的，我不以為意，心想應該是我的東,True,True,False,4c6964fc-8b39-4480-a844-847f09e4e09d,,2020-05-05T16:04:09.519Z,2020-05-05T16:15:33.412Z,2,1,False,['HIDE_THUMBNAIL'],['巨蟹女'],{'layout': 'classic'},星座,horoscopes,False,M,,,[],"[{'id': '286f599c-f86a-4932-82f0-f5a06f1eca03', 'count': 1}]",False,,False,classic,False,False,[],,43516,,,
0,233615773,雙魚若即若離?,認識一隻雙魚大大，大概有半年以上了，常常會在賴上聊天，原本是都聊好好的，但發現有時很熱絡，有時又變的很冷漠，不知道發生什麼事，突然氣氛就變這樣，可能過幾天又好了，就是會感覺怪怪的🤔，不知道該如何是好,True,True,False,4c6964fc-8b39-4480-a844-847f09e4e09d,,2020-05-05T15:33:37.728Z,2020-05-05T15:36:43.528Z,4,3,False,[],['雙魚'],{'layout': 'classic'},星座,horoscopes,False,F,,,[],"[{'id': '286f599c-f86a-4932-82f0-f5a06f1eca03', 'count': 3}]",False,,False,classic,False,False,[],,45349,,,
0,233615664,不知道魔羯是怎麼想的😔,想請問一下各位魔羯大大，如果魔羯說，「其實我不值得你這樣對我的，也很慶幸你沒有破費買禮物給我，總之謝謝」那我要怎麼辦？他心裡是怎麼想的？求解各位魔羯了,True,True,False,4c6964fc-8b39-4480-a844-847f09e4e09d,,2020-05-05T15:18:40.969Z,2020-05-05T15:18:40.969Z,3,4,False,[],['魔羯'],{'layout': 'classic'},星座,horoscopes,False,F,,,[],"[{'id': '286f599c-f86a-4932-82f0-f5a06f1eca03', 'count': 4}]",False,,False,classic,False,False,[],,46247,,,
0,233615467,請各位雙子女大大求解,事情是這樣的，我跟一個雙子座女生曖昧一陣子了，我也告白過也有提出交往過，她覺得少了一種感覺就是少了一種衝動，我們幾乎也很常出去，出去也有牽手抱抱之類，最近我們不小心發生了關係，然後前天我開錯話題聊到性,True,True,False,4c6964fc-8b39-4480-a844-847f09e4e09d,,2020-05-05T14:53:54.150Z,2020-05-05T14:58:11.842Z,10,1,False,['HIDE_THUMBNAIL'],"['雙子女', '雙子座', '曖昧']",{'layout': 'classic'},星座,horoscopes,False,M,,,[],"[{'id': '286f599c-f86a-4932-82f0-f5a06f1eca03', 'count': 1}]",False,,False,classic,False,False,[],,47735,,,
0,233615445,關於星座書籍,想要詢問各位有推薦關於星座的書籍嗎？因為我媽很愛看星座跟命理類的文章想說母親節送相關的書籍給她，希望有在研究星座的朋友能夠推薦一下,True,True,False,4c6964fc-8b39-4480-a844-847f09e4e09d,,2020-05-05T14:51:27.536Z,2020-05-05T14:52:00.265Z,0,0,False,['HIDE_THUMBNAIL'],"['星座', '母親節']",{'layout': 'classic'},星座,horoscopes,False,F,,,[],[],False,,False,classic,False,False,[],,47883,,,
0,233615414,處女座的朋友,我有一個高中時期交情很不錯的朋友，我知道上大學跟她關係沒那麼好了，因為都有自己的朋友圈（可以理解），但彼此偶爾還是會關心什麼的，就是互相都還有地位在對方身上，我想請問一件事情，發生在我這陣子觀察的事情,True,True,False,4c6964fc-8b39-4480-a844-847f09e4e09d,,2020-05-05T14:46:01.665Z,2020-05-05T14:46:44.037Z,5,0,False,['HIDE_THUMBNAIL'],['星座'],{'layout': 'classic'},星座,horoscopes,False,F,,,[],[],False,,False,classic,False,False,[],,48211,,,
0,233615381,處女男求解,自己是牡羊女，男友是處女男，這幾個禮拜男友突然很愛打遊戲，然後日夜顛倒，跟我的作息幾乎相反（我在睡覺的時候他在打遊戲，我醒著的時候他在睡覺），我反應過很多次我想要他多一點時間陪我，他說他會改，儘量多一,True,True,False,4c6964fc-8b39-4480-a844-847f09e4e09d,,2020-05-05T14:41:37.910Z,2020-05-05T14:49:23.108Z,9,4,False,['HIDE_THUMBNAIL'],"['處女', '處女男']",{'layout': 'classic'},星座,horoscopes,False,F,,,[],"[{'id': '286f599c-f86a-4932-82f0-f5a06f1eca03', 'count': 4}]",False,,False,classic,False,False,[],,48476,,,
0,233615367,想衝一波！,跟獅子男認識了一段時間，也有一些些曖昧，他都會主動跟我報備行程，會要我叫他起床，他有時候回話都會忽冷忽熱，但他都說他喜歡回答簡單有力，但有時候我對他有點冷漠 他又會變得很熱情，如果他沒辦法送我回家 他,True,True,False,4c6964fc-8b39-4480-a844-847f09e4e09d,,2020-05-05T14:38:59.835Z,2020-05-05T14:38:59.835Z,6,11,False,['HIDE_THUMBNAIL'],"['天蠍', '獅子']",{'layout': 'classic'},星座,horoscopes,False,F,,,[],"[{'id': '286f599c-f86a-4932-82f0-f5a06f1eca03', 'count': 11}]",False,,False,classic,False,False,[],,48635,,,
0,233615366,關於巨蟹的困擾,本人巨蟹，對於巨蟹座的多愁善感的個性有一些困擾，有時候很想專心做事，但是專心做事到一半的時候，就會想到生活上的各種事情，開始演小劇場，或是到了晚上心情會不好，（巨蟹們應該懂這個點吧？），不知道巨蟹們都,True,True,False,4c6964fc-8b39-4480-a844-847f09e4e09d,,2020-05-05T14:38:54.604Z,2020-05-05T14:38:54.604Z,4,13,False,[],['巨蟹'],{'layout': 'classic'},星座,horoscopes,False,M,,,[],"[{'id': '286f599c-f86a-4932-82f0-f5a06f1eca03', 'count': 13}]",False,,False,classic,False,False,[],,48642,,,
0,233615351,獅子錯了嗎,獅子座很可愛的啊，又不咬人，為什麼要離開啦QAQQ,True,True,False,4c6964fc-8b39-4480-a844-847f09e4e09d,,2020-05-05T14:35:48.676Z,2020-05-05T14:35:48.676Z,5,11,False,[],"['獅子', '交友軟體']",{'layout': 'classic'},星座,horoscopes,False,F,,,"[{'id': '00bc404f-c263-40dd-b57e-af763b516784', 'url': 'https://i.imgur.com/tNbVjA4l.jpg', 'normalizedUrl': 'https://i.imgur.com/tNbVjA4l.jpg', 'thumbnail': 'https://i.imgur.com/tNbVjA4l.jpg', 'type': 'image/thumbnail', 'tags': ['ANNOTATED'], 'createdAt': '2020-05-05T14:35:48.676Z', 'updatedAt': '2020-05-05T14:35:48.676Z'}, {'id': '00bc404f-c263-40dd-b57e-af763b516784', 'url': 'https://i.imgur.com/tNbVjA4.jpg', 'normalizedUrl': 'https://imgur.com/tNbVjA4', 'thumbnail': 'https://i.imgur.com/tNbVjA4l.jpg', 'type': 'image/imgur', 'tags': ['ANNOTATED'], 'createdAt': '2020-05-05T14:35:48.676Z', 'updatedAt': '2020-05-05T14:35:48.676Z'}]","[{'id': '286f599c-f86a-4932-82f0-f5a06f1eca03', 'count': 11}]",False,,False,classic,True,False,[{'url': 'https://i.imgur.com/tNbVjA4.jpg'}],,48829,,,
0,233615322,什麼叫愛,金牛男友送我一台switch主機。看他卡刷下去那刻，我感受到金牛的愛QQ，以上純粹開玩笑，只是看到，平常超節儉的金牛男友在我身上花這麼多錢，感動到爆嗚嗚嗚嗚，（啊我也有送他等價的東西 花錢買開心 送啦,True,True,False,4c6964fc-8b39-4480-a844-847f09e4e09d,,2020-05-05T14:32:12.417Z,2020-05-05T14:33:28.595Z,7,7,False,[],"['金牛', 'Switch', '射手']",{'layout': 'classic'},星座,horoscopes,False,F,,,[],"[{'id': '286f599c-f86a-4932-82f0-f5a06f1eca03', 'count': 7}]",False,,False,classic,False,False,[],,49047,,,
0,233615315,摩羯男 怎樣才算是曖昧,我的天  已經跟摩羯男穩聊了三個月，雖然內容沒有什麼曖昧字眼 但真的能感受到他對我的不同，到底要什麼程度 才能更進一步 還是我現在完全被當成朋友在聊。好 想 知 道 啊！！！！！！！，會因為我不想掛電,True,True,False,4c6964fc-8b39-4480-a844-847f09e4e09d,,2020-05-05T14:31:44.459Z,2020-05-05T14:31:44.459Z,7,7,False,['HIDE_THUMBNAIL'],"['摩羯', '曖昧']",{'layout': 'classic'},星座,horoscopes,False,F,,,[],"[{'id': '286f599c-f86a-4932-82f0-f5a06f1eca03', 'count': 7}]",False,,False,classic,False,False,[],,49076,,,
0,233614847,天秤男 點我點我,跟天秤男在一起一段時間了 ，已經見過彼此家長.，他卻不想那麼快去跟身邊的朋友說他交女朋友的事⋯，可以請問為什麼嗎⋯？,True,True,False,4c6964fc-8b39-4480-a844-847f09e4e09d,,2020-05-05T13:37:43.293Z,2020-05-05T13:37:43.293Z,5,0,False,['HIDE_THUMBNAIL'],"['天秤', '處女', '星座']",{'layout': 'classic'},星座,horoscopes,False,F,,,[],[],False,,False,classic,False,False,[],,52318,,,
0,233614836,星座版的各位請進,,True,True,False,4c6964fc-8b39-4480-a844-847f09e4e09d,233614822,2020-05-05T13:36:07.077Z,2020-05-05T13:36:07.077Z,8,0,False,[],['公主抱'],{'crossPostId': 233614822},星座,horoscopes,False,F,感情版的各位請進,,[],[],False,,False,classic,False,False,[],,52416,,,
0,233614791,處女男請幫我,如果處女男冷掉 重新追他會很難嗎....，不知道冷掉的原因 可能是不愛了 或是 我跟一個異性gay很好 跟姐妹一樣 他可能不想理我了（哭，一天回一次是不是沒機會了啊.......，但是不想放棄....,True,True,False,4c6964fc-8b39-4480-a844-847f09e4e09d,,2020-05-05T13:30:16.714Z,2020-05-05T13:30:16.714Z,11,4,False,['HIDE_THUMBNAIL'],"['處女', '感情', '十二星座', '愛情']",{'layout': 'classic'},星座,horoscopes,False,F,,,[],"[{'id': '286f599c-f86a-4932-82f0-f5a06f1eca03', 'count': 4}]",False,,False,classic,False,False,[],,52768,,,
0,233614673,處女女遠距離淡了,確定沒被綠帽也沒有分手，兩人也都想修復關係，但不知道是不是我想太多，我知道她這學期比較忙，但也都會跟我報備行程，而她從以前就喜歡看電影，她們房東幫她們接了MOD，現在晚上都跟室友一起看個一部後才會找我,True,True,False,4c6964fc-8b39-4480-a844-847f09e4e09d,,2020-05-05T13:12:06.498Z,2020-05-05T13:12:06.498Z,19,1,False,[],['處女'],{'layout': 'classic'},星座,horoscopes,False,M,,,[],"[{'id': '286f599c-f86a-4932-82f0-f5a06f1eca03', 'count': 1}]",False,,False,classic,False,False,[],,53859,,,
0,233614577,為何會選擇摩羯男當男友,我自己是大家說忠厚老實25年沒談戀愛.想知道喜歡摩羯男的原因是甚麼.因為忠厚老實好像吸引不到女生,True,True,False,4c6964fc-8b39-4480-a844-847f09e4e09d,,2020-05-05T12:59:25.210Z,2020-05-05T12:59:25.210Z,5,7,False,['HIDE_THUMBNAIL'],['摩羯'],{'layout': 'classic'},星座,horoscopes,False,M,,,[],"[{'id': '286f599c-f86a-4932-82f0-f5a06f1eca03', 'count': 7}]",False,,False,classic,False,False,[],,54622,,,
0,233614574,好想知道蟹男到底在想什麼ಥ_ಥ,我是獅子🦁️，我跟男友是在交友軟體上認識的，聊了一個月後約了第一次見面，再出去第二次的時候在一起的，我們是遠距離，我在北部唸書他在中部，但我們都是北部人。滿一個月的時候男友告訴我他覺得他好像沒有這麼,True,True,False,4c6964fc-8b39-4480-a844-847f09e4e09d,,2020-05-05T12:59:12.035Z,2020-05-05T12:59:12.035Z,2,2,False,['HIDE_THUMBNAIL'],"['巨蟹', '獅子', '男友']",{'layout': 'classic'},星座,horoscopes,False,F,,,[],"[{'id': '286f599c-f86a-4932-82f0-f5a06f1eca03', 'count': 2}]",False,,False,classic,False,False,[],,54636,,,
0,233614492,請問天秤跟朋友的相處模式?,如題，我跟這位天秤女是同事，也是私底下會聯絡的朋友（line、ig都會），但我們聊的話題有點固定（幾乎都是美食或戲劇、綜藝那一類），有時候會聊的蠻熱絡（訊息或當面聊都有過），但冷的時候也是蠻冷的，主要,False,True,False,4c6964fc-8b39-4480-a844-847f09e4e09d,,2020-05-05T12:46:53.754Z,2020-05-05T15:13:47.924Z,2,2,True,[],"['天秤女', '天秤', '心情', '星座']",{'layout': 'classic'},星座,horoscopes,False,M,,,[],"[{'id': '286f599c-f86a-4932-82f0-f5a06f1eca03', 'count': 2}]",False,,False,classic,False,False,[],,55376,,kbforever,jaslee
0,233614365,巨蟹男嫌我煩？,我先說，我是一位天蠍女孩，什麼事情重要，都沒有你來的重要，不管發生什麼大事，你就是我的大事，其實，我很忙，但是只要一能抽身，我一定立刻回覆訊息，其實，我很忙，但是我不想讓我在乎的你，等太久我的訊息，也,True,True,False,4c6964fc-8b39-4480-a844-847f09e4e09d,,2020-05-05T12:28:25.913Z,2020-05-05T12:28:25.913Z,12,4,False,['HIDE_THUMBNAIL'],"['天蠍女', '巨蟹男']",{'layout': 'classic'},星座,horoscopes,False,F,,,[],"[{'id': '286f599c-f86a-4932-82f0-f5a06f1eca03', 'count': 4}]",False,,False,classic,False,False,[],,56445,,,
0,233614352,瓶眷瓶男請進,剛和瓶男在一起不到一個月（隔壁縣市的距離），他曾說過自己很黏 而我則是屬於不怎麼黏的（佛系回覆型），剛交往時常問我會不會覺得他太黏，我只說希望他用自己覺得最舒服的方式和我相處就好，也就是說不嫌他黏（這,True,True,False,4c6964fc-8b39-4480-a844-847f09e4e09d,,2020-05-05T12:26:01.217Z,2020-05-05T12:26:01.217Z,3,4,False,['HIDE_THUMBNAIL'],"['水瓶男', '獅子女', '交往前後']",{'layout': 'classic'},星座,horoscopes,False,F,,,[],"[{'id': '286f599c-f86a-4932-82f0-f5a06f1eca03', 'count': 4}]",False,,False,classic,False,False,[],,56631,,,
0,233614316,處女女！,本魯最近喜歡一個處女女，因緣際會下認識的。認識的第二個禮拜有約單獨她吃飯，她有答應，當天還去了夜景。想問一下各位這樣目前看來是有機會嗎？晚上都會line她，每天聊大概一陣子她就會已讀，然後隔天再次主動,True,True,False,4c6964fc-8b39-4480-a844-847f09e4e09d,,2020-05-05T12:18:51.369Z,2020-05-05T12:19:44.550Z,7,2,False,['HIDE_THUMBNAIL'],"['處女', '魔羯']",{'layout': 'classic'},星座,horoscopes,False,M,,,[],"[{'id': '286f599c-f86a-4932-82f0-f5a06f1eca03', 'count': 2}]",False,,False,classic,False,False,[],,57062,,,
0,233614281,塔羅-近期你會被表白嗎？,似乎現在越來越多的人，都不喜歡在戀愛中主動，更願意做一個被表白的人來接受愛情。畢竟誰主動就意味著在愛情當中其實低了一頭，很多人都不喜歡做這個主動低頭的人，所以對待愛情都是很被動狀態，有的人呢，則是非常,True,True,False,4c6964fc-8b39-4480-a844-847f09e4e09d,,2020-05-05T12:13:38.512Z,2020-05-05T12:13:38.512Z,651,349,False,[],"['塔羅', '天蠍', '處女', '水瓶', '巨蟹']",{'layout': 'classic'},星座,horoscopes,False,F,,,"[{'id': '9eb1b48c-1e62-4e8b-beb8-4dc532bba68c', 'url': 'https://i.imgur.com/4yPUNU3l.jpg', 'normalizedUrl': 'https://i.imgur.com/4yPUNU3l.jpg', 'thumbnail': 'https://i.imgur.com/4yPUNU3l.jpg', 'type': 'image/thumbnail', 'tags': ['ANNOTATED'], 'createdAt': '2020-05-05T12:13:38.512Z', 'updatedAt': '2020-05-05T12:13:38.512Z'}, {'id': '9eb1b48c-1e62-4e8b-beb8-4dc532bba68c', 'url': 'https://i.imgur.com/4yPUNU3.png', 'normalizedUrl': 'https://imgur.com/4yPUNU3', 'thumbnail': 'https://i.imgur.com/4yPUNU3l.jpg', 'type': 'image/imgur', 'tags': ['ANNOTATED'], 'createdAt': '2020-05-05T12:13:38.512Z', 'updatedAt': '2020-05-05T12:13:38.512Z'}]","[{'id': '286f599c-f86a-4932-82f0-f5a06f1eca03', 'count': 349}]",False,,False,classic,True,False,[{'url': 'https://i.imgur.com/4yPUNU3.png'}],,57376,,,
0,233614137,該約獅子女嗎,哈囉大家，我目前是持續上一篇的狀態跟獅子女聊天，我想，這禮拜剛好回老家，今晚該不該衝一下約她假日看看？主要是給我意見有沒有機會成功？（看是聊一個月會不會太短？要再久一點？還是我長太醜先不要約？之類的意,True,True,False,4c6964fc-8b39-4480-a844-847f09e4e09d,233563134,2020-05-05T11:57:22.045Z,2020-05-05T11:59:48.401Z,5,2,False,['HIDE_THUMBNAIL'],"['獅子', '十二星座', '感情']",{'layout': 'classic'},星座,horoscopes,False,M,關於獅子女🦁️,,[],"[{'id': '286f599c-f86a-4932-82f0-f5a06f1eca03', 'count': 2}]",False,,False,classic,False,False,[],,58353,,,
0,233614069,求解射手男qq,射手男不愛了或者是出軌了會有什麼徵兆？,True,True,False,4c6964fc-8b39-4480-a844-847f09e4e09d,,2020-05-05T11:43:17.980Z,2020-05-05T11:43:17.980Z,15,1,False,[],"['射手', '十二星座']",{'layout': 'classic'},星座,horoscopes,False,F,,,[],"[{'id': '286f599c-f86a-4932-82f0-f5a06f1eca03', 'count': 1}]",False,,False,classic,False,False,[],,59198,,,
0,233614004,🦀️又煮開的感覺😛,就是最近他都一直欺負我然後問他他會說是因為看我可愛才欺負我～也怕我因為一些小事不開心跑來問我會不會問我，最近嘴巴上說不想的事情最後都還是行動了起來，偶爾還會跟我說要不要去他家  但又嫌他家太亂不讓我去,True,True,False,4c6964fc-8b39-4480-a844-847f09e4e09d,233494753,2020-05-05T11:29:34.459Z,2020-05-05T11:29:34.459Z,0,7,False,[],"['巨蟹', '雙魚', '曖昧', '愛情', '十二星座']",{'layout': 'classic'},星座,horoscopes,False,F,雙魚女和巨蟹男的曖昧,,[],"[{'id': '286f599c-f86a-4932-82f0-f5a06f1eca03', 'count': 7}]",False,,False,classic,False,False,[],,60023,,,
0,233613925,巨蟹座男生多久會消氣？,剛剛跟男友講電話講到一半他突然把電話掛斷，我回撥他都一直掛掉也不回訊息，擔心他發生什麼事時我大概撥了4.5通電話給他，然後他接起來就很生氣，他說他掛電話前有跟我說他要先掛但我訊號不好沒聽到他跟我說要先,True,True,False,4c6964fc-8b39-4480-a844-847f09e4e09d,,2020-05-05T11:17:12.298Z,2020-05-05T11:17:12.298Z,14,2,False,['HIDE_THUMBNAIL'],['巨蟹座'],{'layout': 'classic'},星座,horoscopes,False,F,,,[],"[{'id': '286f599c-f86a-4932-82f0-f5a06f1eca03', 'count': 2}]",False,,False,classic,False,False,[],,60767,,,
0,233613917,金牛座男生好難聊,有認識一個金牛座的男生，他工作很忙忙完才能回訊息，我知道他的工作是什麼真的是很忙，但目前不太敢太直接怕會嚇到他，都只跟他聊工作的事，偶爾問一下他的行程，他有時候會已讀訊息，因為我隔一段時間會在丟貼圖，,True,True,False,4c6964fc-8b39-4480-a844-847f09e4e09d,,2020-05-05T11:16:03.863Z,2020-05-05T11:16:03.863Z,13,13,False,['HIDE_THUMBNAIL'],"['金牛座', '男生', '雙魚']",{'layout': 'classic'},星座,horoscopes,False,F,,,[],"[{'id': '286f599c-f86a-4932-82f0-f5a06f1eca03', 'count': 13}]",False,,False,classic,False,False,[],,60836,,,
0,233613875,牡羊女請進😢,我認識一個牡羊女最近對我都很冷落 不像以前總是報備自己在幹嘛或者秒回那些也會到我上班的地方來看我 剛開始我可能覺得把我當好朋友那種 其實我蠻木頭的..最近這樣我才發現原來自己越來越在意他 好像喜歡上他,True,True,False,4c6964fc-8b39-4480-a844-847f09e4e09d,,2020-05-05T11:09:16.105Z,2020-05-05T11:09:16.105Z,3,3,False,['HIDE_THUMBNAIL'],"['牡羊女', '獅子']",{'layout': 'classic'},星座,horoscopes,False,M,,,[],"[{'id': '286f599c-f86a-4932-82f0-f5a06f1eca03', 'count': 3}]",False,,False,classic,False,False,[],,61245,,,
0,233613790,被天蠍男虐,我是一個巨蟹女，一開始對蠍男沒什麼感覺，但因為防守不佳，就被撩到了，撩到後整個攻守交換，我本來是被對方等訊息的那個人，結果變成 苦苦等待的那個人，真的很不是我的作風，我們有聊開 應該算是有喜歡  但不,True,True,False,4c6964fc-8b39-4480-a844-847f09e4e09d,,2020-05-05T10:58:42.504Z,2020-05-05T12:01:28.619Z,8,5,False,['HIDE_THUMBNAIL'],"['天蠍', '巨蟹']",{'layout': 'classic'},星座,horoscopes,False,F,,,[],"[{'id': '286f599c-f86a-4932-82f0-f5a06f1eca03', 'count': 5}]",False,,False,classic,False,False,[],,61880,,,
0,233613538,雙子男說這句話是什麼意思,跟雙男交往同居中，在某一次晚上的對談他對我說：「入的了生活，但入不了心」請問這是什麼意思？？？他說只要我還在他身邊的每一天他都會喜歡我、對我好但後面又補了這句？？,True,True,False,4c6964fc-8b39-4480-a844-847f09e4e09d,,2020-05-05T10:12:00.923Z,2020-05-05T10:12:00.923Z,5,6,False,['HIDE_THUMBNAIL'],['雙子'],{'layout': 'classic'},星座,horoscopes,False,F,,,[],"[{'id': '286f599c-f86a-4932-82f0-f5a06f1eca03', 'count': 6}]",False,,False,classic,False,False,[],,64683,,,
0,233613495,與魔羯男友如何維持感情,與魔男交往一個月了，一些原因也見過對方的父母 （對方媽媽提的），一直有點擔心如果開始進入穩定期後怎麼維繫感情，平時一週見面有三四次，彼此不太習慣用messenger聊天，（因為能見面就懶得用訊息了，之,True,True,False,4c6964fc-8b39-4480-a844-847f09e4e09d,,2020-05-05T10:06:00.786Z,2020-05-05T10:06:42.683Z,2,1,False,[],"['魔羯', '男友', '星座', '心情']",{'layout': 'classic'},星座,horoscopes,False,F,,,[],"[{'id': '286f599c-f86a-4932-82f0-f5a06f1eca03', 'count': 1}]",False,,False,classic,False,False,[],,65044,,,
0,233613463,請各位雙子女幫忙 🙇‍♂️,想問 在追的雙子女好像最近考差了 心情不好，然後她的閨蜜1跑來密我 叫我去安慰她，閑聊一下後閨蜜1 直接直球問我是不是在追雙子女，我回對啊 你們應該知道吧，閨蜜1說 感覺的出來  但雙子女沒這想法，叫,True,True,False,4c6964fc-8b39-4480-a844-847f09e4e09d,,2020-05-05T10:00:22.946Z,2020-05-05T10:00:22.946Z,3,2,False,[],"['雙子女', '星座', '感情']",{'layout': 'classic'},星座,horoscopes,False,M,,,[],"[{'id': '286f599c-f86a-4932-82f0-f5a06f1eca03', 'count': 2}]",False,,False,classic,False,False,[],,65383,,,
0,233613459,求問牡羊男,和牡羊男聊了3個月後第一次出門看電影了，除了牡羊男以外還有他朋友（不過是我有聊過天的 他們知道我是誰，但是事後我才發現他朋友對電影根本沒興趣，然後中間感覺他朋友在助攻幫忙，例如說要我們甜甜蜜蜜的去搭車,True,True,False,4c6964fc-8b39-4480-a844-847f09e4e09d,,2020-05-05T09:59:05.148Z,2020-05-05T09:59:05.148Z,2,2,False,['HIDE_THUMBNAIL'],"['牡羊', '白羊']",{'layout': 'classic'},星座,horoscopes,False,F,,,[],"[{'id': '286f599c-f86a-4932-82f0-f5a06f1eca03', 'count': 2}]",False,,False,classic,False,False,[],,65462,,,
0,233613018,轉貼 結婚就是要找這種 這可信度高嗎？,看到第二名，還要相信這星座排名嗎？,True,True,False,4c6964fc-8b39-4480-a844-847f09e4e09d,,2020-05-05T08:47:36.578Z,2020-05-05T09:27:21.472Z,3,12,False,[],"['星座', '羅志祥', '獅子座']",{'layout': 'classic'},星座,horoscopes,False,F,,,"[{'id': '669f6f86-f532-4bb2-a220-6fbd32e2027a', 'url': 'https://megapx-assets.dcard.tw/images/0538250a-d667-44cc-9dfc-92a59a9f6777/160.jpeg', 'normalizedUrl': 'https://megapx-assets.dcard.tw/images/0538250a-d667-44cc-9dfc-92a59a9f6777/160.jpeg', 'thumbnail': 'https://megapx-assets.dcard.tw/images/0538250a-d667-44cc-9dfc-92a59a9f6777/160.jpeg', 'type': 'image/thumbnail', 'tags': ['ANNOTATED'], 'createdAt': '2020-05-05T08:47:36.578Z', 'updatedAt': '2020-05-05T09:27:21.472Z', 'width': 160, 'height': 99}, {'id': '669f6f86-f532-4bb2-a220-6fbd32e2027a', 'url': 'https://megapx-assets.dcard.tw/images/0538250a-d667-44cc-9dfc-92a59a9f6777/640.jpeg', 'normalizedUrl': 'https://megapx.dcard.tw/v1/images/0538250a-d667-44cc-9dfc-92a59a9f6777', 'thumbnail': 'https://megapx-assets.dcard.tw/images/0538250a-d667-44cc-9dfc-92a59a9f6777/160.jpeg', 'type': 'image/megapx', 'tags': ['ANNOTATED'], 'createdAt': '2020-05-05T08:47:36.578Z', 'updatedAt': '2020-05-05T09:27:21.472Z', 'width': 1203, 'height': 743}]","[{'id': '286f599c-f86a-4932-82f0-f5a06f1eca03', 'count': 10}, {'id': 'e8e6bc5d-41b0-4129-b134-97507523d7ff', 'count': 2}]",False,,False,classic,True,False,[{'url': 'https://megapx-assets.dcard.tw/images/0538250a-d667-44cc-9dfc-92a59a9f6777/640.jpeg'}],,69752,,,
0,233612913,射手男⋯又氣又好笑,最近在網路上認識一個射手男，但因為疫情關係還不能見面，而且我們在不同國家，但不遠。請問～射手男一直跟我鬥嘴，互嗆的那種，給我一堆綽號，但後面又會解釋說，男生每天講一個女生胖代表是假的開玩笑的，但如果只,True,True,False,4c6964fc-8b39-4480-a844-847f09e4e09d,,2020-05-05T08:30:57.520Z,2020-05-05T08:36:10.730Z,4,2,False,['HIDE_THUMBNAIL'],"['射手', '十二星座', '感情', '星座', '白羊']",{'layout': 'classic'},星座,horoscopes,False,F,,,[],"[{'id': '286f599c-f86a-4932-82f0-f5a06f1eca03', 'count': 2}]",False,,False,classic,False,False,[],,70752,,,
0,233612658,請問獅子女,獅子女會在有好感的人面前說其他男生很帥嗎，有沒有什麼舉動是可以判斷他是否對我有好感，跟她是算很熟的朋友,True,True,False,4c6964fc-8b39-4480-a844-847f09e4e09d,,2020-05-05T07:50:34.060Z,2020-05-05T07:50:34.060Z,19,7,False,[],"['獅子', '獅子女']",{'layout': 'classic'},星座,horoscopes,False,M,,,[],"[{'id': '286f599c-f86a-4932-82f0-f5a06f1eca03', 'count': 7}]",False,,False,classic,False,False,[],,73177,,,
0,233612278,牡羊男請進,踩到牡羊男的雷，做了很不成熟的事，現在不讀不回訊息，我有誠心道歉..，只是不讀訊息也不知道該怎麼做...，可以請問我現在該怎麼辦？再多說什麼是不是會造成反效果？,True,True,False,4c6964fc-8b39-4480-a844-847f09e4e09d,,2020-05-05T06:45:01.464Z,2020-05-05T06:45:01.464Z,6,0,False,['HIDE_THUMBNAIL'],['牡羊'],{'layout': 'classic'},星座,horoscopes,False,F,,,[],[],False,,False,classic,False,False,[],,77111,,,
0,233612233,心測-你的五月桃花運如何？,五月天是戀愛天，這個季節沒有春天的陰雨連綿，又沒有夏日的熱浪襲人，天朗氣清，最適合戀愛了。不知道你的桃花運，戀愛運在這個月會怎麼樣，不妨來測一下吧。1、你隱隱地覺得自己的真愛會來得比較晚？是的——轉2,True,True,False,4c6964fc-8b39-4480-a844-847f09e4e09d,,2020-05-05T06:34:57.595Z,2020-05-05T06:34:57.595Z,3,79,False,[],"['心理測驗', '感情', '愛情', '戀愛', '曖昧']",{'layout': 'classic'},星座,horoscopes,False,F,,,[],"[{'id': '286f599c-f86a-4932-82f0-f5a06f1eca03', 'count': 77}, {'id': 'e8e6bc5d-41b0-4129-b134-97507523d7ff', 'count': 2}]",False,,False,classic,False,False,[],,77716,,,
0,233611957,求問處女座男生對我有沒有興趣⋯,拜託各位星座大神解答，一開始跟處女男完全不認識但我們之間有很多共同朋友，是共同朋友有一天突然跟我說處女男想認識我，然後前幾天唱歌就有見到面，但也沒有講到話⋯回家之後也沒有追蹤我或加我好友，那他到底是對,True,True,False,4c6964fc-8b39-4480-a844-847f09e4e09d,,2020-05-05T05:44:37.082Z,2020-05-05T05:54:07.492Z,8,6,False,['HIDE_THUMBNAIL'],"['處女座', '男生', '處女']",{'layout': 'classic'},星座,horoscopes,False,F,,,[],"[{'id': '286f599c-f86a-4932-82f0-f5a06f1eca03', 'count': 6}]",False,,False,classic,False,False,[],,80737,,,
0,233611940,⚠️求解！是我不了解水瓶男嗎？😭😭,天阿居然茫然到不知道該怎麼開頭，現在的心就像是缺了一大塊...，一開始認識這個水瓶男實在是一個偶然的狀況下，那時候的我才剛結束完一段戀情，只是想認識一個可以聊天的對象而已，結果就遇到了這個很白癡很愛跳,True,True,False,4c6964fc-8b39-4480-a844-847f09e4e09d,,2020-05-05T05:41:59.209Z,2020-05-06T03:40:01.077Z,8,9,False,['HIDE_THUMBNAIL'],"['水瓶', '水瓶男', '牡羊', '挽回']",{'layout': 'classic'},星座,horoscopes,False,F,,,[],"[{'id': '286f599c-f86a-4932-82f0-f5a06f1eca03', 'count': 9}]",False,,False,classic,False,False,[],,80896,,,
0,233611871,處女女心態,2~3個月前我曾經很幸運的得到一位處女的喜歡，  那時的她都會主動的跟我打招呼， 甚至有時會像報備的方式說下她要做什麼事， 我也都是被動的回應她的招呼， 偶而有幾次忙到時間隔太久就沒回應， 還有做一些,True,True,False,4c6964fc-8b39-4480-a844-847f09e4e09d,,2020-05-05T05:29:24.214Z,2020-05-05T05:29:24.214Z,9,1,False,[],['處女'],{'layout': 'classic'},星座,horoscopes,False,M,,,[],"[{'id': '286f599c-f86a-4932-82f0-f5a06f1eca03', 'count': 1}]",False,,False,classic,False,False,[],,81653,,,
0,233611778,水瓶！！,自己是水瓶～也跟瓶男在一起，如果有水瓶的問題可以問！！會儘量幫大家解答！,True,True,False,4c6964fc-8b39-4480-a844-847f09e4e09d,,2020-05-05T05:12:34.414Z,2020-05-05T05:12:34.414Z,30,8,False,['HIDE_THUMBNAIL'],['水瓶'],{'layout': 'classic'},星座,horoscopes,False,F,,,[],"[{'id': '286f599c-f86a-4932-82f0-f5a06f1eca03', 'count': 8}]",False,,False,classic,False,False,[],,82664,,,
0,233611772,#問 請問火星巨蟹～,大家好 最近認識一個處女男，有點好感 用生日看了一下他的命盤，他的是，太陽處女 月亮雙魚 金星巨蟹 火星巨蟹，我的是，太陽金牛 月亮雙魚 金星雙子 火星金牛，補 我們上升都是獅子，想請問這樣的命盤 在,True,True,False,4c6964fc-8b39-4480-a844-847f09e4e09d,,2020-05-05T05:11:22.977Z,2020-05-05T05:18:09.825Z,9,0,False,['HIDE_THUMBNAIL'],"['火星', '巨蟹', '處女', '金牛']",{'layout': 'classic'},星座,horoscopes,False,F,,,[],[],False,,False,classic,False,False,[],,82736,,,
0,233611737,處女-水瓶...不知該前進，還是該放棄。,我處女女，和瓶男曖昧近一年，是年紀比我小很多的瓶男，也是一個很「土象」的瓶男。他的成長環境使他較為老成，容易悲觀思考和想太多，感情上曾經受過傷，曾說目前因為家裡狀況和自身分身乏術不敢碰感情，但他對我的,True,True,False,4c6964fc-8b39-4480-a844-847f09e4e09d,,2020-05-05T05:05:43.741Z,2020-05-05T06:46:43.171Z,4,3,False,['HIDE_THUMBNAIL'],"['水瓶', '處女', '曖昧']",{'layout': 'classic'},星座,horoscopes,False,F,,,[],"[{'id': '286f599c-f86a-4932-82f0-f5a06f1eca03', 'count': 3}]",False,,False,classic,False,False,[],,83077,,,
0,233611728,跟獅子女當朋友能再進一步嗎？,前陣子在玩唱歌的app認識了這位🦁️女，之後有加賴聊天，每天都聊，我們也都會互相分享日常跟打手遊，我自己有點慢慢喜歡上她了⋯前天她的閨蜜幫我試探她，問她有沒有對我有好感，但🦁️女卻說只把我當朋友⋯,True,True,False,4c6964fc-8b39-4480-a844-847f09e4e09d,,2020-05-05T05:03:38.844Z,2020-05-05T05:03:38.844Z,26,2,False,['HIDE_THUMBNAIL'],"['獅子', '雙子']",{'layout': 'classic'},星座,horoscopes,False,M,,,[],"[{'id': '286f599c-f86a-4932-82f0-f5a06f1eca03', 'count': 2}]",False,,False,classic,False,False,[],,83203,,,
0,233611624,求解 天秤女 文長,我認識的天秤女，她最近有段時間心情不好，我一直去鼓勵她，然後會在限時貼一些勵志的話，後來有一次她回我限時，結果我在忙沒回到，隔天她就密我說：「我跟妳講喔 你要是再不理我 有你好看的」我們認識了大概兩年,True,True,False,4c6964fc-8b39-4480-a844-847f09e4e09d,,2020-05-05T04:44:58.885Z,2020-05-05T04:44:58.885Z,9,7,False,['HIDE_THUMBNAIL'],"['文長', '天秤']",{'layout': 'classic'},星座,horoscopes,False,M,,,[],"[{'id': '286f599c-f86a-4932-82f0-f5a06f1eca03', 'count': 7}]",False,,False,classic,False,False,[],,84324,,,
0,233611487,魔羯男到底在想什麼呀~求魔羯男進來解惑,最近跟魔羯男同事每天聊天，幾乎是無所不談的聊，已經認識幾年了但在最近幾個月突然比較熟地天天聊天，他有說過他跟朋友幾乎都很容易斷線，因為他不太懂得分享生活開話題，所以常常回到一半話題瞬間斷在他這。而我們,True,True,False,4c6964fc-8b39-4480-a844-847f09e4e09d,,2020-05-05T04:21:36.274Z,2020-05-05T04:21:36.274Z,13,2,False,[],['魔羯'],{'layout': 'classic'},星座,horoscopes,False,F,,,[],"[{'id': '286f599c-f86a-4932-82f0-f5a06f1eca03', 'count': 2}]",False,,False,classic,False,False,[],,85728,,,
0,233611381,雙子男與牡羊女~歡迎發問,因為跟我家雙子男也交往一陣子了，交過兩任連續都是雙子應該也是很熟悉，本身是超級標準的牡羊比講國文還標準那種，有任何問題都能提問呦~希望各位帥哥美女都能修成正果🤩,False,True,False,4c6964fc-8b39-4480-a844-847f09e4e09d,,2020-05-05T03:59:38.635Z,2020-05-05T03:59:38.635Z,15,9,False,[],"['雙子', '牡羊女', '感情', '愛情']",{'layout': 'classic'},星座,horoscopes,False,F,,,[],"[{'id': '286f599c-f86a-4932-82f0-f5a06f1eca03', 'count': 9}]",False,,False,classic,False,False,[],,87047,,長榮大學,
0,233611277,處女女 和雙子男 災難,本身是處女女，有人和我一樣和雙子男在一起但最後也是不歡而散的嗎？交過兩個雙子男，感覺真的很不適合,True,True,False,4c6964fc-8b39-4480-a844-847f09e4e09d,,2020-05-05T03:39:59.806Z,2020-05-05T03:39:59.806Z,20,9,False,['HIDE_THUMBNAIL'],"['雙子', '處女']",{'layout': 'classic'},星座,horoscopes,False,F,,,[],"[{'id': '286f599c-f86a-4932-82f0-f5a06f1eca03', 'count': 9}]",False,,False,classic,False,False,[],,88152,,,
0,233611154,雙子男請進！！ (求求解決疑惑~~)  我是原po,雙子男請進！！ （求求解決疑惑~~）  我是原po ，一直不知道我們之間到底是怎麼樣的關係，求求解惑~~,True,True,False,4c6964fc-8b39-4480-a844-847f09e4e09d,233607950,2020-05-05T03:15:17.752Z,2020-05-05T03:15:17.752Z,3,0,False,[],['雙子'],{'layout': 'classic'},星座,horoscopes,False,F,雙子男請進！,,[],[],False,,False,classic,False,False,[],,89710,,,
0,233610927,求解天秤男,跟一位天秤男認識三年了 本人是射手女️，中間快兩年他有女友就幾乎沒什麼聯絡 只有偶爾回個限時那種，前三個月突然蠻常回我ig而且我那時候有事情想請他幫忙就line他 到現在都蠻穩定的在聊天，我一開始還覺,True,True,False,4c6964fc-8b39-4480-a844-847f09e4e09d,,2020-05-05T02:32:34.640Z,2020-05-05T05:47:47.691Z,5,5,False,['HIDE_THUMBNAIL'],"['天秤', '感情']",{'layout': 'classic'},星座,horoscopes,False,F,,,[],"[{'id': '286f599c-f86a-4932-82f0-f5a06f1eca03', 'count': 5}]",False,,False,classic,False,False,[],,92275,,,
0,233610870,處女女友不喜歡做決定,我是天秤她是處女，她很不喜歡做決定，問她很多事情都會用不知道或不告訴你帶過，而我們是遠距離也無法從肢體或表情判斷..，但很多事情我還是希望尊重獲了解雙方想法後再做，之前幾次因為她也不跟我說不約出來的原,True,True,False,4c6964fc-8b39-4480-a844-847f09e4e09d,,2020-05-05T02:19:08.839Z,2020-05-05T02:19:08.839Z,5,4,False,[],"['處女', '女友', '遠距離']",{'layout': 'classic'},星座,horoscopes,False,M,,,[],"[{'id': '286f599c-f86a-4932-82f0-f5a06f1eca03', 'count': 4}]",False,,False,classic,False,False,[],,93082,,,
