﻿,id,title,excerpt,anonymousSchool,anonymousDepartment,pinned,forumId,replyId,createdAt,updatedAt,commentCount,likeCount,withNickname,tags,topics,meta,forumName,forumAlias,nsfw,gender,school,replyTitle,reportReason,mediaMeta,reactions,hidden,customStyle,isSuspiciousAccount,layout,withImages,withVideos,media,reportReasonText,elapsedTime,postAvatar,department
0,233618394,警專39期,請問有人知道各科報名人數嗎？謝謝,False,True,False,d43f33f9-873f-46b3-9f24-38c90056b96c,,2020-05-06T03:49:30.593Z,2020-05-06T03:49:30.593Z,0,1,False,['HIDE_THUMBNAIL'],"['警專', '考試', '39']",{'layout': 'classic'},考試,exam,False,M,世新大學,,,[],"[{'id': '286f599c-f86a-4932-82f0-f5a06f1eca03', 'count': 1}]",False,,False,classic,False,False,[],,1651,,
0,233618281,心理系轉學考,最近開始看考古題了，可是沒有解答，有上網找了一些解答，分別是心誠和李盛光英文！，可是看了價錢，覺得全部買一買好貴⋯⋯，聽說同學買心誠好像都是薄薄一本，覺得cp值不夠高（同學考商），那我要怎麼辦，大家給,False,False,False,d43f33f9-873f-46b3-9f24-38c90056b96c,,2020-05-06T03:28:38.041Z,2020-05-06T03:28:38.041Z,2,0,True,['HIDE_THUMBNAIL'],"['轉學考', '解答好貴', '為什麼沒有組合']",{'layout': 'classic'},考試,exam,False,F,仙女,,,[],[],False,,False,classic,False,False,[],,2905,,ariyu.77
0,233618219,台綜大報名問題請益,抱歉別鞭 今年大一 還不是很了解，今天是台綜大報名 欲報考B02中興會計 和B10成大會計，在報名的地方我應該填寫什麼類組代碼，我以為台綜大是考一次試就可以用這個成績分發不同學校，簡章是寫B學群是單招,False,True,False,d43f33f9-873f-46b3-9f24-38c90056b96c,,2020-05-06T03:16:19.875Z,2020-05-06T03:16:19.875Z,2,0,False,[],"['轉學考', '考試']",{'layout': 'classic'},考試,exam,False,F,臺北醫學大學,,,"[{'id': '6f44399b-9ee4-4c1f-b5d6-ba8ba34e8486', 'url': 'https://megapx-assets.dcard.tw/images/12758405-3846-4d56-96e0-e811fe019778/160.jpeg', 'normalizedUrl': 'https://megapx-assets.dcard.tw/images/12758405-3846-4d56-96e0-e811fe019778/160.jpeg', 'thumbnail': 'https://megapx-assets.dcard.tw/images/12758405-3846-4d56-96e0-e811fe019778/160.jpeg', 'type': 'image/thumbnail', 'tags': ['ANNOTATED'], 'createdAt': '2020-05-06T03:16:19.875Z', 'updatedAt': '2020-05-06T03:16:19.875Z', 'width': 160, 'height': 41}, {'id': '6f44399b-9ee4-4c1f-b5d6-ba8ba34e8486', 'url': 'https://megapx-assets.dcard.tw/images/12758405-3846-4d56-96e0-e811fe019778/640.jpeg', 'normalizedUrl': 'https://megapx.dcard.tw/v1/images/12758405-3846-4d56-96e0-e811fe019778', 'thumbnail': 'https://megapx-assets.dcard.tw/images/12758405-3846-4d56-96e0-e811fe019778/160.jpeg', 'type': 'image/megapx', 'tags': ['ANNOTATED'], 'createdAt': '2020-05-06T03:16:19.875Z', 'updatedAt': '2020-05-06T03:16:19.875Z', 'width': 968, 'height': 246}, {'id': '9a2346f2-94c4-487e-b878-2ab7ef2fa059', 'url': 'https://megapx-assets.dcard.tw/images/5a5b704d-a387-4c17-8610-518d318c4762/640.jpeg', 'normalizedUrl': 'https://megapx.dcard.tw/v1/images/5a5b704d-a387-4c17-8610-518d318c4762', 'thumbnail': 'https://megapx-assets.dcard.tw/images/5a5b704d-a387-4c17-8610-518d318c4762/160.jpeg', 'type': 'image/megapx', 'tags': ['ANNOTATED'], 'createdAt': '2020-05-06T03:16:19.875Z', 'updatedAt': '2020-05-06T03:16:19.875Z', 'width': 750, 'height': 1334}]",[],False,,False,classic,True,False,"[{'url': 'https://megapx-assets.dcard.tw/images/12758405-3846-4d56-96e0-e811fe019778/640.jpeg'}, {'url': 'https://megapx-assets.dcard.tw/images/5a5b704d-a387-4c17-8610-518d318c4762/640.jpeg'}]",,3645,,
0,233618122,室內設計轉學考,各位學長姐大家好，我想問關於室內設計轉學考的問題，我目前就讀五專五年級，我原本的志願是被爸媽逼著讀的會計科，但我一直很不喜歡這個科系，就這樣苦了五年，感覺時間都浪費了，覺得沒辦法畢業，我之後想讀室內設,False,True,False,d43f33f9-873f-46b3-9f24-38c90056b96c,,2020-05-06T02:57:36.512Z,2020-05-06T03:06:10.729Z,2,0,False,[],"['室內設計', '轉學', '轉學考', '考試', '大學']",{'layout': 'classic'},考試,exam,False,F,國立臺中科技大學,,,[],[],False,,False,classic,False,False,[],,4769,,
0,233618100,台綜大報考資格年月,請問因為今年疫情關係學校是七月初放假，那要寫六月還是七月,False,True,False,d43f33f9-873f-46b3-9f24-38c90056b96c,,2020-05-06T02:53:13.342Z,2020-05-06T02:53:36.036Z,2,0,False,[],"['台綜', '考試', '大學', '轉學考']",{'layout': 'classic'},考試,exam,False,M,輔仁大學,,,[],[],False,,False,classic,False,False,[],,5034,,
0,233617998,請問109年第二次護理師考場,今天8/1要護理師國考，想請問往年的考場大約都是幾月會公佈？謝謝大家,False,True,False,d43f33f9-873f-46b3-9f24-38c90056b96c,,2020-05-06T02:34:40.599Z,2020-05-06T02:34:40.599Z,0,0,False,['HIDE_THUMBNAIL'],"['考試', '國考', '護理師', '護理', '考場']",{'layout': 'classic'},考試,exam,False,F,長庚科技大學,,,[],[],False,,False,classic,False,False,[],,6148,,
0,233617971,關於警大的一些問題 體檢志願序,代po，小弟學測52級分，過了警大的初試，想請問警大的朋友們，志願序的順序會影響到錄取排名嗎，因為我的級分算最低進去的 我只要求能進去警大就好  但我不知道志願序該如何選填  志願序會影響到錄取的強度,False,True,False,d43f33f9-873f-46b3-9f24-38c90056b96c,,2020-05-06T02:29:01.550Z,2020-05-06T02:29:01.550Z,0,0,False,[],"['警大', '考試', '大學']",{'layout': 'classic'},考試,exam,False,M,國立臺灣大學,,,[],[],False,,False,classic,False,False,[],,6488,,
0,233617900,#問 過去分詞做被動或形容詞的判斷,He was injured in the car accident.，請問這邊injured是做為被動動作還是形容詞呢？有點被搞混了,False,True,False,d43f33f9-873f-46b3-9f24-38c90056b96c,,2020-05-06T02:13:23.099Z,2020-05-06T02:13:23.099Z,8,1,False,[],"['考試', '考古題']",{'layout': 'classic'},考試,exam,False,M,靜宜大學,,,[],"[{'id': 'aa0d425f-d530-4478-9a77-fe3aedc79eea', 'count': 1}]",False,,False,classic,False,False,[],,7428,,
0,233617851,#問 靜宜日文轉學考,不好意思 想請問一下曾考過靜宜日文的前輩們或是現在在學的同學們，我目前學日文1、2年去年年底考過N2，現在是大二生（不是日科），上學期成績班排9/59 平均84.71，大一非常不認真，上學期：29/5,False,True,False,d43f33f9-873f-46b3-9f24-38c90056b96c,,2020-05-06T02:01:29.681Z,2020-05-06T03:07:14.976Z,2,1,False,[],"['轉學考', '日文', '靜宜大學']",{'layout': 'classic'},考試,exam,False,F,僑光科技大學,,,[],"[{'id': '286f599c-f86a-4932-82f0-f5a06f1eca03', 'count': 1}]",False,,False,classic,False,False,[],,8143,,
0,233617776,#問 台聯台綜英文準備,想問問大家轉學考英文都是買哪本書？我現在是拿高中指考用的晟景克漏字、7000單字書、文法書等等，不知道準備方向行不行，在ptt看到大部分的人都是背背單字就去考，但我學測英文也才13級沒什麼老本可以啃，,False,True,False,d43f33f9-873f-46b3-9f24-38c90056b96c,,2020-05-06T01:45:24.654Z,2020-05-06T01:45:24.654Z,2,3,False,[],"['英文', '轉學考', '考試']",{'layout': 'classic'},考試,exam,False,F,元智大學,,,[],"[{'id': '286f599c-f86a-4932-82f0-f5a06f1eca03', 'count': 3}]",False,,False,classic,False,False,[],,9109,,
0,233617697,台師大二階學測成績,各位好，小弟今年學測有申請台師大的A系，本來二階是學測成績+面試各佔50%，但是因為疫情取消面試後標準改為：學測成績75%+備審25%，想問問各位這樣對學測成績沒特別突出的人來講是不是就很玄了呢？感謝,False,True,False,d43f33f9-873f-46b3-9f24-38c90056b96c,,2020-05-06T01:23:41.800Z,2020-05-06T01:23:41.800Z,2,0,False,['HIDE_THUMBNAIL'],"['學測', '考試', '大學', '推甄', '申請']",{'layout': 'classic'},考試,exam,False,M,國立中山大學,,,[],[],False,,False,classic,False,False,[],,10413,,
0,233617657,數乙救命,想請問一下大家，如果數乙只要求到及格剩下時間該怎麼讀才好呢，課本從頭讀完一遍了 但寫關鍵60還是很抖，有些都寫不太出來，模擬考大概都3 40分不等..,False,True,False,d43f33f9-873f-46b3-9f24-38c90056b96c,,2020-05-06T01:12:19.652Z,2020-05-06T01:12:19.652Z,4,0,False,['HIDE_THUMBNAIL'],"['數乙', '考試', '重考', '指考']",{'layout': 'classic'},考試,exam,False,M,淡江大學,,,[],[],False,,False,classic,False,False,[],,11096,,
0,233617612,微積分,大家可以幫我一下這題嗎，我盡力了還是算不出來,False,True,False,d43f33f9-873f-46b3-9f24-38c90056b96c,,2020-05-06T00:56:22.721Z,2020-05-06T00:56:22.721Z,0,1,False,[],"['微積分', '作業']",{'layout': 'classic'},考試,exam,False,F,中山醫學大學,,,"[{'id': '82add9a9-74fd-4cdb-9aee-8add3d8e1df1', 'url': 'https://i.imgur.com/4hOVfHNl.jpg', 'normalizedUrl': 'https://i.imgur.com/4hOVfHNl.jpg', 'thumbnail': 'https://i.imgur.com/4hOVfHNl.jpg', 'type': 'image/thumbnail', 'tags': ['ANNOTATED'], 'createdAt': '2020-05-06T00:56:22.721Z', 'updatedAt': '2020-05-06T00:56:22.721Z'}, {'id': '82add9a9-74fd-4cdb-9aee-8add3d8e1df1', 'url': 'https://i.imgur.com/4hOVfHN.jpg', 'normalizedUrl': 'https://imgur.com/4hOVfHN', 'thumbnail': 'https://i.imgur.com/4hOVfHNl.jpg', 'type': 'image/imgur', 'tags': ['ANNOTATED'], 'createdAt': '2020-05-06T00:56:22.721Z', 'updatedAt': '2020-05-06T00:56:22.721Z'}]","[{'id': 'aa0d425f-d530-4478-9a77-fe3aedc79eea', 'count': 1}]",False,,False,classic,True,False,[{'url': 'https://i.imgur.com/4hOVfHN.jpg'}],,12055,,
0,233617610,長庚二技夜間幼保,試問有人可以提供錄取成績嗎～～很怕自己不能上,False,False,False,d43f33f9-873f-46b3-9f24-38c90056b96c,,2020-05-06T00:54:28.345Z,2020-05-06T00:54:28.345Z,0,0,True,['HIDE_THUMBNAIL'],"['長庚', '二技', '幼保']",{'layout': 'classic'},考試,exam,False,F,胖子,,,[],[],False,,False,classic,False,False,[],,12170,,s1007
0,233617403,請問模考時7、800名,統測考的不好，只有52級分，加權總分455左右，可以上什麼學校的資工或是電子？,False,False,False,d43f33f9-873f-46b3-9f24-38c90056b96c,,2020-05-05T22:37:03.822Z,2020-05-05T22:37:03.822Z,8,1,True,[],['考試'],{'layout': 'classic'},考試,exam,False,M,isjj,,,[],"[{'id': '286f599c-f86a-4932-82f0-f5a06f1eca03', 'count': 1}]",False,,False,classic,False,False,[],,20416,,a367
0,233617220,備審資料,不知道發這個版對不對，想問大家知道外面哪裡可以幫忙看備審資料嗎？因為沒有補習只能自己做 但又怕做太糟,False,True,False,d43f33f9-873f-46b3-9f24-38c90056b96c,,2020-05-05T19:37:03.055Z,2020-05-05T19:37:03.055Z,2,1,False,['HIDE_THUMBNAIL'],"['備審資料', '書審']",{'layout': 'classic'},考試,exam,False,F,長庚科技大學,,,[],"[{'id': '286f599c-f86a-4932-82f0-f5a06f1eca03', 'count': 1}]",False,,False,classic,False,False,[],,31218,,
0,233617218,有沒有人也考統測+學測,目前學測的成績放榜確定某個科大正取，然後他要在5/8之前寄送就讀意願書，那如果我同時也有考統測等到5/21成績出來了，我有辦法再跟錄取的科大說我要放棄，然後去用統測的成績申請其他科大嗎？謝謝大家,False,True,False,d43f33f9-873f-46b3-9f24-38c90056b96c,,2020-05-05T19:36:48.777Z,2020-05-05T19:36:48.777Z,4,1,False,['HIDE_THUMBNAIL'],"['統測', '學測']",{'layout': 'classic'},考試,exam,False,F,亞洲大學,,,[],"[{'id': '286f599c-f86a-4932-82f0-f5a06f1eca03', 'count': 1}]",False,,False,classic,False,False,[],,31234,,
0,233617157,大家怎麼安排自己一週的讀書時間,如題，想請教大家怎麼安排每週的讀書進度/讀書時間，在高中唸學測時，都會有老師或教官盯夜自習，比較有被逼著念書（雖然還是常常在睡覺哈哈），上了大學後，想念轉學考又要顧本科系的東西，碰巧我四月中才決定要考,False,True,False,d43f33f9-873f-46b3-9f24-38c90056b96c,,2020-05-05T19:16:46.382Z,2020-05-05T19:16:46.382Z,5,6,False,[],"['時間', '轉學考', '考試']",{'layout': 'classic'},考試,exam,False,F,國立中央大學,,,[],"[{'id': '286f599c-f86a-4932-82f0-f5a06f1eca03', 'count': 6}]",False,,False,classic,False,False,[],,32437,,
0,233616856,重考生學測級分,一想到我重考的級分就覺得丟臉……，不過想想我讀書的情況也覺得罪有應得啦，好奇各位重考生第一次重考都考幾級分啊？（裸考不算），單純好奇想知道,False,True,False,d43f33f9-873f-46b3-9f24-38c90056b96c,,2020-05-05T18:05:28.077Z,2020-05-05T18:05:28.077Z,35,6,False,[],"['學測', '重考']",{'layout': 'classic'},考試,exam,False,M,輔仁大學,,,[],"[{'id': '286f599c-f86a-4932-82f0-f5a06f1eca03', 'count': 6}]",False,,False,classic,False,False,[],,36717,,
0,233616805,台大牙醫系課程分享,雖然還沒畢業，不過在學課程方面感覺跟其他學校滿不一樣的。1、實驗課程比課程重，台大的實驗課程要求很高，很多未來可以交給技工做的事學生都要自己學一遍。從大三開始，大家每週在Lab加班到半夜的頻率真的很高,False,True,False,d43f33f9-873f-46b3-9f24-38c90056b96c,233606899,2020-05-05T17:55:57.178Z,2020-05-05T17:56:58.456Z,4,18,False,['HIDE_THUMBNAIL'],"['大學', '牙醫系', '考試', '學測', '指考']",{'layout': 'classic'},考試,exam,False,M,國立臺灣大學,牙醫系分享,,[],"[{'id': '286f599c-f86a-4932-82f0-f5a06f1eca03', 'count': 17}, {'id': 'e8e6bc5d-41b0-4129-b134-97507523d7ff', 'count': 1}]",False,,False,classic,False,False,[],,37289,,
0,233616564,二技護理系,想問學長姐 林口長庚夜校跟日校會相差太多嗎？畢業證書上面有人說不一樣有人說一樣 想請問學長姐們 一不一樣有什麼差別嗎？,False,False,False,d43f33f9-873f-46b3-9f24-38c90056b96c,,2020-05-05T17:13:56.746Z,2020-05-05T17:13:56.746Z,1,1,False,[],"['護理', '考試', '二技', '學長姐幫幫我', '學長姐']",{'layout': 'classic'},考試,exam,False,F,輔英科技大學,,,[],"[{'id': '286f599c-f86a-4932-82f0-f5a06f1eca03', 'count': 1}]",False,,False,classic,False,False,[],,39811,,護理系
0,233616333,到底該選誰呢？,在螢幕前的帥哥美女你們好～我是高三生。目前錄取東海畜產與生物科技跟屏科大水產養殖。兩間學校都很美很喜歡，地理位置我都接受，科系也都是我想讀的，不考慮國私立。現在不知道哪個科系未來比較有出路或市場需求較,False,False,False,d43f33f9-873f-46b3-9f24-38c90056b96c,,2020-05-05T16:40:41.073Z,2020-05-05T16:47:06.233Z,10,2,True,['HIDE_THUMBNAIL'],"['大學', '考試', '學測', '推甄', '申請']",{'layout': 'classic'},考試,exam,False,M,霍格華茲學院奇獸飼育學系,,,[],"[{'id': '286f599c-f86a-4932-82f0-f5a06f1eca03', 'count': 2}]",False,,False,classic,False,False,[],,41808,,bassslow
0,233616249,二技申請北商應英(問,關於北商評價網路上給予負評的居多，想請問各位北商前輩，1.北商真的有這麼差嗎？2.關於申請入學中英文自傳有規定字數，找了很久都沒這方面資料,False,True,False,d43f33f9-873f-46b3-9f24-38c90056b96c,,2020-05-05T16:29:15.143Z,2020-05-05T16:29:15.143Z,1,1,False,[],"['二技', '考試', '北商', '英文', '申請']",{'layout': 'classic'},考試,exam,False,F,國立臺中科技大學,,,[],"[{'id': '286f599c-f86a-4932-82f0-f5a06f1eca03', 'count': 1}]",False,,False,classic,False,False,[],,42495,,
0,233615758,這個公式,請問我框起來的公式到底是什麼意思呀，希望有好心的大哥哥大姐姐回答一下QAQ，謝謝您們,False,True,False,d43f33f9-873f-46b3-9f24-38c90056b96c,,2020-05-05T15:31:43.431Z,2020-05-05T15:31:43.431Z,7,5,False,[],['考試'],{'layout': 'classic'},考試,exam,False,M,國立政治大學,,,"[{'id': '44c1fc0c-ba7b-4f80-8178-13ee3854d34c', 'url': 'https://i.imgur.com/HhCKB7Fl.jpg', 'normalizedUrl': 'https://i.imgur.com/HhCKB7Fl.jpg', 'thumbnail': 'https://i.imgur.com/HhCKB7Fl.jpg', 'type': 'image/thumbnail', 'tags': ['ANNOTATED'], 'createdAt': '2020-05-05T15:31:43.431Z', 'updatedAt': '2020-05-05T15:31:43.431Z'}, {'id': '44c1fc0c-ba7b-4f80-8178-13ee3854d34c', 'url': 'https://i.imgur.com/HhCKB7F.jpg', 'normalizedUrl': 'https://imgur.com/HhCKB7F', 'thumbnail': 'https://i.imgur.com/HhCKB7Fl.jpg', 'type': 'image/imgur', 'tags': ['ANNOTATED'], 'createdAt': '2020-05-05T15:31:43.431Z', 'updatedAt': '2020-05-05T15:31:43.431Z'}]","[{'id': '286f599c-f86a-4932-82f0-f5a06f1eca03', 'count': 5}]",False,,False,classic,True,False,[{'url': 'https://i.imgur.com/HhCKB7F.jpg'}],,45948,,
0,233615472,#詢問 司法特考四等用書,大家好，如題 想準備司法特考四等的法警類科，但不是相關科系也沒有準備過類似考試，想問一下有經驗的各位，「行政法概要、刑法概要、刑事訴訟法概要、法院組織法」這幾個專業科目，在參考書、教科書方面，對初學者,False,True,False,d43f33f9-873f-46b3-9f24-38c90056b96c,,2020-05-05T14:54:45.302Z,2020-05-05T23:44:45.183Z,1,0,False,['HIDE_THUMBNAIL'],"['教科書', '司法', '參考書']",{'layout': 'classic'},考試,exam,False,F,國立高雄第一科技大學,,,[],[],False,,False,classic,False,False,[],,48168,,
0,233615471,指考倒數心很煩,本人休學自己在家重考指考，已經地毯式刷完一輪開始刷薪橋的模擬試題了，先說 我歷屆想在倒數30天的時候再寫，因為去年就是先寫歷屆再寫各種模擬試題，到最後逼近正式考試模擬試題寫得很爛心態炸裂，逼近考試變得,False,False,False,d43f33f9-873f-46b3-9f24-38c90056b96c,,2020-05-05T14:54:15.577Z,2020-05-05T14:54:15.577Z,8,12,True,['HIDE_THUMBNAIL'],"['指考', '倒數', '考試', '大學', '重考']",{'layout': 'classic'},考試,exam,False,M,來福賽克斯,,,[],"[{'id': '286f599c-f86a-4932-82f0-f5a06f1eca03', 'count': 12}]",False,,False,classic,False,False,[],,48199,,kai_9652410
0,233615454,考藥學,各位好，我目前大一唸資工，但唸的沒有興趣加上唸不來於是4月底休學了，經過仔細考慮和家人討論後想考藥學，當時108應屆只有42級分（考四科），沒有考指考，目前會每天爆肝唸今年指考，但還是重心放在明年學測,False,False,False,d43f33f9-873f-46b3-9f24-38c90056b96c,,2020-05-05T14:52:22.112Z,2020-05-05T14:52:22.112Z,13,5,True,['HIDE_THUMBNAIL'],['重考'],{'layout': 'classic'},考試,exam,False,M,重考仔,,,[],"[{'id': '286f599c-f86a-4932-82f0-f5a06f1eca03', 'count': 5}]",False,,False,classic,False,False,[],,48314,,jayzeds
0,233615195,工程計算機,請問有人知道10的2.6次方這種要怎麼算嗎，10的2次我會按那2.6次這種要怎麼按啊，對不起有人能教教我嗎～,False,True,False,d43f33f9-873f-46b3-9f24-38c90056b96c,,2020-05-05T14:20:07.305Z,2020-05-05T14:20:07.305Z,6,6,False,[],"['計算機', '工程']",{'layout': 'classic'},考試,exam,False,F,中國文化大學,,,"[{'id': '3bc90ebe-1b10-410f-ad81-8476fa07a1de', 'url': 'https://megapx-assets.dcard.tw/images/b406a9d9-5a8e-4fd2-a8e4-b1beac314344/160.jpeg', 'normalizedUrl': 'https://megapx-assets.dcard.tw/images/b406a9d9-5a8e-4fd2-a8e4-b1beac314344/160.jpeg', 'thumbnail': 'https://megapx-assets.dcard.tw/images/b406a9d9-5a8e-4fd2-a8e4-b1beac314344/160.jpeg', 'type': 'image/thumbnail', 'tags': ['ANNOTATED'], 'createdAt': '2020-05-05T14:20:07.305Z', 'updatedAt': '2020-05-05T14:20:07.305Z', 'width': 120, 'height': 160}, {'id': '3bc90ebe-1b10-410f-ad81-8476fa07a1de', 'url': 'https://megapx-assets.dcard.tw/images/b406a9d9-5a8e-4fd2-a8e4-b1beac314344/640.jpeg', 'normalizedUrl': 'https://megapx.dcard.tw/v1/images/b406a9d9-5a8e-4fd2-a8e4-b1beac314344', 'thumbnail': 'https://megapx-assets.dcard.tw/images/b406a9d9-5a8e-4fd2-a8e4-b1beac314344/160.jpeg', 'type': 'image/megapx', 'tags': ['ANNOTATED'], 'createdAt': '2020-05-05T14:20:07.305Z', 'updatedAt': '2020-05-05T14:20:07.305Z', 'width': 1500, 'height': 2000}]","[{'id': '286f599c-f86a-4932-82f0-f5a06f1eca03', 'count': 5}, {'id': '4b018f48-e184-445f-adf1-fc8e04ba09b9', 'count': 1}]",False,,False,classic,True,False,[{'url': 'https://megapx-assets.dcard.tw/images/b406a9d9-5a8e-4fd2-a8e4-b1beac314344/640.jpeg'}],,50250,,
0,233615157,中教大體育系,想請問一下中教大體育系體育學原理的課本是用哪一本？,False,False,False,d43f33f9-873f-46b3-9f24-38c90056b96c,,2020-05-05T14:16:07.263Z,2020-05-05T14:16:07.263Z,4,2,True,['HIDE_THUMBNAIL'],"['體育', '轉學']",{'layout': 'classic'},考試,exam,False,F,迷茫的星球,,,[],"[{'id': '286f599c-f86a-4932-82f0-f5a06f1eca03', 'count': 2}]",False,,False,classic,False,False,[],,50491,,secret_1019
0,233615038,轉學考物理,請問他是怎麼看出來暗紋在m=3的 ，想了好久還是不知道,False,False,False,d43f33f9-873f-46b3-9f24-38c90056b96c,,2020-05-05T14:02:10.749Z,2020-05-05T14:02:10.749Z,3,1,True,[],"['轉學考', '台綜大', '物理']",{'layout': 'classic'},考試,exam,False,M,alan,,,"[{'id': '02bb79c8-8b19-4248-a79f-5fa82b2d9d3b', 'url': 'https://i.imgur.com/wqiL9wxl.jpg', 'normalizedUrl': 'https://i.imgur.com/wqiL9wxl.jpg', 'thumbnail': 'https://i.imgur.com/wqiL9wxl.jpg', 'type': 'image/thumbnail', 'tags': ['ANNOTATED'], 'createdAt': '2020-05-05T14:02:10.749Z', 'updatedAt': '2020-05-05T14:02:10.749Z'}, {'id': '02bb79c8-8b19-4248-a79f-5fa82b2d9d3b', 'url': 'https://i.imgur.com/wqiL9wx.jpg', 'normalizedUrl': 'https://imgur.com/wqiL9wx', 'thumbnail': 'https://i.imgur.com/wqiL9wxl.jpg', 'type': 'image/imgur', 'tags': ['ANNOTATED'], 'createdAt': '2020-05-05T14:02:10.749Z', 'updatedAt': '2020-05-05T14:02:10.749Z'}]","[{'id': '286f599c-f86a-4932-82f0-f5a06f1eca03', 'count': 1}]",False,,False,classic,True,False,[{'url': 'https://i.imgur.com/wqiL9wx.jpg'}],,51329,,cd20028
0,233614994,經濟學 供需曲線,幫朋友問  題目說要解釋每一個點的經濟意義，拜託各位版友大神了！,False,False,False,d43f33f9-873f-46b3-9f24-38c90056b96c,,2020-05-05T13:57:19.216Z,2020-05-05T13:57:19.216Z,2,0,False,[],"['經濟學', '曲線']",{'layout': 'classic'},考試,exam,False,M,中國文化大學,,,"[{'id': '070d0a96-768b-4ae5-994e-3e0faed11afb', 'url': 'https://i.imgur.com/LjkdxuLl.jpg', 'normalizedUrl': 'https://i.imgur.com/LjkdxuLl.jpg', 'thumbnail': 'https://i.imgur.com/LjkdxuLl.jpg', 'type': 'image/thumbnail', 'tags': ['ANNOTATED'], 'createdAt': '2020-05-05T13:57:19.216Z', 'updatedAt': '2020-05-05T13:57:19.216Z'}, {'id': '070d0a96-768b-4ae5-994e-3e0faed11afb', 'url': 'https://i.imgur.com/LjkdxuL.jpg', 'normalizedUrl': 'https://imgur.com/LjkdxuL', 'thumbnail': 'https://i.imgur.com/LjkdxuLl.jpg', 'type': 'image/imgur', 'tags': ['ANNOTATED'], 'createdAt': '2020-05-05T13:57:19.216Z', 'updatedAt': '2020-05-05T13:57:19.216Z'}]",[],False,,False,classic,True,False,[{'url': 'https://i.imgur.com/LjkdxuL.jpg'}],,51583,,社會福利學系
0,233614907,求解國中數學......,我就爛....被國中弟弟問倒....，求解.....，我幾何好爛......,False,True,False,d43f33f9-873f-46b3-9f24-38c90056b96c,,2020-05-05T13:46:14.663Z,2020-05-05T13:46:14.663Z,19,10,False,[],"['數學', '國中']",{'layout': 'classic'},考試,exam,False,M,國立臺灣大學,,,"[{'id': 'ad743333-410e-44a4-b1cd-063cea174b34', 'url': 'https://megapx-assets.dcard.tw/images/408ae3f9-0a6a-4d8d-a25e-e9eb1a81954f/160.jpeg', 'normalizedUrl': 'https://megapx-assets.dcard.tw/images/408ae3f9-0a6a-4d8d-a25e-e9eb1a81954f/160.jpeg', 'thumbnail': 'https://megapx-assets.dcard.tw/images/408ae3f9-0a6a-4d8d-a25e-e9eb1a81954f/160.jpeg', 'type': 'image/thumbnail', 'tags': ['ANNOTATED'], 'createdAt': '2020-05-05T13:46:14.663Z', 'updatedAt': '2020-05-05T13:46:14.663Z', 'width': 160, 'height': 59}, {'id': 'ad743333-410e-44a4-b1cd-063cea174b34', 'url': 'https://megapx-assets.dcard.tw/images/408ae3f9-0a6a-4d8d-a25e-e9eb1a81954f/640.jpeg', 'normalizedUrl': 'https://megapx.dcard.tw/v1/images/408ae3f9-0a6a-4d8d-a25e-e9eb1a81954f', 'thumbnail': 'https://megapx-assets.dcard.tw/images/408ae3f9-0a6a-4d8d-a25e-e9eb1a81954f/160.jpeg', 'type': 'image/megapx', 'tags': ['ANNOTATED'], 'createdAt': '2020-05-05T13:46:14.663Z', 'updatedAt': '2020-05-05T13:46:14.663Z', 'width': 2000, 'height': 740}]","[{'id': '286f599c-f86a-4932-82f0-f5a06f1eca03', 'count': 10}]",False,,False,classic,True,False,[{'url': 'https://megapx-assets.dcard.tw/images/408ae3f9-0a6a-4d8d-a25e-e9eb1a81954f/640.jpeg'}],,52249,,
0,233614726,數乙歷屆,想請問一下數乙的歷屆大概練到幾年算差不多,False,False,False,d43f33f9-873f-46b3-9f24-38c90056b96c,,2020-05-05T13:20:05.722Z,2020-05-05T13:20:05.722Z,3,0,True,['HIDE_THUMBNAIL'],"['數乙', '重考']",{'layout': 'classic'},考試,exam,False,M,北東肯恩,,,[],[],False,,False,classic,False,False,[],,53819,,jc191150
0,233614660,補習有給考古題？轉學考英文,想問問看，大家的補習班有沒有給，我的補習班其他科都有給題目加詳解，但是英文沒有，只給題目，偏偏我英文最差，哭哭，各位有推薦英文要買誰詳解嗎，有聽說過李盛光，我的簽名檔777777,False,True,False,d43f33f9-873f-46b3-9f24-38c90056b96c,,2020-05-05T13:10:37.408Z,2020-05-05T13:10:37.408Z,5,1,False,[],['考古題'],{'layout': 'classic'},考試,exam,False,M,國立東華大學,,,[],"[{'id': '286f599c-f86a-4932-82f0-f5a06f1eca03', 'count': 1}]",False,,False,classic,False,False,[],,54389,,
0,233614643,法律系值得重考嗎？,如題，讀了一年東吳再回去重考法律系值得嗎？最近苦惱了很久ಥ_ಥ,False,False,False,d43f33f9-873f-46b3-9f24-38c90056b96c,,2020-05-05T13:07:53.309Z,2020-05-05T13:07:53.309Z,32,8,False,['HIDE_THUMBNAIL'],"['法律系', '重考']",{'layout': 'classic'},考試,exam,False,F,東吳大學,,,[],"[{'id': '286f599c-f86a-4932-82f0-f5a06f1eca03', 'count': 8}]",False,,False,classic,False,False,[],,54554,,法律學系
0,233614583,弱弱ㄉ問個微積分...,請問36題ㄉC小題解答的紅線是怎麼來的，或是整個F”（x）是怎麼求的（´･ω･`），拜託惹各位大大,False,True,False,d43f33f9-873f-46b3-9f24-38c90056b96c,,2020-05-05T13:00:21.031Z,2020-05-05T13:00:21.031Z,3,0,False,[],"['微積分', '考試', '大學']",{'layout': 'classic'},考試,exam,False,F,國立清華大學,,,"[{'id': 'aaa051a3-22f8-4cad-aa19-a8b84bee17aa', 'url': 'https://megapx-assets.dcard.tw/images/7eb3d673-67e9-46ec-b9bd-150b072f706e/160.jpeg', 'normalizedUrl': 'https://megapx-assets.dcard.tw/images/7eb3d673-67e9-46ec-b9bd-150b072f706e/160.jpeg', 'thumbnail': 'https://megapx-assets.dcard.tw/images/7eb3d673-67e9-46ec-b9bd-150b072f706e/160.jpeg', 'type': 'image/thumbnail', 'tags': ['ANNOTATED'], 'createdAt': '2020-05-05T13:00:21.031Z', 'updatedAt': '2020-05-05T13:00:21.031Z', 'width': 120, 'height': 160}, {'id': 'aaa051a3-22f8-4cad-aa19-a8b84bee17aa', 'url': 'https://megapx-assets.dcard.tw/images/7eb3d673-67e9-46ec-b9bd-150b072f706e/640.jpeg', 'normalizedUrl': 'https://megapx.dcard.tw/v1/images/7eb3d673-67e9-46ec-b9bd-150b072f706e', 'thumbnail': 'https://megapx-assets.dcard.tw/images/7eb3d673-67e9-46ec-b9bd-150b072f706e/160.jpeg', 'type': 'image/megapx', 'tags': ['ANNOTATED'], 'createdAt': '2020-05-05T13:00:21.031Z', 'updatedAt': '2020-05-05T13:00:21.031Z', 'width': 1500, 'height': 2000}, {'id': 'bb9ff638-33ba-4a09-8d2b-d338798be0fd', 'url': 'https://megapx-assets.dcard.tw/images/84ec702c-ea6a-4918-bfdb-1baa88d7759f/640.jpeg', 'normalizedUrl': 'https://megapx.dcard.tw/v1/images/84ec702c-ea6a-4918-bfdb-1baa88d7759f', 'thumbnail': 'https://megapx-assets.dcard.tw/images/84ec702c-ea6a-4918-bfdb-1baa88d7759f/160.jpeg', 'type': 'image/megapx', 'tags': ['ANNOTATED'], 'createdAt': '2020-05-05T13:00:21.031Z', 'updatedAt': '2020-05-05T13:00:21.031Z', 'width': 1037, 'height': 174}]",[],False,,False,classic,True,False,"[{'url': 'https://megapx-assets.dcard.tw/images/7eb3d673-67e9-46ec-b9bd-150b072f706e/640.jpeg'}, {'url': 'https://megapx-assets.dcard.tw/images/84ec702c-ea6a-4918-bfdb-1baa88d7759f/640.jpeg'}]",,55008,,
0,233614402,求轉學考準備方向,轉學考在即，想問順利轉學的同胞們英文的轉學考都如何準備的？想考的學校是東吳，寫了幾份考古很多單字都是沒看過的 也很少重複，還是有推薦的書籍？謝謝 並祝其他轉學同胞考試順利,False,True,False,d43f33f9-873f-46b3-9f24-38c90056b96c,,2020-05-05T12:33:37.959Z,2020-05-05T12:42:56.520Z,9,9,False,[],"['轉學考', '轉學', '大學', '考試']",{'layout': 'classic'},考試,exam,False,M,逢甲大學,,,[],"[{'id': '286f599c-f86a-4932-82f0-f5a06f1eca03', 'count': 9}]",False,,False,classic,False,False,[],,56612,,
0,233614290,#問 警大志願序(警大生請進),借姐姐帳號 代po，小弟我警大乙男一階備11，我想問關於志願序和警大的四個問題，1.志願填法，我暫定填，外事>境管>行管>社安>法律>犯防>移民>犯矯>行政，我主要是想當警察，移民、矯治和行政系為下策,False,True,False,d43f33f9-873f-46b3-9f24-38c90056b96c,,2020-05-05T12:14:51.562Z,2020-05-05T12:17:06.185Z,5,1,False,['HIDE_THUMBNAIL'],"['志願', '警察', '警大', '警察板']",{'layout': 'classic'},考試,exam,False,F,國立屏東大學,,,[],"[{'id': '286f599c-f86a-4932-82f0-f5a06f1eca03', 'count': 1}]",False,,False,classic,False,False,[],,57740,,
0,233614179,#問 嘉義大學中文系 錄取機率,以下是幫我妹妹問的 拜託各位，想問大家嘉義大學中文系備取17有機會嗎？看102～108年的備取都取到滿後面的 去年甚至備取最後一個也有上 但是今年好像很亂的樣子 不知道會不會有什麼影響所以超緊張～,False,True,False,d43f33f9-873f-46b3-9f24-38c90056b96c,,2020-05-05T12:01:57.253Z,2020-05-05T12:01:57.253Z,0,2,False,['HIDE_THUMBNAIL'],"['嘉義', '大學', '中文系', '學測', '備取']",{'layout': 'classic'},考試,exam,False,F,輔英科技大學,,,[],"[{'id': '286f599c-f86a-4932-82f0-f5a06f1eca03', 'count': 2}]",False,,False,classic,False,False,[],,58515,,
0,233614136,普物問題求解,想請問板上的大大們，第18題（第一張照片）它是在考什麼觀念呢？還有該如何求解？第7題（第二張照片）解答寫的式子是什麼公式？請高人指點下，感謝,False,False,False,d43f33f9-873f-46b3-9f24-38c90056b96c,,2020-05-05T11:57:09.516Z,2020-05-05T11:57:09.516Z,8,1,True,[],"['轉學考', '普物', '考試']",{'layout': 'classic'},考試,exam,False,F,吃～,,,"[{'id': '06518ea2-4986-4625-a9a3-9a8e1f322cc8', 'url': 'https://megapx-assets.dcard.tw/images/6f2aceb6-8390-4315-87be-04be4bfdba54/160.jpeg', 'normalizedUrl': 'https://megapx-assets.dcard.tw/images/6f2aceb6-8390-4315-87be-04be4bfdba54/160.jpeg', 'thumbnail': 'https://megapx-assets.dcard.tw/images/6f2aceb6-8390-4315-87be-04be4bfdba54/160.jpeg', 'type': 'image/thumbnail', 'tags': [], 'createdAt': '2020-05-05T11:57:09.516Z', 'updatedAt': '2020-05-05T11:57:09.516Z', 'width': 160, 'height': 48}, {'id': '06518ea2-4986-4625-a9a3-9a8e1f322cc8', 'url': 'https://megapx-assets.dcard.tw/images/6f2aceb6-8390-4315-87be-04be4bfdba54/640.jpeg', 'normalizedUrl': 'https://megapx.dcard.tw/v1/images/6f2aceb6-8390-4315-87be-04be4bfdba54', 'thumbnail': 'https://megapx-assets.dcard.tw/images/6f2aceb6-8390-4315-87be-04be4bfdba54/160.jpeg', 'type': 'image/megapx', 'tags': [], 'createdAt': '2020-05-05T11:57:09.516Z', 'updatedAt': '2020-05-05T11:57:09.516Z', 'width': 2000, 'height': 599}, {'id': 'ed12ac12-0690-43b4-8c5a-b5386411e173', 'url': 'https://megapx-assets.dcard.tw/images/9f62b497-9e7f-400b-932c-98d19ae9e567/640.jpeg', 'normalizedUrl': 'https://megapx.dcard.tw/v1/images/9f62b497-9e7f-400b-932c-98d19ae9e567', 'thumbnail': 'https://megapx-assets.dcard.tw/images/9f62b497-9e7f-400b-932c-98d19ae9e567/160.jpeg', 'type': 'image/megapx', 'tags': [], 'createdAt': '2020-05-05T11:57:09.516Z', 'updatedAt': '2020-05-05T11:57:09.516Z', 'width': 2001, 'height': 1035}]","[{'id': '286f599c-f86a-4932-82f0-f5a06f1eca03', 'count': 1}]",False,,False,classic,True,False,"[{'url': 'https://megapx-assets.dcard.tw/images/6f2aceb6-8390-4315-87be-04be4bfdba54/640.jpeg'}, {'url': 'https://megapx-assets.dcard.tw/images/9f62b497-9e7f-400b-932c-98d19ae9e567/640.jpeg'}]",,58804,,lemon122426
0,233614097,英文問題,為什麼答案不是C是B的被動式呢，這題答案是B,False,True,False,d43f33f9-873f-46b3-9f24-38c90056b96c,,2020-05-05T11:49:56.876Z,2020-05-05T11:49:56.876Z,3,0,False,[],['歌曲'],{'layout': 'classic'},考試,exam,False,M,國立屏東科技大學,,,"[{'id': 'f2b8eaeb-e97c-4e5b-8c90-683a05b56ea5', 'url': 'https://megapx-assets.dcard.tw/images/0721f4fe-eb78-498e-9b3d-2fd8625244b3/160.jpeg', 'normalizedUrl': 'https://megapx-assets.dcard.tw/images/0721f4fe-eb78-498e-9b3d-2fd8625244b3/160.jpeg', 'thumbnail': 'https://megapx-assets.dcard.tw/images/0721f4fe-eb78-498e-9b3d-2fd8625244b3/160.jpeg', 'type': 'image/thumbnail', 'tags': ['ANNOTATED'], 'createdAt': '2020-05-05T11:49:56.876Z', 'updatedAt': '2020-05-05T11:49:56.876Z', 'width': 120, 'height': 160}, {'id': 'f2b8eaeb-e97c-4e5b-8c90-683a05b56ea5', 'url': 'https://megapx-assets.dcard.tw/images/0721f4fe-eb78-498e-9b3d-2fd8625244b3/640.jpeg', 'normalizedUrl': 'https://megapx.dcard.tw/v1/images/0721f4fe-eb78-498e-9b3d-2fd8625244b3', 'thumbnail': 'https://megapx-assets.dcard.tw/images/0721f4fe-eb78-498e-9b3d-2fd8625244b3/160.jpeg', 'type': 'image/megapx', 'tags': ['ANNOTATED'], 'createdAt': '2020-05-05T11:49:56.876Z', 'updatedAt': '2020-05-05T11:49:56.876Z', 'width': 1108, 'height': 1478}]",[],False,,False,classic,True,False,[{'url': 'https://megapx-assets.dcard.tw/images/0721f4fe-eb78-498e-9b3d-2fd8625244b3/640.jpeg'}],,59238,,
0,233613615,書審資料頁書,想問一下書審資料做大概10頁會太少嗎？我把每頁做蠻滿的，目錄 自傳三頁 讀書計畫兩頁 作品集兩頁和一些其他資料。另外想問申請三年級是不是普遍比二年級容易？,False,True,False,d43f33f9-873f-46b3-9f24-38c90056b96c,,2020-05-05T10:25:10.028Z,2020-05-05T10:25:10.028Z,15,7,False,['HIDE_THUMBNAIL'],['轉學考'],{'layout': 'classic'},考試,exam,False,M,易三倉大學,,,[],"[{'id': '286f599c-f86a-4932-82f0-f5a06f1eca03', 'count': 7}]",False,,False,classic,False,False,[],,64326,,
0,233613531,#問 海大轉學考,想請問今年海大的轉學考，原校是國立科大但非相關科系的有機會嗎？因為半年前就開始準備轉學考了，但不知道為什麼今年突然改成書審，感覺機會很渺茫...,False,False,False,d43f33f9-873f-46b3-9f24-38c90056b96c,,2020-05-05T10:11:23.193Z,2020-05-05T10:11:23.193Z,10,3,True,[],"['轉學', '海大', '考試', '轉學考', '大學']",{'layout': 'classic'},考試,exam,False,F,●︿●,,,[],"[{'id': '286f599c-f86a-4932-82f0-f5a06f1eca03', 'count': 3}]",False,,False,classic,False,False,[],,65154,,z.z.z22
0,233613422,代數 暑修,,False,False,False,d43f33f9-873f-46b3-9f24-38c90056b96c,233592308,2020-05-05T09:51:58.292Z,2020-05-05T09:51:58.292Z,0,1,True,[],"['暑修', '課程', '大學', '數學', '畢業']",{'crossPostId': 233592308},考試,exam,False,M,123,問  暑修 應數系/數學系 代數學（一）,,[],"[{'id': '286f599c-f86a-4932-82f0-f5a06f1eca03', 'count': 1}]",False,,False,classic,False,False,[],,66320,,xyz314159
0,233613415,109轉學考資訊彙整,上次發文後又有不少學校陸續公告轉學考資訊，想說如果沒有特別注意舊文那我一直更新也沒意思🤔，這次改用表格的方式呈現～如果有新的資訊會補在留言區，［書審截止］，［筆試］，［簡章即將公告］，國立台灣師範大,False,False,False,d43f33f9-873f-46b3-9f24-38c90056b96c,,2020-05-05T09:50:53.296Z,2020-05-05T23:57:47.051Z,82,110,True,[],"['轉學考', '筆試', '書審']",{'layout': 'classic'},考試,exam,False,M,Summerdelics,,,"[{'id': '1d71b8c2-675e-43f6-8ff2-04a2c9a41f20', 'url': 'https://megapx-assets.dcard.tw/images/66437d8f-7e35-4f6c-8822-8df000c29386/160.jpeg', 'normalizedUrl': 'https://megapx-assets.dcard.tw/images/66437d8f-7e35-4f6c-8822-8df000c29386/160.jpeg', 'thumbnail': 'https://megapx-assets.dcard.tw/images/66437d8f-7e35-4f6c-8822-8df000c29386/160.jpeg', 'type': 'image/thumbnail', 'tags': ['ANNOTATED'], 'createdAt': '2020-05-05T23:35:41.607Z', 'updatedAt': '2020-05-05T23:57:47.051Z', 'width': 109, 'height': 160}, {'id': '1d71b8c2-675e-43f6-8ff2-04a2c9a41f20', 'url': 'https://megapx-assets.dcard.tw/images/66437d8f-7e35-4f6c-8822-8df000c29386/640.jpeg', 'normalizedUrl': 'https://megapx.dcard.tw/v1/images/66437d8f-7e35-4f6c-8822-8df000c29386', 'thumbnail': 'https://megapx-assets.dcard.tw/images/66437d8f-7e35-4f6c-8822-8df000c29386/160.jpeg', 'type': 'image/megapx', 'tags': ['ANNOTATED'], 'createdAt': '2020-05-05T23:35:41.607Z', 'updatedAt': '2020-05-05T23:57:47.051Z', 'width': 1346, 'height': 1971}, {'id': '4b4fb035-d3ca-4334-a988-38b00cfda5fb', 'url': 'https://megapx-assets.dcard.tw/images/afc01b1c-ca95-4666-ba7e-e4f023a1a99e/640.jpeg', 'normalizedUrl': 'https://megapx.dcard.tw/v1/images/afc01b1c-ca95-4666-ba7e-e4f023a1a99e', 'thumbnail': 'https://megapx-assets.dcard.tw/images/afc01b1c-ca95-4666-ba7e-e4f023a1a99e/160.jpeg', 'type': 'image/megapx', 'tags': ['ANNOTATED'], 'createdAt': '2020-05-05T23:35:41.607Z', 'updatedAt': '2020-05-05T23:57:47.051Z', 'width': 1346, 'height': 1737}]","[{'id': '286f599c-f86a-4932-82f0-f5a06f1eca03', 'count': 110}]",False,{},False,classic,True,False,"[{'url': 'https://megapx-assets.dcard.tw/images/66437d8f-7e35-4f6c-8822-8df000c29386/640.jpeg'}, {'url': 'https://megapx-assets.dcard.tw/images/afc01b1c-ca95-4666-ba7e-e4f023a1a99e/640.jpeg'}]",,66387,,accelerated
0,233613349,海大轉學考,想知道去申請海大轉學考的都是什麼學校會去申請？國立後段班排1有望嗎？補充 想申請光電,False,False,False,d43f33f9-873f-46b3-9f24-38c90056b96c,,2020-05-05T09:40:37.096Z,2020-05-05T10:29:57.799Z,20,2,True,[],['轉學考'],{'layout': 'classic'},考試,exam,False,F,aaaaa,,,[],"[{'id': '286f599c-f86a-4932-82f0-f5a06f1eca03', 'count': 2}]",False,,False,classic,False,False,[],,67004,,cbacba
0,233613330,109長庚大學轉學考簡章,【重要日程】6/10~6/17 報名，7/11 考試，7/24 放榜，【招生名額、考科】,False,False,False,d43f33f9-873f-46b3-9f24-38c90056b96c,,2020-05-05T09:36:41.134Z,2020-05-05T09:38:38.718Z,3,3,False,[],"['簡章', '長庚大學', '轉學', '考試', '長庚']",{'layout': 'classic'},考試,exam,False,M,逢甲大學,,,"[{'id': 'e2513af5-56ee-4966-ac86-a640309ee448', 'url': 'https://i.imgur.com/zg5I8T2l.jpg', 'normalizedUrl': 'https://i.imgur.com/zg5I8T2l.jpg', 'thumbnail': 'https://i.imgur.com/zg5I8T2l.jpg', 'type': 'image/thumbnail', 'tags': ['ANNOTATED'], 'createdAt': '2020-05-05T09:36:41.134Z', 'updatedAt': '2020-05-05T09:38:38.718Z'}, {'id': 'e2513af5-56ee-4966-ac86-a640309ee448', 'url': 'https://i.imgur.com/zg5I8T2.jpg', 'normalizedUrl': 'https://imgur.com/zg5I8T2', 'thumbnail': 'https://i.imgur.com/zg5I8T2l.jpg', 'type': 'image/imgur', 'tags': ['ANNOTATED'], 'createdAt': '2020-05-05T09:36:41.134Z', 'updatedAt': '2020-05-05T09:38:38.718Z'}, {'id': '68b0fb5a-0d88-4585-8ba1-d323b0fdb1b2', 'url': 'https://i.imgur.com/fQ5Usso.jpg', 'normalizedUrl': 'https://imgur.com/fQ5Usso', 'thumbnail': 'https://i.imgur.com/fQ5Ussol.jpg', 'type': 'image/imgur', 'tags': ['ANNOTATED'], 'createdAt': '2020-05-05T09:38:38.718Z', 'updatedAt': '2020-05-05T09:38:38.718Z'}, {'id': '7def79c5-beaa-4dbc-94b3-316b66f3c592', 'url': 'https://i.imgur.com/Z9ZipdN.jpg', 'normalizedUrl': 'https://imgur.com/Z9ZipdN', 'thumbnail': 'https://i.imgur.com/Z9ZipdNl.jpg', 'type': 'image/imgur', 'tags': ['ANNOTATED'], 'createdAt': '2020-05-05T09:38:38.718Z', 'updatedAt': '2020-05-05T09:38:38.718Z'}]","[{'id': '286f599c-f86a-4932-82f0-f5a06f1eca03', 'count': 3}]",False,,False,classic,True,False,"[{'url': 'https://i.imgur.com/zg5I8T2.jpg'}, {'url': 'https://i.imgur.com/fQ5Usso.jpg'}, {'url': 'https://i.imgur.com/Z9ZipdN.jpg'}]",,67241,,資訊電機學院不分系榮譽班
0,233613290,大二重考,想問一下大家的意見⋯⋯⋯，大二重考會很晚嗎ಥ_ಥ，有人更晚才重考嗎⋯？,False,True,False,d43f33f9-873f-46b3-9f24-38c90056b96c,,2020-05-05T09:30:15.499Z,2020-05-05T09:30:15.499Z,21,5,False,['HIDE_THUMBNAIL'],['考試'],{'layout': 'classic'},考試,exam,False,F,國立臺北護理健康大學,,,[],"[{'id': '286f599c-f86a-4932-82f0-f5a06f1eca03', 'count': 5}]",False,,False,classic,False,False,[],,67628,,
0,233613286,《109轉考》台聯大及北大的選擇,如題 今年北大跟台聯同一天考試，想問一下如果要考商管學院的捧油，會選擇報考哪一間呢，再請各位大大替小弟解惑 感恩,False,True,False,d43f33f9-873f-46b3-9f24-38c90056b96c,,2020-05-05T09:29:54.762Z,2020-05-05T09:29:54.762Z,16,6,False,['HIDE_THUMBNAIL'],"['轉學考', '大學', '台聯大', '北大']",{'layout': 'classic'},考試,exam,False,M,國立彰化師範大學,,,[],"[{'id': '286f599c-f86a-4932-82f0-f5a06f1eca03', 'count': 6}]",False,,False,classic,False,False,[],,67650,,
0,233613213,#求問 學測原住民與一般生名額,想請問學測個人申請，該系只由學測招生，指考不收人。今錄取原住民名額一位，原住民沒有備取，若該原住民放棄就讀，名額是不是也不會回流給一般生？,False,True,False,d43f33f9-873f-46b3-9f24-38c90056b96c,,2020-05-05T09:19:29.595Z,2020-05-05T09:19:29.595Z,4,1,False,['HIDE_THUMBNAIL'],"['學測', '原住民', '名額', '考試', '備取']",{'layout': 'classic'},考試,exam,False,M,英國萊斯特大學,,,[],"[{'id': '286f599c-f86a-4932-82f0-f5a06f1eca03', 'count': 1}]",False,,False,classic,False,False,[],,68277,,
0,233613170,二階在校成績,二階在校成績佔很重嗎？一～二年級大概25%，高三上有一陣子得流感、痲疹，請假請太多，有3科超過1/3結果0分⋯，變80多%，高三下努力回到25%左右，會因為這樣扣分嗎⋯⋯，我很緊張，拜託不要嗆我🥺,False,False,False,d43f33f9-873f-46b3-9f24-38c90056b96c,,2020-05-05T09:12:48.569Z,2020-05-05T09:12:48.569Z,9,0,True,['HIDE_THUMBNAIL'],['考試'],{'layout': 'classic'},考試,exam,False,F,Joanna,,,[],[],False,,False,classic,False,False,[],,68679,,dream100
0,233612994,詢問log,為什麼log3+log7不是log10=1，log3+log7，=log（3+7）（把log提出來），=log10，=1，我要重考學測，可是解答說是log21=1.322，請問我是哪裡算錯了，有學測數,False,True,False,d43f33f9-873f-46b3-9f24-38c90056b96c,,2020-05-05T08:44:21.378Z,2020-05-05T08:44:21.378Z,43,6,False,[],"['考試', '重考', '學測']",{'layout': 'classic'},考試,exam,False,M,開南大學,,,[],"[{'id': '286f599c-f86a-4932-82f0-f5a06f1eca03', 'count': 6}]",False,,False,classic,False,False,[],,70388,,
0,233612990,二技,高科大二技不是5/4開始網路報名嗎怎麼今天找不到了？是申請滿了嗎,False,True,False,d43f33f9-873f-46b3-9f24-38c90056b96c,,2020-05-05T08:43:48.993Z,2020-05-05T08:44:10.313Z,0,0,False,['HIDE_THUMBNAIL'],['二技'],{'layout': 'classic'},考試,exam,False,M,樹人醫護管理專科學校,,,[],[],False,,False,classic,False,False,[],,70422,,
0,233612738,二技護理 200上下,想問各位學長姐今年考200左右有什麼學校可以報，謝謝，目前想看看輔英，中台，國40 英30 專一58 專二80,False,False,False,d43f33f9-873f-46b3-9f24-38c90056b96c,,2020-05-05T08:02:57.023Z,2020-05-05T08:30:43.281Z,2,4,True,['HIDE_THUMBNAIL'],"['護理', '二技', '考試']",{'layout': 'classic'},考試,exam,False,M,IrisEva,,,[],"[{'id': '286f599c-f86a-4932-82f0-f5a06f1eca03', 'count': 4}]",False,,False,classic,False,False,[],,72875,,iris0914
0,233612714,楊雲明個經問題,想問上面這題的安定性 季芬財因為財貨為劣等財 且所得效果大於替代效果 得知價格下降X財需求量會下降 為什麼需求線比較陡會處於安定啊？還有p.42下方第一點跟p.50圖3-5，根據上面可以得知 季芬財的,False,True,False,d43f33f9-873f-46b3-9f24-38c90056b96c,,2020-05-05T07:58:48.180Z,2020-05-05T10:38:39.369Z,3,0,False,[],"['考試', '經濟']",{'layout': 'classic'},考試,exam,False,M,逢甲大學,,,"[{'id': '7e38c396-d281-4265-831b-54f483c445a6', 'url': 'https://i.imgur.com/MK5LY6Ul.jpg', 'normalizedUrl': 'https://i.imgur.com/MK5LY6Ul.jpg', 'thumbnail': 'https://i.imgur.com/MK5LY6Ul.jpg', 'type': 'image/thumbnail', 'tags': ['ANNOTATED'], 'createdAt': '2020-05-05T07:58:48.180Z', 'updatedAt': '2020-05-05T10:38:39.369Z'}, {'id': '7e38c396-d281-4265-831b-54f483c445a6', 'url': 'https://i.imgur.com/MK5LY6U.jpg', 'normalizedUrl': 'https://imgur.com/MK5LY6U', 'thumbnail': 'https://i.imgur.com/MK5LY6Ul.jpg', 'type': 'image/imgur', 'tags': ['ANNOTATED'], 'createdAt': '2020-05-05T07:58:48.180Z', 'updatedAt': '2020-05-05T10:38:39.369Z'}, {'id': 'db723840-6a2c-4cf7-867f-89503f210111', 'url': 'https://i.imgur.com/u8vwYWP.jpg', 'normalizedUrl': 'https://imgur.com/u8vwYWP', 'thumbnail': 'https://i.imgur.com/u8vwYWPl.jpg', 'type': 'image/imgur', 'tags': ['ANNOTATED'], 'createdAt': '2020-05-05T07:58:48.180Z', 'updatedAt': '2020-05-05T10:38:39.369Z'}, {'id': 'b20fbd1a-63e4-4aac-84dd-61ee0c83a8de', 'url': 'https://i.imgur.com/unAcMsj.jpg', 'normalizedUrl': 'https://imgur.com/unAcMsj', 'thumbnail': 'https://i.imgur.com/unAcMsjl.jpg', 'type': 'image/imgur', 'tags': ['ANNOTATED'], 'createdAt': '2020-05-05T07:58:48.180Z', 'updatedAt': '2020-05-05T10:38:39.369Z'}]",[],False,,False,classic,True,False,"[{'url': 'https://i.imgur.com/MK5LY6U.jpg'}, {'url': 'https://i.imgur.com/u8vwYWP.jpg'}, {'url': 'https://i.imgur.com/unAcMsj.jpg'}]",,73125,,
0,233612678,#問 政大政治v.s.外交,安安 我是明年要報轉學考的，爬文看到很多政大外交都很不推自己的系，好像因為師資的關係？顏色？課很廢？都說政治系教授能學得更多，因為我是未來想考外特，但現在看這樣其實很疑慮外交系到底有沒有那麼差，真的一,False,True,False,d43f33f9-873f-46b3-9f24-38c90056b96c,,2020-05-05T07:53:10.498Z,2020-05-05T07:53:10.498Z,9,7,False,['HIDE_THUMBNAIL'],"['轉學考', '政大']",{'layout': 'classic'},考試,exam,False,F,文藻外語大學,,,[],"[{'id': '286f599c-f86a-4932-82f0-f5a06f1eca03', 'count': 7}]",False,,False,classic,False,False,[],,73464,,
0,233612677,台南護專 轉學考,請問今年暑假有一升二年級轉學的名額嗎 鞥上網找不到qq,False,True,False,d43f33f9-873f-46b3-9f24-38c90056b96c,,2020-05-05T07:53:09.734Z,2020-05-05T07:53:09.734Z,0,0,False,['HIDE_THUMBNAIL'],['轉學'],{'layout': 'classic'},考試,exam,False,F,中華醫事科技大學,,,[],[],False,,False,classic,False,False,[],,73466,,
0,233612394,企管轉學考,已經上網爬過轉學考的文章了，也準備好備審資料了，目標輔仁，世新的報名已經開始倒數了，想問問上的機率大嗎，有其他好轉的學校嗎,False,False,False,d43f33f9-873f-46b3-9f24-38c90056b96c,,2020-05-05T07:04:51.480Z,2020-05-05T07:04:51.480Z,3,4,True,['HIDE_THUMBNAIL'],['轉學考'],{'layout': 'classic'},考試,exam,False,F,可愛的小可愛🥰🥰,,,[],"[{'id': '286f599c-f86a-4932-82f0-f5a06f1eca03', 'count': 4}]",False,,False,classic,False,False,[],,76366,,wanyix123
0,233612335,警大考試,幫朋友問，警大體檢除了從報名系統印下來的東西還有要另外帶什麼嗎？有什麼要注意的事情嗎（例如：體檢前一天有什麼規定之類的）？,False,True,False,d43f33f9-873f-46b3-9f24-38c90056b96c,,2020-05-05T06:54:46.791Z,2020-05-05T06:54:46.791Z,0,1,False,['HIDE_THUMBNAIL'],"['警大', '考試', '分享', '申請']",{'layout': 'classic'},考試,exam,False,M,國立彰化師範大學,,,[],"[{'id': '286f599c-f86a-4932-82f0-f5a06f1eca03', 'count': 1}]",False,,False,classic,False,False,[],,76972,,
0,233612324,#轉學考#大二,想請問有準備過屏東大學寒轉和暑轉的同學，或，者有錄取過的各位，會很難錄取嗎～（個人是想轉理學院聯招的，如果用書面審查的方式，要怎麼準備才有可能錄取，麻煩各位參加過朋友們提供一點意見了，感激不盡了~~,False,False,False,d43f33f9-873f-46b3-9f24-38c90056b96c,,2020-05-05T06:52:04.668Z,2020-05-05T06:57:43.850Z,6,9,True,[],"['屏東大學', '轉學考', '考試']",{'layout': 'classic'},考試,exam,False,F,柏花,,,[],"[{'id': '286f599c-f86a-4932-82f0-f5a06f1eca03', 'count': 9}]",False,,False,classic,False,False,[],,77135,,rogerfans
0,233612192,逢甲轉北大值得嗎.... 有過去的學長姐能分享嗎,,False,True,False,d43f33f9-873f-46b3-9f24-38c90056b96c,233610414,2020-05-05T06:25:42.672Z,2020-05-05T06:25:42.672Z,42,4,False,[],[],{'crossPostId': 233610414},考試,exam,False,M,逢甲大學,不爽就轉學阿,,[],"[{'id': 'e8e6bc5d-41b0-4129-b134-97507523d7ff', 'count': 2}, {'id': '286f599c-f86a-4932-82f0-f5a06f1eca03', 'count': 1}, {'id': '514c2569-fd53-4d9d-a415-bf0f88e7329f', 'count': 1}]",False,,False,classic,False,False,[],,78679,,
0,233612133,#Toeic 追加報名,剛剛去看，系統已經開放報名，需要的快去報吧！,False,True,False,d43f33f9-873f-46b3-9f24-38c90056b96c,,2020-05-05T06:15:08.132Z,2020-05-05T06:15:08.132Z,0,2,False,[],"['TOEIC', '考試']",{'layout': 'classic'},考試,exam,False,M,國立澎湖科技大學,,,[],"[{'id': '286f599c-f86a-4932-82f0-f5a06f1eca03', 'count': 2}]",False,,False,classic,False,False,[],,79354,,
0,233612071,心理系歷屆試題,大家好，因為小女子決定要改變目標，這些心理系轉學考歷屆試題完全用不到，想要提供給要考心理系的戰士們！！，目前有：台綜大：107-108心統+100-108心概，政大：101-104+108心統+99、,False,False,False,d43f33f9-873f-46b3-9f24-38c90056b96c,,2020-05-05T06:04:33.684Z,2020-05-05T06:04:33.684Z,13,3,False,[],"['心理系', '歷屆試題', '考試', '轉學考', '大學']",{'layout': 'classic'},考試,exam,False,F,大仁科技大學,,,[],"[{'id': '286f599c-f86a-4932-82f0-f5a06f1eca03', 'count': 2}, {'id': '4b018f48-e184-445f-adf1-fc8e04ba09b9', 'count': 1}]",False,,False,classic,False,False,[],,79990,,護理系
0,233612066,統測藥學,想知道這次統測想填去嘉藥的人是多少？或是想直接去大仁的人是幾個，分別是要推甄或是甄選？,False,True,False,d43f33f9-873f-46b3-9f24-38c90056b96c,,2020-05-05T06:03:30.207Z,2020-05-05T06:03:30.207Z,6,7,False,[],"['藥學', '統測', '考試']",{'layout': 'classic'},考試,exam,False,F,嘉南藥理大學,,,[],"[{'id': '286f599c-f86a-4932-82f0-f5a06f1eca03', 'count': 7}]",False,,False,classic,False,False,[],,80055,,
0,233612033,二技想上輔英跟弘光有機會嗎？,我的二技成績是204，想問有沒有機會可以上輔英或是弘光的日間，現在有點焦慮～這次發揮的不好，求解,False,True,False,d43f33f9-873f-46b3-9f24-38c90056b96c,,2020-05-05T05:58:09.141Z,2020-05-05T05:58:09.141Z,15,2,False,['HIDE_THUMBNAIL'],"['二技', '弘光', '考試', '大學', '輔英']",{'layout': 'classic'},考試,exam,False,F,輔英科技大學,,,[],"[{'id': '286f599c-f86a-4932-82f0-f5a06f1eca03', 'count': 2}]",False,,False,classic,False,False,[],,80377,,
0,233611918,轉學考手寫題到底可不可以用畫圖的,本身打算考獸醫系轉學考，而台大的解剖生理學和嘉大的生物都是手寫答題的，作答紙往往也都有行線，但是寫這種類型的題目往往很多用圖表解釋會清楚明瞭許多。比如問月經週期體內各賀爾蒙的含量變化，若不畫出XY軸（,False,True,False,d43f33f9-873f-46b3-9f24-38c90056b96c,,2020-05-05T05:38:06.114Z,2020-05-05T05:38:44.742Z,1,3,False,[],"['考試', '轉學考', '畫圖']",{'layout': 'classic'},考試,exam,False,M,輔仁大學,,,[],"[{'id': '286f599c-f86a-4932-82f0-f5a06f1eca03', 'count': 3}]",False,,False,classic,False,False,[],,81581,,
0,233611784,問護理系二技,想請問一下，分數落在220∼240之間（因分數還沒出來所以大概算一下）大約可以選哪些學校？？,False,False,False,d43f33f9-873f-46b3-9f24-38c90056b96c,,2020-05-05T05:13:39.309Z,2020-05-05T05:13:39.309Z,6,4,False,[],"['護理', '二技', '考試']",{'layout': 'classic'},考試,exam,False,F,仁德醫護管理專科學校,,,[],"[{'id': '286f599c-f86a-4932-82f0-f5a06f1eca03', 'count': 4}]",False,,False,classic,False,False,[],,83049,,護理系
0,233611761,死都不去銀行業,我是法學院的學生 有考了幾張金融證照吧 對銀行業頗有興趣，但我商學院的朋友 都說除非台銀土銀，不然死都不要進銀行，請問是為什麼呢,False,True,False,d43f33f9-873f-46b3-9f24-38c90056b96c,,2020-05-05T05:09:30.415Z,2020-05-05T05:09:30.415Z,17,9,False,[],['銀行業'],{'layout': 'classic'},考試,exam,False,F,國立高雄大學,,,[],"[{'id': '286f599c-f86a-4932-82f0-f5a06f1eca03', 'count': 9}]",False,,False,classic,False,False,[],,83299,,
0,233611759,普化題目 緩衝溶液  (已解決),想問一下各位第31題該怎麼算，算出［HA］/［A］的比值後，好像怪怪的，還是要怎麼解才是正確的,False,True,False,d43f33f9-873f-46b3-9f24-38c90056b96c,,2020-05-05T05:09:17.568Z,2020-05-05T05:53:00.628Z,5,1,False,[],"['題目', '普化']",{'layout': 'classic'},考試,exam,False,M,高雄醫學大學,,,"[{'id': 'f1bdf13f-f9d3-4df9-bf7c-8d0963076953', 'url': 'https://i.imgur.com/CGY1ca6l.jpg', 'normalizedUrl': 'https://i.imgur.com/CGY1ca6l.jpg', 'thumbnail': 'https://i.imgur.com/CGY1ca6l.jpg', 'type': 'image/thumbnail', 'tags': ['ANNOTATED'], 'createdAt': '2020-05-05T05:09:17.568Z', 'updatedAt': '2020-05-05T05:53:00.628Z'}, {'id': 'f1bdf13f-f9d3-4df9-bf7c-8d0963076953', 'url': 'https://i.imgur.com/CGY1ca6.jpg', 'normalizedUrl': 'https://imgur.com/CGY1ca6', 'thumbnail': 'https://i.imgur.com/CGY1ca6l.jpg', 'type': 'image/imgur', 'tags': ['ANNOTATED'], 'createdAt': '2020-05-05T05:09:17.568Z', 'updatedAt': '2020-05-05T05:53:00.628Z'}]","[{'id': '286f599c-f86a-4932-82f0-f5a06f1eca03', 'count': 1}]",False,,False,classic,True,False,[{'url': 'https://i.imgur.com/CGY1ca6.jpg'}],,83313,,
0,233611566,突然發現台北高點有春季班,可是其他縣市的只有秋季班，好奇怪喔，為什麼阿,False,True,False,d43f33f9-873f-46b3-9f24-38c90056b96c,,2020-05-05T04:36:17.667Z,2020-05-05T04:36:17.667Z,4,2,False,[],['高點'],{'layout': 'classic'},考試,exam,False,M,國立東華大學,,,"[{'id': 'a2d52195-708d-4e16-b7b6-68ac16ae8db7', 'url': 'https://i.imgur.com/kn4GL6Nl.jpg', 'normalizedUrl': 'https://i.imgur.com/kn4GL6Nl.jpg', 'thumbnail': 'https://i.imgur.com/kn4GL6Nl.jpg', 'type': 'image/thumbnail', 'tags': ['ANNOTATED'], 'createdAt': '2020-05-05T04:36:17.667Z', 'updatedAt': '2020-05-05T04:36:17.667Z'}, {'id': 'a2d52195-708d-4e16-b7b6-68ac16ae8db7', 'url': 'https://i.imgur.com/kn4GL6N.png', 'normalizedUrl': 'https://imgur.com/kn4GL6N', 'thumbnail': 'https://i.imgur.com/kn4GL6Nl.jpg', 'type': 'image/imgur', 'tags': ['ANNOTATED'], 'createdAt': '2020-05-05T04:36:17.667Z', 'updatedAt': '2020-05-05T04:36:17.667Z'}]","[{'id': '286f599c-f86a-4932-82f0-f5a06f1eca03', 'count': 2}]",False,,False,classic,True,False,[{'url': 'https://i.imgur.com/kn4GL6N.png'}],,85294,,
0,233611493,致理夜間部轉學考,目前有在寫歷屆跟背單字，看到版上很多人都說不用看書就會上，但還是覺得很緊張，想請問夜間的財務金融系 國英大概要幾分才會上，（因為疫情 媽媽被裁員 在經濟考量上選擇夜間）,False,True,False,d43f33f9-873f-46b3-9f24-38c90056b96c,,2020-05-05T04:22:34.084Z,2020-05-05T04:22:34.084Z,6,1,False,['HIDE_THUMBNAIL'],"['轉學考', '考試', '夜間部', '致理科技大學']",{'layout': 'classic'},考試,exam,False,F,德明財經科技大學,,,[],"[{'id': '286f599c-f86a-4932-82f0-f5a06f1eca03', 'count': 1}]",False,,False,classic,False,False,[],,86119,,
0,233611418,成大土木 中正機械,不好意思 我想請問，這兩個科系考慮各方面你們會怎麼選擇呀...？想參考多一點意見，謝謝你們,False,True,False,d43f33f9-873f-46b3-9f24-38c90056b96c,,2020-05-05T04:07:10.912Z,2020-05-05T04:07:10.912Z,25,7,False,['HIDE_THUMBNAIL'],"['土木', '機械']",{'layout': 'classic'},考試,exam,False,F,中國醫藥大學,,,[],"[{'id': '286f599c-f86a-4932-82f0-f5a06f1eca03', 'count': 7}]",False,,False,classic,False,False,[],,87044,,
0,233611353,統測/衛護類,今年學測四科48正取某私醫 醫放系，然後統測國文78（作文估18） 英文85（選擇-10然後非選很鹹的英文忘了，翻譯應該只拼錯一個單字對那評分完全沒概念） 數學96 生物90健護88，如果要參加統測甄,False,True,False,d43f33f9-873f-46b3-9f24-38c90056b96c,,2020-05-05T03:54:15.867Z,2020-05-05T04:32:00.368Z,45,4,False,[],['統測'],{'layout': 'classic'},考試,exam,False,F,淡江大學,,,[],"[{'id': '286f599c-f86a-4932-82f0-f5a06f1eca03', 'count': 4}]",False,,False,classic,False,False,[],,87820,,
0,233611218,國考跟在校成績的關聯,想問問是不是只要有通過考試，那不管你的成績是不是很爛，只要有畢業就沒關係？另外一個是如果走律師事務所的話，在校成績會很重要嗎？就是一定要很好之類的？,False,False,False,d43f33f9-873f-46b3-9f24-38c90056b96c,,2020-05-05T03:29:53.373Z,2020-05-05T03:29:53.373Z,4,5,True,[],"['國考', '大學', '成績']",{'layout': 'classic'},考試,exam,False,F,hua,,,[],"[{'id': '286f599c-f86a-4932-82f0-f5a06f1eca03', 'count': 5}]",False,,False,classic,False,False,[],,89284,,hua2112
0,233611179,108台綜 錄取分數,想要知道A16，希望有人能提供～～～下面也歡迎貼其他組別的,False,True,False,d43f33f9-873f-46b3-9f24-38c90056b96c,,2020-05-05T03:20:46.558Z,2020-05-05T03:20:46.558Z,1,4,False,['HIDE_THUMBNAIL'],"['台綜', '考試', '轉學考']",{'layout': 'classic'},考試,exam,False,M,淡江大學,,,[],"[{'id': '286f599c-f86a-4932-82f0-f5a06f1eca03', 'count': 4}]",False,,False,classic,False,False,[],,89832,,
0,233610997,大葉英語系轉靜宜英語系好轉嗎,先說不是不喜歡大葉的哈哈哈，單純住台中想回台中生活，工作好找朋友也好找，＊＊＊可是！，我出席率偏低，上學期體育和一科學科被當！，上學期兩顆被當～這個學期剛開學沒什麼來上課，不過之後除非有事盡量不翹課～,False,False,False,d43f33f9-873f-46b3-9f24-38c90056b96c,,2020-05-05T02:46:58.811Z,2020-05-05T03:00:17.642Z,19,15,False,[],"['考試', '轉學考', '靜宜大學']",{'layout': 'classic'},考試,exam,False,M,大葉大學,,,[],"[{'id': '286f599c-f86a-4932-82f0-f5a06f1eca03', 'count': 11}, {'id': 'e8e6bc5d-41b0-4129-b134-97507523d7ff', 'count': 4}]",False,,False,classic,False,False,[],,91861,,英語學系
0,233610905,工設系學校請益,看了這篇文很想知道工設系學校的風評跟優缺點，這些學校大家給的評價怎麼樣呢？成大工設，實踐工設，大同工設，東海工設，高師工設，明志工設，朝陽工設，實踐工設據說是台灣比較好的設計系，想問問大家的想法怎麼樣,False,False,False,d43f33f9-873f-46b3-9f24-38c90056b96c,233610613,2020-05-05T02:27:02.872Z,2020-05-05T02:27:02.872Z,16,5,True,['HIDE_THUMBNAIL'],"['考試', '大學', '轉學考']",{'layout': 'classic'},考試,exam,False,F,貓但,問成大設計系！,,[],"[{'id': '286f599c-f86a-4932-82f0-f5a06f1eca03', 'count': 5}]",False,,False,classic,False,False,[],,93058,,yenyen0416
0,233610892,#長庚科大營養轉學考,本人今年大一，最近營養開放了4個名額，書審只要附上高中職成績單就好，當初登分也有想過填營養，但是國中化學成績不好所以很怕會應付不來，最後想說國立也好，當作跳板後再發展第二專長也不錯，高中有學中餐，國中,False,True,False,d43f33f9-873f-46b3-9f24-38c90056b96c,,2020-05-05T02:25:08.204Z,2020-05-05T04:47:26.777Z,8,3,False,[],"['轉學考', '考試', '重考', '長庚']",{'layout': 'classic'},考試,exam,False,F,國立臺北護理健康大學,,,[],"[{'id': '286f599c-f86a-4932-82f0-f5a06f1eca03', 'count': 3}]",False,,False,classic,False,False,[],,93173,,
0,233610867,考研強還是推甄強？,推甄在我們學校感覺就選選涼課拿到考古題的數量比別人多就這樣而已，那為什麼最後是考研比推甄不利？,False,True,False,d43f33f9-873f-46b3-9f24-38c90056b96c,,2020-05-05T02:18:17.598Z,2020-05-05T02:18:17.598Z,13,3,False,['HIDE_THUMBNAIL'],"['推甄', '考試', '研究所']",{'layout': 'classic'},考試,exam,False,M,國立中山大學,,,[],"[{'id': '286f599c-f86a-4932-82f0-f5a06f1eca03', 'count': 3}]",False,,False,classic,False,False,[],,93585,,
