﻿,id,title,excerpt,anonymousSchool,anonymousDepartment,pinned,forumId,replyId,createdAt,updatedAt,commentCount,likeCount,withNickname,tags,topics,meta,forumName,forumAlias,nsfw,gender,replyTitle,reportReason,mediaMeta,reactions,hidden,customStyle,isSuspiciousAccount,layout,withImages,withVideos,media,reportReasonText,elapsedTime,postAvatar,school,department
0,233664339,跟天蠍女約會需要注意什麼？,去年朋友聚會上認識一位蠍女，聚會過程中我們沒有太多互動，結束後覺得她是我喜歡的類型所以我主動加她ig她同意後就把我設定成摯友，（會知道是因為加完沒多久我看她的限動是綠色圈圈），一開始有一直想找話題跟她,True,True,False,4c6964fc-8b39-4480-a844-847f09e4e09d,,2020-05-13T01:54:57.458Z,2020-05-13T01:54:57.458Z,0,0,False,['HIDE_THUMBNAIL'],"['天蠍女', '約會']",{'layout': 'classic'},星座,horoscopes,False,M,,,[],[],False,,False,classic,False,False,[],,1220,,,
0,233664284,因工作壓力而分手的摩羯，是否有機會挽回？,跟魔羯男是交友軟體認識的，算蠻快在一起的，但因為他剛換新的工作，壓力很大，才在一起一個多月，約會六次而已，感覺第六次約會的時候他心事重重，問他，他說在想事情，要我不要想太多，結果他前幾天跟我說，他說他,True,True,False,4c6964fc-8b39-4480-a844-847f09e4e09d,,2020-05-13T01:32:48.921Z,2020-05-13T01:32:48.921Z,5,0,False,['HIDE_THUMBNAIL'],"['摩羯', '壓力', '處女', '男友']",{'layout': 'classic'},星座,horoscopes,False,F,,,[],[],False,,False,classic,False,False,[],,2549,,,
0,233664172,不懂處女座的忽冷忽熱,不知道是他剛失戀的關係嗎，常常都會已讀我，但有時候過好幾小時又會找我，像他昨天已讀我後我也沒再密他，後來他又問我 為什麼不找，是不是不想理他了，有時候我訊息沒回也會再密我，問他有關他跟前任問題時，也會,True,True,False,4c6964fc-8b39-4480-a844-847f09e4e09d,,2020-05-13T00:55:56.964Z,2020-05-13T01:05:15.115Z,0,1,False,['HIDE_THUMBNAIL'],"['處女座', '處女女', '處女座女孩']",{'layout': 'classic'},星座,horoscopes,False,F,,,[],"[{'id': '286f599c-f86a-4932-82f0-f5a06f1eca03', 'count': 1}]",False,,False,classic,False,False,[],,4763,,,
0,233664119,請教獅子女🦁️,當一個獅子女孩跟我說了：我不值得對她好，表示的意思？雖然心理有數，還是想問問大家的想法，謝謝各位大大,True,True,False,4c6964fc-8b39-4480-a844-847f09e4e09d,,2020-05-13T00:34:25.560Z,2020-05-13T00:34:25.560Z,0,0,False,['HIDE_THUMBNAIL'],"['獅子', '水瓶', '十二星座', '感情', '心情']",{'layout': 'classic'},星座,horoscopes,False,M,,,[],[],False,,False,classic,False,False,[],,6056,,,
0,233664112,獅子 分手後,最近跟獅子男分開了 是他分的，我知道獅子的分手都是想了很久的決定，我們分開的原因是彼此都有問題 吵架吵到累了，他覺得他自己的問題改變不了 我的問題也是，我們繼續下去不會更好，我找他當朋友 這一個禮拜我,True,True,False,4c6964fc-8b39-4480-a844-847f09e4e09d,,2020-05-13T00:32:53.950Z,2020-05-13T00:32:53.950Z,0,0,False,['HIDE_THUMBNAIL'],"['獅子', '感情', '分手']",{'layout': 'classic'},星座,horoscopes,False,F,,,[],[],False,,False,classic,False,False,[],,6149,,,
0,233663971,告白魔羯,目前想跟魔羯男告白，但在一次聊天中我們都談到自己不要作主動告白的那個（開玩笑的氣氛，目前雙方好感蠻高，會互相分享生活。對於這種魔男，大概要怎麼釣他主動告白，又或是如果我主動告白會喜歡怎麼樣的><，謝謝,False,True,False,4c6964fc-8b39-4480-a844-847f09e4e09d,,2020-05-12T23:04:32.186Z,2020-05-12T23:04:32.186Z,2,2,False,[],['魔羯'],{'layout': 'classic'},星座,horoscopes,False,F,,,[],"[{'id': '286f599c-f86a-4932-82f0-f5a06f1eca03', 'count': 2}]",False,,False,classic,False,False,[],,11452,,世新大學,
0,233663932,跟金牛男表白了,之前跟一個金牛男相處不錯 前期聊的很好 也有一起出去過 也有說一些曖昧的話 也有肢體接觸 到後期 發現他越來越晚回 甚至已讀不回 也不會主動找我 所以變成我主動找他 但他不是敷衍我就愛回不回的 過了一,True,True,False,4c6964fc-8b39-4480-a844-847f09e4e09d,,2020-05-12T22:22:08.701Z,2020-05-12T22:22:36.387Z,7,2,False,[],['金牛'],{'layout': 'classic'},星座,horoscopes,False,F,,,[],"[{'id': '286f599c-f86a-4932-82f0-f5a06f1eca03', 'count': 2}]",False,,False,classic,False,False,[],,13996,,,
0,233663908,牡羊座好難懂QQ,前陣子和牡羊座失聯，但是他沒有把我的ig跟fb刪掉，就在我昨天發了這樣的限動，早上的時候我就看到他發這樣的限動，想請問各位這是什麼意思⋯，很想主動聯絡他，但是又怕他覺得煩⋯，好難受啊,True,True,False,4c6964fc-8b39-4480-a844-847f09e4e09d,,2020-05-12T21:50:15.631Z,2020-05-12T21:50:15.631Z,7,0,False,[],"['牡羊座', '摩羯座', '星座', '曖昧', '心情']",{'layout': 'classic'},星座,horoscopes,False,F,,,"[{'id': '6a9c4661-91df-47d0-847f-b79731a585f0', 'url': 'https://megapx-assets.dcard.tw/images/a43ac1a4-9595-474f-8872-2952b415764b/160.jpeg', 'normalizedUrl': 'https://megapx-assets.dcard.tw/images/a43ac1a4-9595-474f-8872-2952b415764b/160.jpeg', 'thumbnail': 'https://megapx-assets.dcard.tw/images/a43ac1a4-9595-474f-8872-2952b415764b/160.jpeg', 'type': 'image/thumbnail', 'tags': [], 'createdAt': '2020-05-12T21:50:15.631Z', 'updatedAt': '2020-05-12T21:50:15.631Z', 'width': 106, 'height': 160}, {'id': '6a9c4661-91df-47d0-847f-b79731a585f0', 'url': 'https://megapx-assets.dcard.tw/images/a43ac1a4-9595-474f-8872-2952b415764b/640.jpeg', 'normalizedUrl': 'https://megapx.dcard.tw/v1/images/a43ac1a4-9595-474f-8872-2952b415764b', 'thumbnail': 'https://megapx-assets.dcard.tw/images/a43ac1a4-9595-474f-8872-2952b415764b/160.jpeg', 'type': 'image/megapx', 'tags': [], 'createdAt': '2020-05-12T21:50:15.631Z', 'updatedAt': '2020-05-12T21:50:15.631Z', 'width': 1242, 'height': 1877}, {'id': 'c865b3e1-c043-4444-bc0a-fec5f89d6e4e', 'url': 'https://megapx-assets.dcard.tw/images/feb0f467-0d56-4361-8476-acab90f5bca3/640.jpeg', 'normalizedUrl': 'https://megapx.dcard.tw/v1/images/feb0f467-0d56-4361-8476-acab90f5bca3', 'thumbnail': 'https://megapx-assets.dcard.tw/images/feb0f467-0d56-4361-8476-acab90f5bca3/160.jpeg', 'type': 'image/megapx', 'tags': [], 'createdAt': '2020-05-12T21:50:15.631Z', 'updatedAt': '2020-05-12T21:50:15.631Z', 'width': 1207, 'height': 2000}]",[],False,,False,classic,True,False,"[{'url': 'https://megapx-assets.dcard.tw/images/a43ac1a4-9595-474f-8872-2952b415764b/640.jpeg'}, {'url': 'https://megapx-assets.dcard.tw/images/feb0f467-0d56-4361-8476-acab90f5bca3/640.jpeg'}]",,15911,,,
0,233663894,處女男曖昧到一定程度還不談在一起是？,最近認識一個處女男 聊的還可以出去的感覺也挺不錯，他都會主動找點跟餐廳說要帶我去，後來越來越曖昧到有一次去看夜景，我們就抱抱接吻了，隔天我就有問 所以我們現在是...？他覺得還不夠了解彼此 所以順其自,True,True,False,4c6964fc-8b39-4480-a844-847f09e4e09d,,2020-05-12T21:29:27.939Z,2020-05-12T21:29:27.939Z,9,0,False,['HIDE_THUMBNAIL'],"['處女', '獅子']",{'layout': 'classic'},星座,horoscopes,False,F,,,[],[],False,,False,classic,False,False,[],,17160,,,
0,233663866,純粹發洩 自以為天秤男的曖昧,跟你每天聊天、視訊加通話，以為自己有機會跟你進一步相處，鼓起勇氣約了你見面...，但、是！，見面後你在我面前回別的女生訊息，而且很頻繁！，你笑說認識朋友，但是我在你面前耶！，然後若無其事開玩笑、嘴我，,True,True,False,4c6964fc-8b39-4480-a844-847f09e4e09d,,2020-05-12T20:59:33.255Z,2020-05-12T20:59:33.255Z,3,1,False,['HIDE_THUMBNAIL'],['天秤'],{'layout': 'classic'},星座,horoscopes,False,F,,,[],"[{'id': '286f599c-f86a-4932-82f0-f5a06f1eca03', 'count': 1}]",False,,False,classic,False,False,[],,18956,,,
0,233663637,天蠍女如何相處？,小弟最近喜歡上天蠍女，她是公司的剛進新人，下班後會用文字訊息聊到睡著，女生訊息狀態只有沒事會回，會聊到今天有部分做了什麼，但是還是單獨約不出去。這次終於用大家去打保齡球方式約了她，有時候買飲料過去請她,True,True,False,4c6964fc-8b39-4480-a844-847f09e4e09d,,2020-05-12T18:54:38.322Z,2020-05-12T18:54:38.322Z,2,1,False,['HIDE_THUMBNAIL'],"['天蠍女', '天蠍', '十二星座', '愛情', '曖昧']",{'layout': 'classic'},星座,horoscopes,False,M,,,[],"[{'id': '286f599c-f86a-4932-82f0-f5a06f1eca03', 'count': 1}]",False,,False,classic,False,False,[],,26452,,,
0,233663559,巨蟹女孩攻略,最近遇到一位心儀的巨蟹女孩，也很有話聊 也有曖昧氣氛在內，求追求攻略 及地雷區,True,True,False,4c6964fc-8b39-4480-a844-847f09e4e09d,,2020-05-12T18:34:52.641Z,2020-05-12T18:34:52.641Z,2,2,False,['HIDE_THUMBNAIL'],"['巨蟹', '感情']",{'layout': 'classic'},星座,horoscopes,False,M,,,[],"[{'id': '286f599c-f86a-4932-82f0-f5a06f1eca03', 'count': 2}]",False,,False,classic,False,False,[],,27639,,,
0,233663452,可能被雷打到的處女男好朋友,最近覺得我的處女男好哥們變得有點詭異🤔，說不上來，但就覺得我們最近的相處好像哪裡變得怪怪的🤨，我們是從同事變好麻吉，平時維持不變的「有事找才會私聊Line或在群組瞎聊的頻率」但最近忽然很熱心的管起,True,True,False,4c6964fc-8b39-4480-a844-847f09e4e09d,,2020-05-12T18:08:30.822Z,2020-05-12T18:08:30.822Z,2,1,False,['HIDE_THUMBNAIL'],"['處女', '雙魚']",{'layout': 'classic'},星座,horoscopes,False,F,,,[],"[{'id': '286f599c-f86a-4932-82f0-f5a06f1eca03', 'count': 1}]",False,,False,classic,False,False,[],,29222,,,
0,233663446,射手男搞消失。。。,如果射手男心情不好 會搞消失，或者關定位嗎 （zenly）,True,True,False,4c6964fc-8b39-4480-a844-847f09e4e09d,,2020-05-12T18:07:11.196Z,2020-05-12T18:07:11.196Z,4,1,False,['HIDE_THUMBNAIL'],"['射手', '十二星座', '愛情', '心情']",{'layout': 'classic'},星座,horoscopes,False,F,,,[],"[{'id': '286f599c-f86a-4932-82f0-f5a06f1eca03', 'count': 1}]",False,,False,classic,False,False,[],,29303,,,
0,233663435,天蠍座求救,根本以為是我打的，天蠍座真的會很愛嘴喜歡的人嗎？真的我看他跟別的女生說話都沒有對像我一樣毒舌愛嘴我，讓我其實有點難過 讓我覺得我是可以讓他那麼隨便對待的人嗎的想法浮現 看到他對別的女生不會這樣更難過 ,True,True,False,4c6964fc-8b39-4480-a844-847f09e4e09d,,2020-05-12T18:06:02.100Z,2020-05-12T18:06:02.100Z,21,0,False,[],"['天蠍座', '天蠍男', '星座', '暗戀', '曖昧']",{'layout': 'classic'},星座,horoscopes,False,F,,,"[{'id': 'c9eb49f0-b602-4ec6-82cc-448c612ed128', 'url': 'https://megapx-assets.dcard.tw/images/b7b2b4ad-1c11-43ab-b0d0-8a9fab1c722d/160.jpeg', 'normalizedUrl': 'https://megapx-assets.dcard.tw/images/b7b2b4ad-1c11-43ab-b0d0-8a9fab1c722d/160.jpeg', 'thumbnail': 'https://megapx-assets.dcard.tw/images/b7b2b4ad-1c11-43ab-b0d0-8a9fab1c722d/160.jpeg', 'type': 'image/thumbnail', 'tags': ['ANNOTATED'], 'createdAt': '2020-05-12T18:06:02.100Z', 'updatedAt': '2020-05-12T18:06:02.100Z', 'width': 160, 'height': 76}, {'id': 'c9eb49f0-b602-4ec6-82cc-448c612ed128', 'url': 'https://megapx-assets.dcard.tw/images/b7b2b4ad-1c11-43ab-b0d0-8a9fab1c722d/640.jpeg', 'normalizedUrl': 'https://megapx.dcard.tw/v1/images/b7b2b4ad-1c11-43ab-b0d0-8a9fab1c722d', 'thumbnail': 'https://megapx-assets.dcard.tw/images/b7b2b4ad-1c11-43ab-b0d0-8a9fab1c722d/160.jpeg', 'type': 'image/megapx', 'tags': ['ANNOTATED'], 'createdAt': '2020-05-12T18:06:02.100Z', 'updatedAt': '2020-05-12T18:06:02.100Z', 'width': 1359, 'height': 643}]",[],False,,False,classic,True,False,[{'url': 'https://megapx-assets.dcard.tw/images/b7b2b4ad-1c11-43ab-b0d0-8a9fab1c722d/640.jpeg'}],,29373,,,
0,233663351,雙子座的女生可以幫我解答,一個雙子座的女生從以前平平常常賴打字聊聊天到之後打電話聊天，聊天的時候有時候我自己都會嚇到，可能會突如其來說什麼寶貝啊親愛的啊什麼的還有問你一些決定的事情，譬如買東西要決定哪個、吃東西哪個好，就是一些,True,True,False,4c6964fc-8b39-4480-a844-847f09e4e09d,,2020-05-12T17:52:38.506Z,2020-05-12T17:52:38.506Z,1,1,False,['HIDE_THUMBNAIL'],['雙子座'],{'layout': 'classic'},星座,horoscopes,False,M,,,[],"[{'id': '286f599c-f86a-4932-82f0-f5a06f1eca03', 'count': 1}]",False,,False,classic,False,False,[],,30178,,,
0,233663217,巨蟹男這樣是完全拒絕了嗎...,攤牌問了曖昧半年左右的巨蟹男說：覺得我怎樣，他回：可以很要好的朋友，雖然講完有點尷尬，但之後還是一如往常地繼續聊天，他也還是會找我，由於過去的曖昧讓我還滿肯定互相是喜歡對方的，就算沒到愛但至少有男女關,True,True,False,4c6964fc-8b39-4480-a844-847f09e4e09d,,2020-05-12T17:30:15.495Z,2020-05-12T17:30:15.495Z,2,1,False,['HIDE_THUMBNAIL'],"['巨蟹', '愛情', '曖昧', '心情']",{'layout': 'classic'},星座,horoscopes,False,F,,,[],"[{'id': '286f599c-f86a-4932-82f0-f5a06f1eca03', 'count': 1}]",False,,False,classic,False,False,[],,31522,,,
0,233663046,水瓶男幫我,跟水瓶男聊天好久了，滿10個月，（但我們也認識10個月，打從交換line 2-3天就開始狂聊天），有時候覺得他忽冷忽熱，而我是學生，對方是上班族，聊天內容大概是彼此家庭、工作、生活大小事，前七個月裡，,True,True,False,4c6964fc-8b39-4480-a844-847f09e4e09d,,2020-05-12T17:00:54.955Z,2020-05-12T17:03:32.046Z,6,4,False,['HIDE_THUMBNAIL'],['水瓶'],{'layout': 'classic'},星座,horoscopes,False,F,,,[],"[{'id': '286f599c-f86a-4932-82f0-f5a06f1eca03', 'count': 4}]",False,,False,classic,False,False,[],,33284,,,
0,233663026,各星座男的眼睛,今天在買飲料時，朋友突然跟我說，我跟店員對視時的眼神，好溫柔，結果另個朋友突然說了句，她： 巨蟹男都空調 連眼神都渣，大家瞧瞧 這句話有道理嘛，以下求各星座男的眼神,True,True,False,4c6964fc-8b39-4480-a844-847f09e4e09d,,2020-05-12T16:58:35.373Z,2020-05-12T16:58:35.373Z,37,150,False,[],"['眼睛', '星座']",{'layout': 'classic'},星座,horoscopes,False,M,,,"[{'id': '862962d6-2d3a-4f39-9521-bbeb68164ec2', 'url': 'https://i.imgur.com/mGT09fTl.jpg', 'normalizedUrl': 'https://i.imgur.com/mGT09fTl.jpg', 'thumbnail': 'https://i.imgur.com/mGT09fTl.jpg', 'type': 'image/thumbnail', 'tags': ['ANNOTATED'], 'createdAt': '2020-05-12T16:58:35.373Z', 'updatedAt': '2020-05-12T16:58:35.373Z'}, {'id': '862962d6-2d3a-4f39-9521-bbeb68164ec2', 'url': 'https://i.imgur.com/mGT09fT.jpg', 'normalizedUrl': 'https://imgur.com/mGT09fT', 'thumbnail': 'https://i.imgur.com/mGT09fTl.jpg', 'type': 'image/imgur', 'tags': ['ANNOTATED'], 'createdAt': '2020-05-12T16:58:35.373Z', 'updatedAt': '2020-05-12T16:58:35.373Z'}]","[{'id': '286f599c-f86a-4932-82f0-f5a06f1eca03', 'count': 143}, {'id': 'e8e6bc5d-41b0-4129-b134-97507523d7ff', 'count': 7}]",False,,False,classic,True,False,[{'url': 'https://i.imgur.com/mGT09fT.jpg'}],,33425,,,
0,233662963,請教蠍女~,我跟蠍女是在學校認識，在某些課是同學關係，每個星期都會見幾次面，因為她常常坐在前排是個很認真的人，我被她認真的態度吸引，覺得她是一個很努力上進的人，我自己本身也是很認真在學習上面，雖然主要不是為了吸引,True,True,False,4c6964fc-8b39-4480-a844-847f09e4e09d,,2020-05-12T16:48:52.080Z,2020-05-12T17:01:01.145Z,2,3,False,[],"['蠍女', '天蠍']",{'layout': 'classic'},星座,horoscopes,False,M,,,[],"[{'id': '286f599c-f86a-4932-82f0-f5a06f1eca03', 'count': 3}]",False,,False,classic,False,False,[],,34010,,,
0,233662687,#問 為什麼金牛突然冷淡,平常跟金牛閨蜜感情很好，平常她都秒讀秒回，也不會已讀我，前兩天我跟她說事情，我只說到一半，她也一直問，我只有已讀她，從那時候她都不太理我，回的很敷衍，或者已讀很久才回，她是怎麼了然後還傳line的遊戲,True,True,False,4c6964fc-8b39-4480-a844-847f09e4e09d,,2020-05-12T16:11:26.406Z,2020-05-12T16:11:26.406Z,10,5,False,['HIDE_THUMBNAIL'],"['金牛', '感情']",{'layout': 'classic'},星座,horoscopes,False,F,,,[],"[{'id': '286f599c-f86a-4932-82f0-f5a06f1eca03', 'count': 5}]",False,,False,classic,False,False,[],,36257,,,
0,233662671,其實我很討厭自己是天蠍座,我不知道是不是所有的天蠍都和我一樣，每當我遇到一個不錯的對象或者一段不錯的關係，因為一切都看似太美好而懷疑真實性，懷疑自己是否能被真心對待，我就會開始冷淡 逃避 斷離，害怕自己再一次受傷而本能的做出傷,True,True,False,4c6964fc-8b39-4480-a844-847f09e4e09d,,2020-05-12T16:08:57.966Z,2020-05-12T16:08:57.966Z,8,11,False,['HIDE_THUMBNAIL'],"['天蠍座', '天蠍']",{'layout': 'classic'},星座,horoscopes,False,F,,,[],"[{'id': '286f599c-f86a-4932-82f0-f5a06f1eca03', 'count': 11}]",False,,False,classic,False,False,[],,36406,,,
0,233662524,請教天蠍男,我是射手女，我們在一起三個月了，他追我的，1.天蠍交往前後差很多嘛？交往前 餓了嘛帶你吃，交往後 車在那自己騎，2.提分手是說真的嘛？我們在快三個月其實有吵架，他生氣離家出走（當時因為女生吵架，他密別,True,True,False,4c6964fc-8b39-4480-a844-847f09e4e09d,,2020-05-12T15:50:05.136Z,2020-05-12T15:50:05.136Z,3,1,False,['HIDE_THUMBNAIL'],"['天蠍', '射手']",{'layout': 'classic'},星座,horoscopes,False,F,,,[],"[{'id': '286f599c-f86a-4932-82f0-f5a06f1eca03', 'count': 1}]",False,,False,classic,False,False,[],,37540,,,
0,233662408,天秤男,我和我的天秤男在一起兩年多，也住在一起兩年多他從來沒讓我做過任何家事，對我很好我想要做的任何事都無條件的答應，明明同樣都是天秤但我特別愛胡思亂想，總是覺得他對我和對別人都一樣都很好！，我並沒有那麼特別,True,True,False,4c6964fc-8b39-4480-a844-847f09e4e09d,,2020-05-12T15:34:01.814Z,2020-05-12T15:34:01.814Z,20,4,False,['HIDE_THUMBNAIL'],['天秤'],{'layout': 'classic'},星座,horoscopes,False,F,,,[],"[{'id': '286f599c-f86a-4932-82f0-f5a06f1eca03', 'count': 4}]",False,,False,classic,False,False,[],,38505,,,
0,233662196,怎麼拉近跟害羞母胎單摩羯男的距離？,跟摩羯男認識半年左右了，最近才開始有交談，之前都會看到他在看我，就可能剛好看向他發現他早就在看我了這樣，有一次還互看了好幾秒還是我先不好意思別開頭的，我知道他在圖書館都會固定坐在某個位子，但有一次明明,True,True,False,4c6964fc-8b39-4480-a844-847f09e4e09d,,2020-05-12T15:06:02.962Z,2020-05-12T16:54:34.643Z,4,6,False,['HIDE_THUMBNAIL'],"['摩羯', '曖昧', '魔羯']",{'layout': 'classic'},星座,horoscopes,False,F,,,[],"[{'id': '286f599c-f86a-4932-82f0-f5a06f1eca03', 'count': 6}]",False,,False,classic,False,False,[],,40185,,,
0,233662133,求解射手男,請問版上各位射手座分析大師們，射手男不讀不回Line 但回覆我限時是什麼意鼠，後來我也有回覆他 但被已讀...？^_^，不讀不回是前幾天他突然說好像很久沒見到我，以為他終於有時間要約我了！，所以我回：,False,True,False,4c6964fc-8b39-4480-a844-847f09e4e09d,,2020-05-12T14:59:08.055Z,2020-05-13T01:59:47.147Z,6,4,False,[],"['射手', '射手男']",{'layout': 'classic'},星座,horoscopes,False,F,,,[],"[{'id': '286f599c-f86a-4932-82f0-f5a06f1eca03', 'count': 4}]",False,,False,classic,False,False,[],,40601,,輔仁大學,
0,233662096,巨蟹男求解,交往兩年的巨蟹閃光，最近帶我去見他爸媽，後來聽他說，是他爸媽一直碎碎唸說想見我，他才帶我去見。聽起來他爸媽沒提，他可能就不會「主動」帶我見家長🤔 感覺他心裡是不是沒很認定我啊？巨蟹男認定對方是未來的,True,True,False,4c6964fc-8b39-4480-a844-847f09e4e09d,,2020-05-12T14:53:39.214Z,2020-05-12T14:53:39.214Z,2,7,False,[],"['巨蟹', '男友', '家長', '天秤']",{'layout': 'classic'},星座,horoscopes,False,F,,,[],"[{'id': '286f599c-f86a-4932-82f0-f5a06f1eca03', 'count': 7}]",False,,False,classic,False,False,[],,40931,,,
0,233662019,水瓶男 請進！,如果分手是因為吵架分開 後面男方說感覺淡掉了 適合去找他當面挽回嗎🥺，分手是女生提的 因為水瓶冷暴力 有點衝動提分開的,True,True,False,4c6964fc-8b39-4480-a844-847f09e4e09d,,2020-05-12T14:42:09.411Z,2020-05-12T14:42:09.411Z,2,2,False,['HIDE_THUMBNAIL'],"['水瓶', '心情', '星座']",{'layout': 'classic'},星座,horoscopes,False,F,,,[],"[{'id': '286f599c-f86a-4932-82f0-f5a06f1eca03', 'count': 2}]",False,,False,classic,False,False,[],,41622,,,
0,233661916,#不專業星座分析 尋找你的代表動漫人物,不太確定要發動漫還是星座版，總之是兩者相關！，最近重溫喜歡的經典作品，小女子我也更新了幾部熱門動畫～再加上最近開始迷上看星座運勢，就開始做了動漫角色與星座性格整理，因此⋯，登～登～登～登，來看看你的動,True,True,False,4c6964fc-8b39-4480-a844-847f09e4e09d,,2020-05-12T14:30:01.051Z,2020-05-12T23:36:27.638Z,25,78,False,[],"['星座', '動漫', '十二星座', '動漫周邊']",{'layout': 'classic'},星座,horoscopes,False,F,,,"[{'id': '4919cf62-e2ca-44cc-8c35-9cebbfbdef22', 'url': 'https://megapx-assets.dcard.tw/images/9e0267d6-e37b-4fb9-8ac1-c91c72909b4f/160.jpeg', 'normalizedUrl': 'https://megapx-assets.dcard.tw/images/9e0267d6-e37b-4fb9-8ac1-c91c72909b4f/160.jpeg', 'thumbnail': 'https://megapx-assets.dcard.tw/images/9e0267d6-e37b-4fb9-8ac1-c91c72909b4f/160.jpeg', 'type': 'image/thumbnail', 'tags': ['ANNOTATED'], 'createdAt': '2020-05-12T14:30:01.051Z', 'updatedAt': '2020-05-12T23:36:27.638Z', 'width': 160, 'height': 90}, {'id': '4919cf62-e2ca-44cc-8c35-9cebbfbdef22', 'url': 'https://megapx-assets.dcard.tw/images/9e0267d6-e37b-4fb9-8ac1-c91c72909b4f/full.jpeg', 'normalizedUrl': 'https://megapx.dcard.tw/v1/images/9e0267d6-e37b-4fb9-8ac1-c91c72909b4f', 'thumbnail': 'https://megapx-assets.dcard.tw/images/9e0267d6-e37b-4fb9-8ac1-c91c72909b4f/160.jpeg', 'type': 'image/megapx', 'tags': ['ANNOTATED'], 'createdAt': '2020-05-12T14:30:01.051Z', 'updatedAt': '2020-05-12T23:36:27.638Z', 'width': 558, 'height': 314}, {'id': '34666fcc-1920-42f2-b948-457a8083d2bb', 'url': 'https://megapx-assets.dcard.tw/images/c437901d-57c6-49ea-a18d-aac586cb8f29/full.jpeg', 'normalizedUrl': 'https://megapx.dcard.tw/v1/images/c437901d-57c6-49ea-a18d-aac586cb8f29', 'thumbnail': 'https://megapx-assets.dcard.tw/images/c437901d-57c6-49ea-a18d-aac586cb8f29/160.jpeg', 'type': 'image/megapx', 'tags': ['ANNOTATED'], 'createdAt': '2020-05-12T14:30:01.051Z', 'updatedAt': '2020-05-12T23:36:27.638Z', 'width': 572, 'height': 322}, {'id': '57987e62-3d07-40b3-a500-ef0928799d40', 'url': 'https://megapx-assets.dcard.tw/images/deadc4da-9660-435d-8b4f-0344c9c1944f/full.jpeg', 'normalizedUrl': 'https://megapx.dcard.tw/v1/images/deadc4da-9660-435d-8b4f-0344c9c1944f', 'thumbnail': 'https://megapx-assets.dcard.tw/images/deadc4da-9660-435d-8b4f-0344c9c1944f/160.jpeg', 'type': 'image/megapx', 'tags': ['ANNOTATED'], 'createdAt': '2020-05-12T14:30:01.051Z', 'updatedAt': '2020-05-12T23:36:27.638Z', 'width': 480, 'height': 270}, {'id': 'a45992b8-cd5a-4d08-a4bc-6a3e213d62aa', 'url': 'https://megapx-assets.dcard.tw/images/c9ebb4c4-3849-4405-b133-1086f3d538f7/640.jpeg', 'normalizedUrl': 'https://megapx.dcard.tw/v1/images/c9ebb4c4-3849-4405-b133-1086f3d538f7', 'thumbnail': 'https://megapx-assets.dcard.tw/images/c9ebb4c4-3849-4405-b133-1086f3d538f7/160.jpeg', 'type': 'image/megapx', 'tags': ['ANNOTATED'], 'createdAt': '2020-05-12T14:30:01.051Z', 'updatedAt': '2020-05-12T23:36:27.638Z', 'width': 670, 'height': 376}, {'id': '995f545a-4f82-48c5-b4d3-f1e9b35067ba', 'url': 'https://megapx-assets.dcard.tw/images/561db0bf-2fcb-4256-bc08-e98c614830ea/full.jpeg', 'normalizedUrl': 'https://megapx.dcard.tw/v1/images/561db0bf-2fcb-4256-bc08-e98c614830ea', 'thumbnail': 'https://megapx-assets.dcard.tw/images/561db0bf-2fcb-4256-bc08-e98c614830ea/160.jpeg', 'type': 'image/megapx', 'tags': ['ANNOTATED'], 'createdAt': '2020-05-12T14:30:01.051Z', 'updatedAt': '2020-05-12T23:36:27.638Z', 'width': 568, 'height': 318}, {'id': '04157d0a-82af-415f-9116-b31e925ab2ab', 'url': 'https://megapx-assets.dcard.tw/images/87fce8f1-4906-4a72-b809-83838501c48f/full.jpeg', 'normalizedUrl': 'https://megapx.dcard.tw/v1/images/87fce8f1-4906-4a72-b809-83838501c48f', 'thumbnail': 'https://megapx-assets.dcard.tw/images/87fce8f1-4906-4a72-b809-83838501c48f/160.jpeg', 'type': 'image/megapx', 'tags': ['ANNOTATED'], 'createdAt': '2020-05-12T14:30:01.051Z', 'updatedAt': '2020-05-12T23:36:27.638Z', 'width': 616, 'height': 348}, {'id': 'b93c0b7b-6f57-459e-b530-3818fec4d9f9', 'url': 'https://megapx-assets.dcard.tw/images/e5a82838-9fe0-469f-bbb9-1b0aa7ff2894/640.jpeg', 'normalizedUrl': 'https://megapx.dcard.tw/v1/images/e5a82838-9fe0-469f-bbb9-1b0aa7ff2894', 'thumbnail': 'https://megapx-assets.dcard.tw/images/e5a82838-9fe0-469f-bbb9-1b0aa7ff2894/160.jpeg', 'type': 'image/megapx', 'tags': ['ANNOTATED'], 'createdAt': '2020-05-12T14:30:01.051Z', 'updatedAt': '2020-05-12T23:36:27.638Z', 'width': 706, 'height': 380}, {'id': '94761f60-98c8-4404-bbcb-b71c4f80faba', 'url': 'https://megapx-assets.dcard.tw/images/bdaee708-7d52-4b1c-9179-2406a4fc3ba2/full.jpeg', 'normalizedUrl': 'https://megapx.dcard.tw/v1/images/bdaee708-7d52-4b1c-9179-2406a4fc3ba2', 'thumbnail': 'https://megapx-assets.dcard.tw/images/bdaee708-7d52-4b1c-9179-2406a4fc3ba2/160.jpeg', 'type': 'image/megapx', 'tags': ['ANNOTATED'], 'createdAt': '2020-05-12T14:30:01.051Z', 'updatedAt': '2020-05-12T23:36:27.638Z', 'width': 624, 'height': 264}, {'id': '99d12333-37cb-4556-b159-29f6bc787c3b', 'url': 'https://megapx-assets.dcard.tw/images/b3adf0bc-4cbd-427a-a3b5-b8e57d8be5e7/full.jpeg', 'normalizedUrl': 'https://megapx.dcard.tw/v1/images/b3adf0bc-4cbd-427a-a3b5-b8e57d8be5e7', 'thumbnail': 'https://megapx-assets.dcard.tw/images/b3adf0bc-4cbd-427a-a3b5-b8e57d8be5e7/160.jpeg', 'type': 'image/megapx', 'tags': ['ANNOTATED'], 'createdAt': '2020-05-12T14:30:01.051Z', 'updatedAt': '2020-05-12T23:36:27.638Z', 'width': 538, 'height': 334}, {'id': '28ca0b34-dc57-4de2-9f18-88ab4e8d7943', 'url': 'https://megapx-assets.dcard.tw/images/da483ca9-b4a2-4231-8a77-c85ecc7bb339/full.jpeg', 'normalizedUrl': 'https://megapx.dcard.tw/v1/images/da483ca9-b4a2-4231-8a77-c85ecc7bb339', 'thumbnail': 'https://megapx-assets.dcard.tw/images/da483ca9-b4a2-4231-8a77-c85ecc7bb339/160.jpeg', 'type': 'image/megapx', 'tags': ['ANNOTATED'], 'createdAt': '2020-05-12T14:30:01.051Z', 'updatedAt': '2020-05-12T23:36:27.638Z', 'width': 478, 'height': 300}, {'id': 'cbfc2474-f57a-4969-a6df-9f8b1ca5b2ab', 'url': 'https://megapx-assets.dcard.tw/images/3ff5314b-126c-4cac-bab2-598375d3b89a/full.jpeg', 'normalizedUrl': 'https://megapx.dcard.tw/v1/images/3ff5314b-126c-4cac-bab2-598375d3b89a', 'thumbnail': 'https://megapx-assets.dcard.tw/images/3ff5314b-126c-4cac-bab2-598375d3b89a/160.jpeg', 'type': 'image/megapx', 'tags': ['ANNOTATED'], 'createdAt': '2020-05-12T14:30:01.051Z', 'updatedAt': '2020-05-12T23:36:27.638Z', 'width': 578, 'height': 326}, {'id': 'f609ecdc-384c-4f9d-a79e-fdcfe32ea515', 'url': 'https://megapx-assets.dcard.tw/images/6629d010-c192-4d8e-b29c-57165b5fd845/full.jpeg', 'normalizedUrl': 'https://megapx.dcard.tw/v1/images/6629d010-c192-4d8e-b29c-57165b5fd845', 'thumbnail': 'https://megapx-assets.dcard.tw/images/6629d010-c192-4d8e-b29c-57165b5fd845/160.jpeg', 'type': 'image/megapx', 'tags': ['ANNOTATED'], 'createdAt': '2020-05-12T14:30:01.051Z', 'updatedAt': '2020-05-12T23:36:27.638Z', 'width': 580, 'height': 326}]","[{'id': '286f599c-f86a-4932-82f0-f5a06f1eca03', 'count': 78}]",False,,False,classic,True,False,"[{'url': 'https://megapx-assets.dcard.tw/images/9e0267d6-e37b-4fb9-8ac1-c91c72909b4f/full.jpeg'}, {'url': 'https://megapx-assets.dcard.tw/images/c437901d-57c6-49ea-a18d-aac586cb8f29/full.jpeg'}, {'url': 'https://megapx-assets.dcard.tw/images/deadc4da-9660-435d-8b4f-0344c9c1944f/full.jpeg'}, {'url': 'https://megapx-assets.dcard.tw/images/c9ebb4c4-3849-4405-b133-1086f3d538f7/640.jpeg'}, {'url': 'https://megapx-assets.dcard.tw/images/561db0bf-2fcb-4256-bc08-e98c614830ea/full.jpeg'}, {'url': 'https://megapx-assets.dcard.tw/images/87fce8f1-4906-4a72-b809-83838501c48f/full.jpeg'}, {'url': 'https://megapx-assets.dcard.tw/images/e5a82838-9fe0-469f-bbb9-1b0aa7ff2894/640.jpeg'}, {'url': 'https://megapx-assets.dcard.tw/images/bdaee708-7d52-4b1c-9179-2406a4fc3ba2/full.jpeg'}, {'url': 'https://megapx-assets.dcard.tw/images/b3adf0bc-4cbd-427a-a3b5-b8e57d8be5e7/full.jpeg'}, {'url': 'https://megapx-assets.dcard.tw/images/da483ca9-b4a2-4231-8a77-c85ecc7bb339/full.jpeg'}, {'url': 'https://megapx-assets.dcard.tw/images/3ff5314b-126c-4cac-bab2-598375d3b89a/full.jpeg'}, {'url': 'https://megapx-assets.dcard.tw/images/6629d010-c192-4d8e-b29c-57165b5fd845/full.jpeg'}]",,42352,,,
0,233661674,獅子男,最近跟分手一年的獅子又聯絡上了，當初分的時候不太開心，後來又聯繫上感覺他還蠻...開心的（？問我有沒有想跟他說什麼都可以，他本身個性比較怪，就是很活在自己世界也不太回訊息的人，甚至是會直接不理人，不過,True,True,False,4c6964fc-8b39-4480-a844-847f09e4e09d,,2020-05-12T13:56:27.958Z,2020-05-12T13:56:27.958Z,0,5,False,['HIDE_THUMBNAIL'],"['獅子', '牡羊']",{'layout': 'classic'},星座,horoscopes,False,F,,,[],"[{'id': '286f599c-f86a-4932-82f0-f5a06f1eca03', 'count': 5}]",False,,False,classic,False,False,[],,44366,,,
0,233661540,#問 天秤男到底在想什麼,認識了一位天秤男，做了情侶間會有的親密舉動，抱過也親過了，但沒有確認關係，然後今天突然跟我說，要介紹他朋友給我認識-.-，是那種要牽線的認識喔，我整個人傻眼！！！，林老師耍我膩？？？幹我是不是遇到渣男,True,True,False,4c6964fc-8b39-4480-a844-847f09e4e09d,,2020-05-12T13:35:23.765Z,2020-05-12T13:35:23.765Z,6,4,False,[],['天秤'],{'layout': 'classic'},星座,horoscopes,False,F,,,[],"[{'id': '286f599c-f86a-4932-82f0-f5a06f1eca03', 'count': 4}]",False,,False,classic,False,False,[],,45593,,,
0,233661481,天秤男,各個星座解釋都說天秤懶，想請問，在一起久了他們就會懶得去經營嗎？剛在一起的時候幾天不見都還會專程跑來找我，可是現在根本沒有這種可能..........,True,True,False,4c6964fc-8b39-4480-a844-847f09e4e09d,,2020-05-12T13:26:15.918Z,2020-05-12T13:26:15.918Z,12,1,False,['HIDE_THUMBNAIL'],"['天秤', '射手', '十二星座', '愛情', '感情']",{'layout': 'classic'},星座,horoscopes,False,F,,,[],"[{'id': '286f599c-f86a-4932-82f0-f5a06f1eca03', 'count': 1}]",False,,False,classic,False,False,[],,46143,,,
0,233661408,問牛男,想問如果跟牛男約見面的時候，他有時會找他最好的朋友一起在旁邊，是因為他怕尷尬覺得難為情不想自己面對我，還是有其他的意思，目前這個牛男每天都會跟我說早安晚安還有報備他在幹嘛,True,True,False,4c6964fc-8b39-4480-a844-847f09e4e09d,,2020-05-12T13:14:51.543Z,2020-05-12T13:14:51.543Z,8,1,False,[],['金牛'],{'layout': 'classic'},星座,horoscopes,False,F,,,[],"[{'id': '286f599c-f86a-4932-82f0-f5a06f1eca03', 'count': 1}]",False,,False,classic,False,False,[],,46829,,,
0,233661377,天秤女請進！,我是魔羯男，這陣子喜歡上天秤女，也聊天聊滿久的，想問秤女喜歡怎麼樣的男生呢？因為我真的很喜歡他,True,True,False,4c6964fc-8b39-4480-a844-847f09e4e09d,,2020-05-12T13:11:27.696Z,2020-05-12T13:11:27.696Z,13,5,False,[],"['天秤', '天秤女', '天秤女孩', '天秤女喜歡', '天秤男女友']",{'layout': 'classic'},星座,horoscopes,False,M,,,[],"[{'id': '286f599c-f86a-4932-82f0-f5a06f1eca03', 'count': 5}]",False,,False,classic,False,False,[],,47034,,,
0,233661374,獅子男求解！,獅子男會在安慰要好的異性朋友時都摸摸他們的頭或抱抱他們嗎？我的這隻🦁️最近很常跟我黏在一起 他會騎車載我吃宵吃東西 我記得有一次是我隔天要去其他地方 但是要在上課前回到學校 然後坐車大概要40～50,True,True,False,4c6964fc-8b39-4480-a844-847f09e4e09d,,2020-05-12T13:11:23.118Z,2020-05-12T13:11:23.118Z,1,0,False,['HIDE_THUMBNAIL'],"['獅子', '感情', '愛情', '曖昧', '獅子男']",{'layout': 'classic'},星座,horoscopes,False,F,,,[],[],False,,False,classic,False,False,[],,47040,,,
0,233661336,這樣算追到天秤女嗎😂,今天23歲的我的摩羯男，在網上認識到一位天秤座女生26歲，直到現在已經一個月了，如何認識，有天晚上無聊心情有點不太好，在網上唱了搶MIC的歌，唱歌，無聊找個女生來陪伴我唱歌聊天，後來聊著聊著就當了朋友,True,True,False,4c6964fc-8b39-4480-a844-847f09e4e09d,,2020-05-12T13:07:27.410Z,2020-05-12T13:07:27.410Z,2,2,False,[],"['天秤', '摩羯', '感情', '曖昧', '心情']",{'layout': 'classic'},星座,horoscopes,False,M,,,[],"[{'id': '286f599c-f86a-4932-82f0-f5a06f1eca03', 'count': 2}]",False,,False,classic,False,False,[],,47277,,,
0,233661279,#問 金牛男到底什麼意思！！！,我24，牛牛21，應該說這位牛牛認識兩年了，直到去年底感覺氣氛比較親近甚至有點曖昧？但是因為他在國外讀書兩個月回來一次才有辦法約見面，每次見面肢體接觸一定不會少，他真的很喜歡捏我的臉 尤其他手很大可以,True,True,False,4c6964fc-8b39-4480-a844-847f09e4e09d,,2020-05-12T12:57:55.270Z,2020-05-12T12:57:55.270Z,4,2,False,['HIDE_THUMBNAIL'],"['金牛', '曖昧']",{'layout': 'classic'},星座,horoscopes,False,F,,,[],"[{'id': '286f599c-f86a-4932-82f0-f5a06f1eca03', 'count': 2}]",False,,False,classic,False,False,[],,47850,,,
0,233661269,想問跟金牛男有沒有發展的可能？,跟牛牛是在網路上認識的，目前遠距離，他對每個人感覺都很貼心，但他也會關注我的消息，我發的限時動態他都會看，通常都會關心一下，但不知道是朋友的關心還是有點在乎的關心，每天都會聊天，偶爾會報備他在做什麼。,True,True,False,4c6964fc-8b39-4480-a844-847f09e4e09d,,2020-05-12T12:57:15.361Z,2020-05-12T12:57:15.361Z,5,1,False,['HIDE_THUMBNAIL'],"['金牛', '星座']",{'layout': 'classic'},星座,horoscopes,False,F,,,[],"[{'id': '286f599c-f86a-4932-82f0-f5a06f1eca03', 'count': 1}]",False,,False,classic,False,False,[],,47891,,,
0,233661257,雙子女,啊啊啊怎麼辦我腦袋又在想奇怪的東西了，我控制不住我記己啊啊啊,True,True,False,4c6964fc-8b39-4480-a844-847f09e4e09d,,2020-05-12T12:55:24.672Z,2020-05-12T12:55:24.672Z,2,2,False,['HIDE_THUMBNAIL'],['雙子'],{'layout': 'classic'},星座,horoscopes,False,F,,,[],"[{'id': '286f599c-f86a-4932-82f0-f5a06f1eca03', 'count': 2}]",False,,False,classic,False,False,[],,48003,,,
0,233661140,水瓶女解答,各位水瓶女要如何確定水瓶女已經喜歡上了呢？？,True,True,False,4c6964fc-8b39-4480-a844-847f09e4e09d,,2020-05-12T12:35:16.191Z,2020-05-12T12:35:16.191Z,13,6,False,['HIDE_THUMBNAIL'],['水瓶'],{'layout': 'classic'},星座,horoscopes,False,M,,,[],"[{'id': '286f599c-f86a-4932-82f0-f5a06f1eca03', 'count': 6}]",False,,False,classic,False,False,[],,49213,,,
0,233661060,天秤女求解,想問一下，天秤是不是常常會突然不理人然後過了一段時間就會像沒事一樣跟妳很好那種，因為遇到好多次了每一次只要是這樣我都會想很多很多,True,True,False,4c6964fc-8b39-4480-a844-847f09e4e09d,,2020-05-12T12:25:01.902Z,2020-05-12T12:25:01.902Z,12,4,False,['HIDE_THUMBNAIL'],"['天秤', '天秤女']",{'layout': 'classic'},星座,horoscopes,False,F,,,[],"[{'id': '286f599c-f86a-4932-82f0-f5a06f1eca03', 'count': 4}]",False,,False,classic,False,False,[],,49828,,,
0,233661001,牡羊男這樣是～～,想問問懂牡羊男的大家～要判斷一個牡羊男是否喜歡自己，到底是要從訊息回覆速度判斷還是說見面次數與互動判斷呢？1. 平均一兩天就會見面，每次的見面都會長達四小時以上，基本上都是他主動約。2. 見面時的肢體,True,True,False,4c6964fc-8b39-4480-a844-847f09e4e09d,,2020-05-12T12:16:04.976Z,2020-05-12T14:13:23.061Z,5,6,False,['HIDE_THUMBNAIL'],"['曖昧', '白羊', '牡羊', '愛情']",{'layout': 'classic'},星座,horoscopes,False,F,,,[],"[{'id': '286f599c-f86a-4932-82f0-f5a06f1eca03', 'count': 6}]",False,,False,classic,False,False,[],,50366,,,
0,233660661,天蠍女的關心,前幾天發了摯友限動，是有一點負面情緒的，天蠍學姐有回問我怎麼了嗎，發有關感情的她也有回，怎麼啦 感情遇到狀況了嗎，想請問天蠍女們對所有人都是這樣嗎，我跟她是同系的學姊學弟，現實中沒說過話 只有在ig聊,True,True,False,4c6964fc-8b39-4480-a844-847f09e4e09d,,2020-05-12T11:14:30.519Z,2020-05-12T11:14:30.519Z,1,2,False,['HIDE_THUMBNAIL'],"['天蠍女', '天蠍']",{'layout': 'classic'},星座,horoscopes,False,M,,,[],"[{'id': '286f599c-f86a-4932-82f0-f5a06f1eca03', 'count': 2}]",False,,False,classic,False,False,[],,54062,,,
0,233660510,心測-花1分鐘，看看自己的愛情觀,1. 2月14日下午和情人在咖啡館約會，你會點：a.熱咖啡→ 跳2，b.凍咖啡→ 跳3，2.你喜歡哪種糖包？a.砂糖→ 跳4，b.代糖→ 跳6，c.不加糖→ 跳6，3.在店裡喝咖啡，你會選擇：a.玻璃,True,True,False,4c6964fc-8b39-4480-a844-847f09e4e09d,,2020-05-12T10:49:20.107Z,2020-05-12T10:49:20.107Z,3,12,False,[],"['心理測驗', '感情', '愛情', '戀愛', '曖昧']",{'layout': 'classic'},星座,horoscopes,False,F,,,[],"[{'id': '286f599c-f86a-4932-82f0-f5a06f1eca03', 'count': 12}]",False,,False,classic,False,False,[],,55574,,,
0,233660265,摩羯男,我跟魔羯男聊了快9個月，一開始他都一天回覆一次，然後慢慢他開始工作的時候，就跟我分享他工作的事情，但也都是一天回覆一次，一直到我從別人那邊得知他離職的消息，我就傳訊息跟他說，你什麼時候離職了啊我都不知,True,True,False,4c6964fc-8b39-4480-a844-847f09e4e09d,,2020-05-12T10:07:16.435Z,2020-05-12T10:16:34.379Z,6,7,False,['HIDE_THUMBNAIL'],"['摩羯', '星座', '土象星座', '魔羯']",{'layout': 'classic'},星座,horoscopes,False,F,,,[],"[{'id': '286f599c-f86a-4932-82f0-f5a06f1eca03', 'count': 7}]",False,,False,classic,False,False,[],,58099,,,
0,233660262,巨蟹男怎麼變這樣了...,從曖昧到現在他會主動找我出去吃飯  逛街...，也會跟我講他家裡的大小事什麼或是說我可愛之類的話，曾經有天晚上沒吵他他還會來密我問原因，也怕我生氣來問我  對我生氣也會道歉，怎麼才一個假日而已就一系之,True,True,False,4c6964fc-8b39-4480-a844-847f09e4e09d,,2020-05-12T10:07:00.624Z,2020-05-12T10:07:00.624Z,15,8,False,['HIDE_THUMBNAIL'],"['巨蟹', '雙魚', '曖昧', '十二星座']",{'layout': 'classic'},星座,horoscopes,False,F,,,[],"[{'id': '286f599c-f86a-4932-82f0-f5a06f1eca03', 'count': 8}]",False,,False,classic,False,False,[],,58116,,,
0,233660236,牡羊座初戀受傷後的心理狀態,嗨嗨各位，我想要請問一下，牡羊座女生在談初戀的時候一個衝勁對對方好又熱情，但在被對方屢次傷害過 一兩年後又談一段段新戀情（me，戀愛的樣子完全變的不一樣了，我想請問各位牡羊如果前一段戀情受傷，會讓你們,True,True,False,4c6964fc-8b39-4480-a844-847f09e4e09d,,2020-05-12T10:02:32.271Z,2020-05-12T10:10:01.697Z,10,5,False,['HIDE_THUMBNAIL'],"['牡羊座', '心理']",{'layout': 'classic'},星座,horoscopes,False,F,,,[],"[{'id': '286f599c-f86a-4932-82f0-f5a06f1eca03', 'count': 5}]",False,,False,classic,False,False,[],,58386,,,
0,233660219,讓天秤女做選擇 如何打破窘境,想問天秤女，知道大部分都有選擇障礙，但若今天同時有兩個對象讓你們很難選擇，請問要如何協助秤女突破這樣的窘境？就單純這樣的問題 再麻煩各位秤女解答 謝謝～,True,True,False,4c6964fc-8b39-4480-a844-847f09e4e09d,,2020-05-12T09:59:40.732Z,2020-05-12T09:59:40.732Z,6,1,False,['HIDE_THUMBNAIL'],['天秤'],{'layout': 'classic'},星座,horoscopes,False,M,,,[],"[{'id': '286f599c-f86a-4932-82f0-f5a06f1eca03', 'count': 1}]",False,,False,classic,False,False,[],,58559,,,
0,233660216,#請益 跟巨蟹男分手,跟前任在一起一年多了，我們是遠距離昨天剛分，之間發生很多事但分分合合的他跟我說對我膩了不是不愛，覺得我很黏然後又不能常常見面這樣很像在談網戀，他想要分開一陣子先當朋友，講這樣他還會回來還是不會了？,True,True,False,4c6964fc-8b39-4480-a844-847f09e4e09d,,2020-05-12T09:59:31.973Z,2020-05-12T09:59:56.987Z,3,0,False,['HIDE_THUMBNAIL'],['巨蟹'],{'layout': 'classic'},星座,horoscopes,False,F,,,[],[],False,,False,classic,False,False,[],,58569,,,
0,233660202,射手男⋯⋯ಠ_ಠ,射手男回訊息速度越來越慢（從之前幾乎秒回到現在兩三個小時回），但我們還是會晚上講電話講到不掛，然後起床繼續聊一下，這是啥意思，射手男回訊息本來就這麼慢嗎？          心有點煩的牡羊🤦‍️,True,True,False,4c6964fc-8b39-4480-a844-847f09e4e09d,,2020-05-12T09:57:16.846Z,2020-05-12T09:57:16.846Z,7,3,False,['HIDE_THUMBNAIL'],"['射手', '白羊', '星座', '火象星座']",{'layout': 'classic'},星座,horoscopes,False,F,,,[],"[{'id': '286f599c-f86a-4932-82f0-f5a06f1eca03', 'count': 3}]",False,,False,classic,False,False,[],,58705,,,
0,233660189,射手女求解🙏🏻🙏🏻,小弟這陣子認識了一個射手女，想問板上的各位，射手女喜歡一個人會很明顯嗎？我天天都會跟她聊天，聊Line算是都滿有趣也不會已讀對方，回覆速度都算是很快的，大概都是沒有在忙就會回覆，約她出來見面或是吃飯基,True,True,False,4c6964fc-8b39-4480-a844-847f09e4e09d,,2020-05-12T09:54:46.573Z,2020-05-12T09:54:46.573Z,11,1,False,['HIDE_THUMBNAIL'],"['射手', '十二星座', '星座', '曖昧']",{'layout': 'classic'},星座,horoscopes,False,M,,,[],"[{'id': '286f599c-f86a-4932-82f0-f5a06f1eca03', 'count': 1}]",False,,False,classic,False,False,[],,58856,,,
0,233660121,我是水瓶座他是摩羯座,手機排版亂的話，抱歉哦‍️，我跟他是網路上認識的也見過面，聊天聊一聊後都有好感，但是他滿忙的，以前訊息都秒讀秒回，最近開始就不愛回訊息，我曾經在聊天的時候跟他說我覺得我們好像是在不同世界的人，因為覺得,True,True,False,4c6964fc-8b39-4480-a844-847f09e4e09d,,2020-05-12T09:44:27.636Z,2020-05-12T10:10:10.662Z,1,3,False,['HIDE_THUMBNAIL'],"['摩羯座', '水瓶座']",{'layout': 'classic'},星座,horoscopes,False,F,,,[],"[{'id': '286f599c-f86a-4932-82f0-f5a06f1eca03', 'count': 3}]",False,,False,classic,False,False,[],,59477,,,
0,233659843,天蠍射手座,我生日是在11月22日，可以說是天蠍座也可以說是射手座，性格也是兩個星座的混合，究竟這是一個什麼星座啊？？,True,True,False,4c6964fc-8b39-4480-a844-847f09e4e09d,,2020-05-12T08:59:06.090Z,2020-05-12T08:59:06.090Z,7,4,False,['HIDE_THUMBNAIL'],"['天蠍', '射手', '星座']",{'layout': 'classic'},星座,horoscopes,False,F,,,[],"[{'id': '286f599c-f86a-4932-82f0-f5a06f1eca03', 'count': 4}]",False,,False,classic,False,False,[],,62199,,,
0,233659812,請問巨蟹男在想什麼？,我金牛女跟巨蟹男在今年2/14見面認識，他在網路社群裡似乎關注我好一段時間，當時我有一個射手男友，但是射手男友總像風，對我不理不睬，連2/14情人節都無法陪在我身邊，所以蟹蟹當時就說要陪我吃宵夜，一直,True,True,False,4c6964fc-8b39-4480-a844-847f09e4e09d,,2020-05-12T08:54:40.540Z,2020-05-12T08:54:40.540Z,4,0,False,[],"['巨蟹', '金牛', '曖昧', '感情']",{'layout': 'classic'},星座,horoscopes,False,F,,,[],[],False,,False,classic,False,False,[],,62466,,,
0,233659792,雙魚男的小劇場?,想請問雙魚男們 真的就那麼多小劇場嗎？如果比平常晚回他訊息 他感覺就報復心態，比我更晚回（只有過一兩次） 但過了之後又好了～如果雙魚對一個人有好感的話，會表現出什麼樣子呢？都覺得雙魚是要慢慢引導的人（,True,True,False,4c6964fc-8b39-4480-a844-847f09e4e09d,,2020-05-12T08:50:39.377Z,2020-05-12T08:51:44.917Z,7,11,False,['HIDE_THUMBNAIL'],"['雙魚', '雙魚男']",{'layout': 'classic'},星座,horoscopes,False,F,,,[],"[{'id': '286f599c-f86a-4932-82f0-f5a06f1eca03', 'count': 11}]",False,,False,classic,False,False,[],,62709,,,
0,233659764,請多多關心身邊的射手座好嗎😭,真的覺得講的很好！，射手座真的是一個表面超級無敵爆炸樂觀，好像每天都很樂天 high到不行的星座，想開趴請找我們～ 讓你絕無冷場好嗎～但其實我們射手真的會有憂鬱的狀況出現（畢竟我們還是人類啊，可是我們,True,True,False,4c6964fc-8b39-4480-a844-847f09e4e09d,,2020-05-12T08:45:28.457Z,2020-05-12T15:09:51.207Z,4,19,False,[],['射手'],{'layout': 'classic'},星座,horoscopes,False,F,,,"[{'id': '87495230-b40a-4a4c-8ed8-8b6f424617a2', 'url': 'https://imgur.dcard.tw/uM8L84u.png', 'normalizedUrl': 'https://imgur.dcard.tw/uM8L84u.png', 'thumbnail': 'https://imgur.dcard.tw/uM8L84u.png', 'type': 'image/thumbnail', 'tags': ['ANNOTATED'], 'createdAt': '2020-05-12T08:45:28.457Z', 'updatedAt': '2020-05-12T15:09:51.207Z'}, {'id': '87495230-b40a-4a4c-8ed8-8b6f424617a2', 'url': 'https://imgur.dcard.tw/uM8L84u.png', 'normalizedUrl': '', 'thumbnail': 'https://imgur.dcard.tw/uM8L84u.png', 'type': 'image/png', 'tags': ['ANNOTATED'], 'createdAt': '2020-05-12T08:45:28.457Z', 'updatedAt': '2020-05-12T15:09:51.207Z'}]","[{'id': '286f599c-f86a-4932-82f0-f5a06f1eca03', 'count': 19}]",False,,False,classic,True,False,[{'url': 'http://i.imgur.com/uM8L84u.png'}],,63021,,,
0,233659677,我害怕面對摩羯男,最近在DCARD上認識一個讀警專的魔羯弟弟，他小我非常多（小7歲），我們每天都會聊天，他會利用課餘時間陪我講半小時到一小時左右電話，就算他不能說話 ， 他也會邊聽邊打字回我，每天早上都會叫我起床上班，,True,True,False,4c6964fc-8b39-4480-a844-847f09e4e09d,,2020-05-12T08:29:03.568Z,2020-05-12T09:33:40.286Z,15,4,False,['HIDE_THUMBNAIL'],"['摩羯', '摩羯男', '天蠍']",{'layout': 'classic'},星座,horoscopes,False,F,,,[],"[{'id': '286f599c-f86a-4932-82f0-f5a06f1eca03', 'count': 4}]",False,,False,classic,False,False,[],,64007,,,
0,233659518,求解天秤男 拜託拜託,本人是巨蟹座A型，跟天秤男在一起一個多月，我們有很多的共同朋友，但沒有特別公開在一起，出去玩 他都會主動跟我要親親，如果是跟朋友出去 會刻意保持距離，曾經問過他 是不是不喜歡在共同朋友面前放閃，他跟我,True,True,False,4c6964fc-8b39-4480-a844-847f09e4e09d,,2020-05-12T07:56:36.549Z,2020-05-12T07:56:36.549Z,18,3,False,['HIDE_THUMBNAIL'],"['天秤', '巨蟹']",{'layout': 'classic'},星座,horoscopes,False,F,,,[],"[{'id': '286f599c-f86a-4932-82f0-f5a06f1eca03', 'count': 3}]",False,,False,classic,False,False,[],,65955,,,
0,233659492,想跟摩羯女當朋友,如題，跟班上一個摩羯女當了快兩年的同學了，一年級的時候就有注意到她，但是因為沒有主動去找她講話，結果就變成普通同學，二年級之後有比較主動，常常會回覆他的限時，後來他也慢慢會回覆我的限時，偶爾會小聊一下,True,True,False,4c6964fc-8b39-4480-a844-847f09e4e09d,,2020-05-12T07:53:22.123Z,2020-05-12T07:53:22.123Z,16,9,False,[],"['摩羯', '朋友', '星座']",{'layout': 'classic'},星座,horoscopes,False,M,,,[],"[{'id': '286f599c-f86a-4932-82f0-f5a06f1eca03', 'count': 9}]",False,,False,classic,False,False,[],,66151,,,
0,233659469,有點麻煩的摩羯女？,我有一個摩羯女友，可以確定她是很在乎我的。。。吧。。。有一點其實我很困惑....，就是摩羯女4不4都是工作狂....，她常常失蹤不見，雖然我們剛在一起，但我們卻完全沒有熱戀的感覺orz....，想在這,True,True,False,4c6964fc-8b39-4480-a844-847f09e4e09d,,2020-05-12T07:49:03.964Z,2020-05-12T08:09:46.136Z,19,2,False,['HIDE_THUMBNAIL'],"['摩羯', '十二星座', '土象星座', '星座']",{'layout': 'classic'},星座,horoscopes,False,M,,,[],"[{'id': '286f599c-f86a-4932-82f0-f5a06f1eca03', 'count': 2}]",False,,False,classic,False,False,[],,66411,,,
0,233659456,這樣的牡羊男在想什麼呢？,是從感情版過來的，還是想問問羊男們或是，了解羊的人跟我說接下來該怎麼做....，這幾天我們晚上沒有一起睡了，他說想要一個人的空間，所以我們回到各自的家，雖然傳訊息還是會互道愛你 但就是感覺比較平淡，我,True,True,False,4c6964fc-8b39-4480-a844-847f09e4e09d,233646494,2020-05-12T07:47:22.214Z,2020-05-12T07:50:20.452Z,3,4,False,['HIDE_THUMBNAIL'],"['愛情', '價值觀', '牡羊', '天蠍']",{'layout': 'classic'},星座,horoscopes,False,F,愛不應該是束縛,,[],"[{'id': '286f599c-f86a-4932-82f0-f5a06f1eca03', 'count': 4}]",False,,False,classic,False,False,[],,66475,,,
0,233659430,天蠍,想詢問一下各位，天蠍到底會不會笨到被喜歡都不知道，還是他們在裝傻，我們聊天是沒有撩來撩去，下班去找他他也都可以接受，還是只是彼此都不說，心裡很清楚這樣嗎,True,True,False,4c6964fc-8b39-4480-a844-847f09e4e09d,,2020-05-12T07:43:56.687Z,2020-05-12T07:43:56.687Z,16,7,False,['HIDE_THUMBNAIL'],['天蠍'],{'layout': 'classic'},星座,horoscopes,False,F,,,[],"[{'id': '286f599c-f86a-4932-82f0-f5a06f1eca03', 'count': 7}]",False,,False,classic,False,False,[],,66720,,,
0,233659322,請問雙子,生日會希望有排場（個人）買大蛋糕找同事一起慶祝，還是個人送禮，目前認識兩個月而已 怕買大蛋糕會太誇張,False,True,False,4c6964fc-8b39-4480-a844-847f09e4e09d,,2020-05-12T07:26:25.652Z,2020-05-12T07:26:25.652Z,8,6,False,[],['雙子'],{'layout': 'classic'},星座,horoscopes,False,F,,,[],"[{'id': '286f599c-f86a-4932-82f0-f5a06f1eca03', 'count': 6}]",False,,False,classic,False,False,[],,67772,,世新大學,
0,233659217,射手男不讀不回,上禮拜六的時候 射手男凌晨就消失 然後到隔天的下午才出現跟我說 他昨天跟朋友們出去玩了一整天 我看到很生氣 就很晚才回他 然後他就跟我說朋友都是男的 我傳了張貼圖回他後 他就不讀不回了，禮拜一到現在都,True,True,False,4c6964fc-8b39-4480-a844-847f09e4e09d,,2020-05-12T07:05:43.232Z,2020-05-12T07:05:43.232Z,7,3,False,['HIDE_THUMBNAIL'],['射手男'],{'layout': 'classic'},星座,horoscopes,False,F,,,[],"[{'id': '286f599c-f86a-4932-82f0-f5a06f1eca03', 'count': 3}]",False,,False,classic,False,False,[],,69016,,,
0,233659140,想要了解雙魚女,對曾經曖昧過但還在聯絡的人是什麼想法，我認識的是很不願意有任何期待，因為怕受到傷害 而選擇小心翼翼的保護自己，覺得這樣，會對主動的人保持距離嗎，最近有點想告白但又怕太衝動而錯了時機,True,True,False,4c6964fc-8b39-4480-a844-847f09e4e09d,,2020-05-12T06:53:06.698Z,2020-05-12T06:53:06.698Z,4,2,False,['HIDE_THUMBNAIL'],['雙魚'],{'layout': 'classic'},星座,horoscopes,False,F,,,[],"[{'id': '286f599c-f86a-4932-82f0-f5a06f1eca03', 'count': 2}]",False,,False,classic,False,False,[],,69774,,,
0,233659005,跟魔羯交往真的好累,真的不知道怎麼溝通，我怎麼講都是錯的，他絕對不會認錯，低聲下氣道歉得到的是變本加厲的謾罵，還有無止境的冷戰，吵架時永遠不留情面的說刺耳的話，很不想隨便放棄，可是真的好累，我每一次到吵最後都會反覆思考是,True,True,False,4c6964fc-8b39-4480-a844-847f09e4e09d,,2020-05-12T06:28:25.646Z,2020-05-12T06:28:25.646Z,8,6,False,[],['魔羯'],{'layout': 'classic'},星座,horoscopes,False,F,,,[],"[{'id': '286f599c-f86a-4932-82f0-f5a06f1eca03', 'count': 6}]",False,,False,classic,False,False,[],,71256,,,
0,233658824,剛認識一位處女女,各位處女座的美女，小弟我是天蠍座，最近在某交友app認識一位可愛的處女女，目前認識一個禮拜，聊天都有，但幾乎都是我在問問題、開話題她也都會回答，但總有詞窮的時侯，如果說對這個男生沒興趣，應該也不會同意,True,True,False,4c6964fc-8b39-4480-a844-847f09e4e09d,,2020-05-12T05:52:23.704Z,2020-05-12T05:52:23.704Z,8,0,False,[],"['處女', '天蠍', '認識', '感情']",{'layout': 'classic'},星座,horoscopes,False,M,,,[],[],False,,False,classic,False,False,[],,73419,,,
0,233658735,牡羊女喜歡一個人的表現,請問牡羊女喜歡一個人會有什麼樣的表現？我獅子男,True,True,False,4c6964fc-8b39-4480-a844-847f09e4e09d,,2020-05-12T05:33:49.841Z,2020-05-12T05:33:49.841Z,13,4,False,[],"['喜歡一個人', '牡羊女']",{'layout': 'classic'},星座,horoscopes,False,M,,,[],"[{'id': '286f599c-f86a-4932-82f0-f5a06f1eca03', 'count': 4}]",False,,False,classic,False,False,[],,74534,,,
0,233658672,請教天蠍女,我和蠍女是朋友牽線介紹的，和蠍女認識約兩個月，朋友有約我們一起吃飯，當天也有她其他朋友到場，吃飯過程中，自覺聊的蠻開心的，話題都沒有斷過，這也是唯一一次的餐局，之後要約蠍女 很難約⋯，可能真的很忙 我,True,True,False,4c6964fc-8b39-4480-a844-847f09e4e09d,,2020-05-12T05:20:38.439Z,2020-05-12T05:20:38.439Z,18,6,False,['HIDE_THUMBNAIL'],"['天蠍女', '天蠍']",{'layout': 'classic'},星座,horoscopes,False,M,,,[],"[{'id': '286f599c-f86a-4932-82f0-f5a06f1eca03', 'count': 6}]",False,,False,classic,False,False,[],,75326,,,
0,233658604,雙子座朋友請進,請問雙子座如果確定喜歡這個人，那會有什麼很好分辨的特徵嗎？（感謝各位回覆的大大,True,True,False,4c6964fc-8b39-4480-a844-847f09e4e09d,,2020-05-12T05:07:01.820Z,2020-05-12T05:07:01.820Z,19,1,False,['HIDE_THUMBNAIL'],"['雙子座', '感情', '星座']",{'layout': 'classic'},星座,horoscopes,False,F,,,[],"[{'id': '286f599c-f86a-4932-82f0-f5a06f1eca03', 'count': 1}]",False,,False,classic,False,False,[],,76144,,,
0,233658485,牡羊女請問,原本我看著她的時候她會說覺得尷尬，可是今天看著她的時候她卻說覺得害羞，想問這樣代表我們關係比較好了嗎？還是是我想太多？然後我明明也沒做什麼怎麼會突然這樣？,True,True,False,4c6964fc-8b39-4480-a844-847f09e4e09d,,2020-05-12T04:48:54.290Z,2020-05-12T04:49:18.614Z,3,0,False,[],"['牡羊女', '白羊', '牡羊']",{'layout': 'classic'},星座,horoscopes,False,M,,,[],[],False,,False,classic,False,False,[],,77233,,,
0,233658417,水瓶男,去年認識一個水瓶男，但到今年3月才開始熟的，我們互動很頻繁 每天聊天什麼的，偶爾還會單獨出去，上個月他跟我說他曾經猶豫過我，但被理智線拉住了，然後現在又說我們像兄妹關係，所以他到底是想怎樣，好想搞清楚,True,True,False,4c6964fc-8b39-4480-a844-847f09e4e09d,,2020-05-12T04:38:20.924Z,2020-05-12T04:38:20.924Z,4,6,False,['HIDE_THUMBNAIL'],['水瓶'],{'layout': 'classic'},星座,horoscopes,False,F,,,[],"[{'id': '286f599c-f86a-4932-82f0-f5a06f1eca03', 'count': 6}]",False,,False,classic,False,False,[],,77867,,,
0,233658388,天蠍女會欲擒故縱嗎？,我是男 借我妹帳號發問，最近在網路上認識一個天蠍座女生，她跟我聊天常是秒讀秒回，除非在上課或在忙才不會馬上回我，她很常會問我很多問題，像平常喜歡什麼或感情觀價值觀之類的，也會要求我問她問題跟盡量秒回她,True,True,False,4c6964fc-8b39-4480-a844-847f09e4e09d,,2020-05-12T04:33:30.632Z,2020-05-12T04:34:36.675Z,5,4,False,['HIDE_THUMBNAIL'],"['天蠍女', '欲擒故縱', '十二星座', '曖昧']",{'layout': 'classic'},星座,horoscopes,False,F,,,[],"[{'id': '286f599c-f86a-4932-82f0-f5a06f1eca03', 'count': 4}]",False,,False,classic,False,False,[],,78159,,,
0,233658364,牡羊男,跟了一個比我大7歲的大哥哥我怕我太幼稚，成熟的牡羊男都會想要怎樣的戀愛...,True,True,False,4c6964fc-8b39-4480-a844-847f09e4e09d,,2020-05-12T04:28:25.468Z,2020-05-12T04:28:25.468Z,8,0,False,['HIDE_THUMBNAIL'],"['牡羊', '感情']",{'layout': 'classic'},星座,horoscopes,False,F,,,[],[],False,,False,classic,False,False,[],,78465,,,
0,233658096,金牛男,金牛男吃回頭草嗎，現在有在聊天，有時忽冷忽熱,True,True,False,4c6964fc-8b39-4480-a844-847f09e4e09d,,2020-05-12T03:37:19.222Z,2020-05-12T03:37:19.222Z,4,5,False,['HIDE_THUMBNAIL'],['金牛'],{'layout': 'classic'},星座,horoscopes,False,F,,,[],"[{'id': '286f599c-f86a-4932-82f0-f5a06f1eca03', 'count': 5}]",False,,False,classic,False,False,[],,81533,,,
0,233657985,天蠍男喜歡一個人,天蠍男 認識兩個月，上次出去有蠻多肢體接觸 相處好聊的來，雖然不會主動約我，但是每次約他都馬上答應，有時候還會邀我去他朋友的約，這樣有戲嗎？,True,True,False,4c6964fc-8b39-4480-a844-847f09e4e09d,,2020-05-12T03:15:58.636Z,2020-05-12T03:15:58.636Z,0,1,False,['HIDE_THUMBNAIL'],['天蠍'],{'layout': 'classic'},星座,horoscopes,False,F,,,[],"[{'id': '286f599c-f86a-4932-82f0-f5a06f1eca03', 'count': 1}]",False,,False,classic,False,False,[],,82814,,,
0,233657948,請暗戀對象當伴郎 / 求解射手男,想問射手男或男生們都可 ~~，你們會當我表姊的 ［ 伴郎 ］ 嗎？我跟射手男認識很久了 （也喜歡他很久了，射手男和我表姊認識，一起吃過飯，但沒到很熟，我表姊跟姊夫，他們婚禮的伴娘伴郎是想幫他們湊對，所,False,True,False,4c6964fc-8b39-4480-a844-847f09e4e09d,,2020-05-12T03:09:02.539Z,2020-05-12T03:11:38.183Z,11,2,True,[],"['射手', '對象', '愛情', '星座', '曖昧']",{'layout': 'classic'},星座,horoscopes,False,F,,,[],"[{'id': '286f599c-f86a-4932-82f0-f5a06f1eca03', 'count': 2}]",False,,False,classic,False,False,[],,83232,,匿名,summer2020
0,233657712,金牛女請進,想請問各位金牛女大大，小弟之前認識一位金牛女，目前只有網路聊天，但不知為何在學校她看到我的時候會想躲開，想請問各位牛女的想法，。。感恩,False,True,False,4c6964fc-8b39-4480-a844-847f09e4e09d,,2020-05-12T02:11:08.423Z,2020-05-12T02:11:08.423Z,5,1,True,[],['金牛'],{'layout': 'classic'},星座,horoscopes,False,M,,,[],"[{'id': '286f599c-f86a-4932-82f0-f5a06f1eca03', 'count': 1}]",False,,False,classic,False,False,[],,86707,,阿家,k414536
0,233657614,搞不懂天蠍男,跟天蠍男認識一個月，慢慢越來越曖昧，有一次不小心接吻了，但後來他忽冷忽熱最後整個超冷淡，我受不了就向他攤牌我的感受，蠍男只說他在反省自己做的事情（言下之意希望我們不要再這樣想單純當朋友），之後我們就兩,True,True,False,4c6964fc-8b39-4480-a844-847f09e4e09d,,2020-05-12T01:43:54.271Z,2020-05-12T01:43:54.271Z,2,0,False,['HIDE_THUMBNAIL'],"['天蠍', '處女']",{'layout': 'classic'},星座,horoscopes,False,F,,,[],[],False,,False,classic,False,False,[],,88342,,,
0,233657546,求解金牛女,想請問各位金牛女，在拒絕對方告白後，主動約對方出門、買東西給對方、打電話給對方（她說只是懶得打字），單獨出門的邀約也都不拒絕、會互喝對方飲料、餵對方吃東西，也有很多的肢體接觸（比如勾手、扶腰、搭肩），,True,True,False,4c6964fc-8b39-4480-a844-847f09e4e09d,,2020-05-12T01:25:42.613Z,2020-05-12T01:27:15.292Z,4,2,False,[],"['金牛', '星座', '愛情']",{'layout': 'classic'},星座,horoscopes,False,F,,,[],"[{'id': '286f599c-f86a-4932-82f0-f5a06f1eca03', 'count': 2}]",False,,False,classic,False,False,[],,89435,,,
0,233657541,如何正確打開天蠍勒,最近遇到一個蠍男，聊的還行但就是，感覺聊不到他的心，但也知道蠍蠍心房不好進就是了,True,True,False,4c6964fc-8b39-4480-a844-847f09e4e09d,,2020-05-12T01:24:42.866Z,2020-05-12T01:24:42.866Z,3,2,False,[],['天蠍'],{'layout': 'classic'},星座,horoscopes,False,F,,,[],"[{'id': '286f599c-f86a-4932-82f0-f5a06f1eca03', 'count': 2}]",False,,False,classic,False,False,[],,89496,,,
0,233657483,水瓶女求解,因為玩遊戲的關係，認識了一個水瓶女蠻有好感的，我們都出社會工作了，透過聊天得知她應該比我大1～2歲，最近她同事很積極在幫她撮合，也介紹了一個人給她試著相處看看，從認識開始幾乎每個禮拜六都一起出去，但卻,True,True,False,4c6964fc-8b39-4480-a844-847f09e4e09d,,2020-05-12T01:05:15.695Z,2020-05-12T01:05:15.695Z,8,3,False,['HIDE_THUMBNAIL'],"['水瓶', '摩羯']",{'layout': 'classic'},星座,horoscopes,False,M,,,[],"[{'id': '286f599c-f86a-4932-82f0-f5a06f1eca03', 'count': 3}]",False,,False,classic,False,False,[],,90665,,,
0,233657452,惹天秤生氣了,另一半是天秤️的大大麻煩趕緊進來救火嗚嗚O____Q，我是巨蟹寶寶 跟我家天秤在一起大約一個月左右，平常相處都還蠻自然的也挺有安全感的，但最近不知道為何，看到他跟朋友比較親密的互動都會小吃醋，今天早上,True,True,False,4c6964fc-8b39-4480-a844-847f09e4e09d,,2020-05-12T00:48:56.116Z,2020-05-12T00:48:56.116Z,16,7,False,['HIDE_THUMBNAIL'],"['天秤', '生氣', '巨蟹', '感情', '風象星座']",{'layout': 'classic'},星座,horoscopes,False,M,,,[],"[{'id': '286f599c-f86a-4932-82f0-f5a06f1eca03', 'count': 7}]",False,,False,classic,False,False,[],,91645,,,
0,233657376,天秤男是不是很注重隱私？,我前幾天很無聊，就好奇看了我男朋友的ins關注（也就幾十個），看到跟他很好的兄弟，我點進去看他兄弟的ins 看到了我男朋友幾年前我還不認識他的醜照 我覺得好好笑就把他珍藏起來了，前幾天和男朋友聊天就想,True,True,False,4c6964fc-8b39-4480-a844-847f09e4e09d,,2020-05-12T00:16:17.511Z,2020-05-12T00:16:17.511Z,29,5,False,['HIDE_THUMBNAIL'],['天秤'],{'layout': 'classic'},星座,horoscopes,False,F,,,[],"[{'id': '286f599c-f86a-4932-82f0-f5a06f1eca03', 'count': 4}, {'id': '4b018f48-e184-445f-adf1-fc8e04ba09b9', 'count': 1}]",False,,False,classic,False,False,[],,93605,,,
0,233657372,獅子男吵架,我們遠距離中，昨天跟獅子男吵架，我是容易想太多的人，而獅子男之前第一次吵架時就說過不喜歡我這樣，但我這次不是不問清楚他的意思就自己亂想，想說他這週需要考試所以我打算等他考完再問，那他認為為什麼不當下提,True,True,False,4c6964fc-8b39-4480-a844-847f09e4e09d,,2020-05-12T00:15:15.662Z,2020-05-12T00:15:15.662Z,6,6,False,['HIDE_THUMBNAIL'],"['獅子', '巨蟹']",{'layout': 'classic'},星座,horoscopes,False,F,,,[],"[{'id': '286f599c-f86a-4932-82f0-f5a06f1eca03', 'count': 6}]",False,,False,classic,False,False,[],,93668,,,
0,233657284,獅子男怎麼了,一個多禮拜前在交友軟體認識獅子男，我們相談甚歡真的莫名超級好聊他回訊息都很快，要忙得時候會說要忙了晚點聊或是今年會忙比較晚，晚上見。也會叮嚀我騎車小心外面很熱，今天上班如何之類的，我們講話也蠻曖昧的。,True,True,False,4c6964fc-8b39-4480-a844-847f09e4e09d,,2020-05-11T23:31:22.607Z,2020-05-11T23:35:38.782Z,13,2,False,['HIDE_THUMBNAIL'],"['獅子', '巨蟹']",{'layout': 'classic'},星座,horoscopes,False,F,,,[],"[{'id': '286f599c-f86a-4932-82f0-f5a06f1eca03', 'count': 2}]",False,,False,classic,False,False,[],,96302,,,
0,233657239,獅子請進,最近剛跟一位獅子聊的比較勤，昨天因為剛交完一份報告，約了朋友出去吃飯，我沒和他說我當天行程⋯，他在我去餐廳的路上主動開了話題找我聊，相聊甚歡的時候我剛好到餐廳了⋯，算是聊到一半但我開始忙了就沒讀他訊息,True,True,False,4c6964fc-8b39-4480-a844-847f09e4e09d,,2020-05-11T22:44:11.977Z,2020-05-11T23:04:54.892Z,8,4,False,['HIDE_THUMBNAIL'],"['獅子', '獅子男']",{'layout': 'classic'},星座,horoscopes,False,F,,,[],"[{'id': '286f599c-f86a-4932-82f0-f5a06f1eca03', 'count': 4}]",False,,False,classic,False,False,[],,99134,,,
0,233657228,天秤男低潮,最近一個曖昧天秤男，在我們昨天睡前時突然跟我說，他要低潮一下，我一開始還不太懂，他說他要心情低潮一下，我有問他怎麼了，但感覺得出來他沒有想說，我就和他說那不吵你了，他說好晚安。想問他會自己想通嗎？還是,True,True,False,4c6964fc-8b39-4480-a844-847f09e4e09d,,2020-05-11T22:31:05.016Z,2020-05-11T22:31:05.016Z,4,2,False,['HIDE_THUMBNAIL'],"['天秤', '低潮']",{'layout': 'classic'},星座,horoscopes,False,F,,,[],"[{'id': '286f599c-f86a-4932-82f0-f5a06f1eca03', 'count': 2}]",False,,False,classic,False,False,[],,99922,,,
0,233657182,突然生氣？,和水瓶男聊天，他時常習慣性用固定的一個貼圖敷衍我，事發當天我跟他說我討厭你發這個貼圖，然後他就哈哈哈，後來一個小時後又發...我就回“走開”，然後他就已讀我後下線一整天，過程中都沒上線，我以為他沒用網,True,True,False,4c6964fc-8b39-4480-a844-847f09e4e09d,,2020-05-11T21:09:43.556Z,2020-05-11T21:10:43.771Z,11,3,False,[],"['水瓶', '生氣', '白目', '誤會']",{'layout': 'classic'},星座,horoscopes,False,F,,,[],"[{'id': '286f599c-f86a-4932-82f0-f5a06f1eca03', 'count': 3}]",False,,False,classic,False,False,[],,104805,,,
0,233657043,跟水瓶男提復合被拒絕,在一個多月前，因為某些事成為他最後爆發的點吧，傳訊息打電話給他 沒回沒接，最後我受不了會一直想他 只好刪了他，後來因為很無解為什麼他這麼做，又重新加回他，問了他 我們還在一起嗎 他回不在了，問他為什麼,True,True,False,4c6964fc-8b39-4480-a844-847f09e4e09d,,2020-05-11T19:20:03.089Z,2020-05-11T19:20:03.089Z,7,8,False,['HIDE_THUMBNAIL'],"['水瓶', '復合', '風象星座']",{'layout': 'classic'},星座,horoscopes,False,F,,,[],"[{'id': '286f599c-f86a-4932-82f0-f5a06f1eca03', 'count': 8}]",False,,False,classic,False,False,[],,111387,,,
0,233657014,告白的方式（？,大家有覺得告白方式跟星座可能稍微有關嗎？我這邊只有兩次經驗，但我覺得好像滿對應星座的特性🤔，1. n年前多年網友（網公？）是金牛座，當初感覺他對我有意思是他開始會送道具開始，就是明顯感覺好像對我在花,True,True,False,4c6964fc-8b39-4480-a844-847f09e4e09d,,2020-05-11T19:08:18.516Z,2020-05-11T19:08:18.516Z,8,8,False,[],"['告白', '星座']",{'layout': 'classic'},星座,horoscopes,False,F,,,[],"[{'id': '286f599c-f86a-4932-82f0-f5a06f1eca03', 'count': 8}]",False,,False,classic,False,False,[],,112092,,,
0,233657012,射手男不敢...？,如果射手男喜歡一個人 他會怕別人知道嗎，假設他覺得我可能不會喜歡他的話，會不敢喜歡嗎...？,True,True,False,4c6964fc-8b39-4480-a844-847f09e4e09d,,2020-05-11T19:07:16.697Z,2020-05-11T19:07:16.697Z,9,5,False,['HIDE_THUMBNAIL'],"['射手', '感情', '十二星座', '心情']",{'layout': 'classic'},星座,horoscopes,False,F,,,[],"[{'id': '286f599c-f86a-4932-82f0-f5a06f1eca03', 'count': 5}]",False,,False,classic,False,False,[],,112155,,,
0,233656973,雙子男開放式關係,認識一個雙子男快半年，他一開始沒有坦白有女友，有提到他的感情觀類似開放式關係，剛好我們喜歡的東西蠻相近，所以有很愉悅的聊下去，但因為我有肉搜的毛病，所以有發現他其實有穩交的女友，我後來直接問他他也坦白,True,True,False,4c6964fc-8b39-4480-a844-847f09e4e09d,,2020-05-11T18:52:17.765Z,2020-05-11T18:52:17.765Z,10,3,False,['HIDE_THUMBNAIL'],"['雙子', '天蠍', '開放式關係', '感情', '心情']",{'layout': 'classic'},星座,horoscopes,False,F,,,[],"[{'id': '286f599c-f86a-4932-82f0-f5a06f1eca03', 'count': 2}, {'id': 'aa0d425f-d530-4478-9a77-fe3aedc79eea', 'count': 1}]",False,,False,classic,False,False,[],,113055,,,
0,233656884,巨蟹說不是不喜歡卻想先分開,如題，和她交往的時間不算長，卻總是開始因為小事情爭吵，她覺得只是小事沒必要鬧脾氣，我覺得我只是想要多一點關心，導致她開始受不了這種情緒壓力，提說總有一天會受不了，感情會逐漸被磨光，不如現在就不要再繼續,True,True,False,4c6964fc-8b39-4480-a844-847f09e4e09d,,2020-05-11T18:19:16.471Z,2020-05-11T18:19:16.471Z,2,3,False,['HIDE_THUMBNAIL'],"['巨蟹', '愛情', '星座', '心情']",{'layout': 'classic'},星座,horoscopes,False,F,,,[],"[{'id': '286f599c-f86a-4932-82f0-f5a06f1eca03', 'count': 3}]",False,,False,classic,False,False,[],,115038,,,
0,233656878,追求巨蟹男🦀 時長？,巨蟹男請進！！！！！！！！！！！！！！！！！！！！！！！！！！！！！！！！！！！！！！，想問大家有沒有追求過巨蟹男的經驗？花了多久的時間成功？我摩羯，跟蟹聊了3個月，他已經出社會 工作繁忙，晚上都會抽,True,True,False,4c6964fc-8b39-4480-a844-847f09e4e09d,,2020-05-11T18:17:59.751Z,2020-05-12T04:22:40.625Z,13,10,False,[],"['巨蟹', '巨蟹男', '摩羯女', '求攻略']",{'layout': 'classic'},星座,horoscopes,False,F,,,[],"[{'id': '286f599c-f86a-4932-82f0-f5a06f1eca03', 'count': 10}]",False,,False,classic,False,False,[],,115116,,,
0,233656861,天秤女的喜歡？,我們是學姊學妹的關係，因為課程一個禮拜會見個三天，以下的行為拜託各位天秤大大解析個，1.每天聊天 回覆的速度不會太久（她跟她朋友還有前任也會聊 但不知道頻率），2.有肢體接觸（有時候做報告需要到她家的,True,True,False,4c6964fc-8b39-4480-a844-847f09e4e09d,,2020-05-11T18:12:25.472Z,2020-05-11T18:12:49.501Z,1,2,False,[],['天秤'],{'layout': 'classic'},星座,horoscopes,False,F,,,[],"[{'id': '286f599c-f86a-4932-82f0-f5a06f1eca03', 'count': 2}]",False,,False,classic,False,False,[],,115451,,,
0,233656769,難搞的處女女,很想問，處女女到底都在想什麼，我幾個月前認識了一位處女女，我們也聊的蠻熱絡的，但她有一個奇怪的舉動讓我好幾度想放棄，常常都聊一聊然後就突然消失好幾天，但出現的時候都會解釋為甚麼失蹤甚至會道歉，我能感受,True,True,False,4c6964fc-8b39-4480-a844-847f09e4e09d,,2020-05-11T17:50:32.875Z,2020-05-11T17:50:32.875Z,18,15,False,['HIDE_THUMBNAIL'],"['處女', '射手']",{'layout': 'classic'},星座,horoscopes,False,M,,,[],"[{'id': '286f599c-f86a-4932-82f0-f5a06f1eca03', 'count': 15}]",False,,False,classic,False,False,[],,116765,,,
0,233656732,摩羯男女眷請進！,做過什麼摩羯另一半會很開心，或是摩羯喜歡伴侶做什麼事呢？ex：親手做的便當，笑，乖，孝順，獨立，撒嬌，一下開放補充及討論,True,True,False,4c6964fc-8b39-4480-a844-847f09e4e09d,,2020-05-11T17:43:44.752Z,2020-05-11T17:43:44.752Z,13,24,False,['HIDE_THUMBNAIL'],['摩羯'],{'layout': 'classic'},星座,horoscopes,False,F,,,[],"[{'id': '286f599c-f86a-4932-82f0-f5a06f1eca03', 'count': 24}]",False,,False,classic,False,False,[],,117174,,,
0,233656629,天秤男巨蟹女,想問有沒有這樣的組合，然後有沒有一些該注意的，網路文章都說天秤巨蟹非常合不來..，都被洗腦到有點怕怕的，巨蟹女,True,True,False,4c6964fc-8b39-4480-a844-847f09e4e09d,,2020-05-11T17:26:40.788Z,2020-05-11T17:27:18.905Z,25,11,False,['HIDE_THUMBNAIL'],"['巨蟹', '天秤', '感情', '十二星座', '愛情']",{'layout': 'classic'},星座,horoscopes,False,F,,,[],"[{'id': '286f599c-f86a-4932-82f0-f5a06f1eca03', 'count': 11}]",False,,False,classic,False,False,[],,118200,,,
0,233656601,我也很好奇自己的星座.,平時也算是開朗樂觀吧 我想。但當真的有難過的事想向朋友說時，那個人卻說等等聽有急事先忙。我理解他是真的有事，他忙完真的會認真聽我的煩惱。但聽到的那個當下難過、無助、無奈的情緒湧上。難過時沒流淚這時眼淚,True,True,False,4c6964fc-8b39-4480-a844-847f09e4e09d,,2020-05-11T17:22:13.350Z,2020-05-11T17:22:13.350Z,4,11,False,[],"['心情', '十二星座']",{'layout': 'classic'},星座,horoscopes,False,F,,,[],"[{'id': '286f599c-f86a-4932-82f0-f5a06f1eca03', 'count': 11}]",False,,False,classic,False,False,[],,118468,,,
0,233656417,獅子座火爆的個性直接衝出來,說實在平常的個性都是很和善的，與人相處也很融洽，真的很久沒有遇到這麼白目的人，直接挑戰我的底線。因為之前也有發生過類似的事情所以都盡量遠離和避開對方，但是今天突然出現在我背後，接著把濕濕的杯子放在我頭,True,True,False,4c6964fc-8b39-4480-a844-847f09e4e09d,,2020-05-11T16:57:20.668Z,2020-05-11T16:57:20.668Z,2,6,False,['HIDE_THUMBNAIL'],"['獅子座', '個性', '爆氣']",{'layout': 'classic'},星座,horoscopes,False,F,,,[],"[{'id': '286f599c-f86a-4932-82f0-f5a06f1eca03', 'count': 5}, {'id': '4b018f48-e184-445f-adf1-fc8e04ba09b9', 'count': 1}]",False,,False,classic,False,False,[],,119962,,,
0,233656321,想請問射手男！！！,本人和射手男是網路認識的，我們認識沒多久對方就開始亂撩，我們甚至都還沒見過面！但我們有打算見面，他20歲只交過一個女朋友，他出門會跟我報備他要去哪，請問他這樣是亂槍打鳥嗎...？,True,True,False,4c6964fc-8b39-4480-a844-847f09e4e09d,,2020-05-11T16:41:44.499Z,2020-05-11T16:41:44.499Z,9,3,False,['HIDE_THUMBNAIL'],['射手'],{'layout': 'classic'},星座,horoscopes,False,F,,,[],"[{'id': '286f599c-f86a-4932-82f0-f5a06f1eca03', 'count': 3}]",False,,False,classic,False,False,[],,120899,,,
0,233656310,雙子男請進,遇到一個雙子男，有些問題想請教一下，第一次服務到他的時候，我就覺得這個人意外的貼心，Ex：那天天氣很冷，我的水溫調的偏熱，我：請問水溫可以嗎，：可以，不要燙到你自己的手就好，我：不會啦，謝謝你，後來幫,True,True,False,4c6964fc-8b39-4480-a844-847f09e4e09d,,2020-05-11T16:40:27.681Z,2020-05-11T16:40:27.681Z,5,1,False,['HIDE_THUMBNAIL'],['雙子'],{'layout': 'classic'},星座,horoscopes,False,F,,,[],"[{'id': '286f599c-f86a-4932-82f0-f5a06f1eca03', 'count': 1}]",False,,False,classic,False,False,[],,120977,,,
0,233656217,想問我家變異雙子男,我是天秤 男朋友是雙子，想問問看大家，因為我家的雙子真的太奇怪了，大家都說雙子很會搞笑，很會聊天，偏偏我家雙子怎麼好像都還好，還不太會聊天，平常一個禮拜見一次而已，很喜歡抱抱也不知道算黏還是不黏，對我,True,True,False,4c6964fc-8b39-4480-a844-847f09e4e09d,,2020-05-11T16:28:12.430Z,2020-05-12T16:58:05.023Z,2,4,False,['HIDE_THUMBNAIL'],['雙子'],{'layout': 'classic'},星座,horoscopes,False,F,,,[],"[{'id': '286f599c-f86a-4932-82f0-f5a06f1eca03', 'count': 4}]",False,,False,classic,False,False,[],,121714,,,
0,233656201,雙子是不是都很愛突然搞消失,曖昧一個多月 昨天才在問我下次約什麼時候見面，結果今天直接給我搞失蹤？？？？？？喔不是 今天還是有看我限時 但就是不回訊息 算了 算了 心好累 （而且很難過,False,True,False,4c6964fc-8b39-4480-a844-847f09e4e09d,,2020-05-11T16:26:11.519Z,2020-05-11T16:26:11.519Z,2,2,False,[],"['雙子', '星座']",{'layout': 'classic'},星座,horoscopes,False,F,,,[],"[{'id': '286f599c-f86a-4932-82f0-f5a06f1eca03', 'count': 2}]",False,,False,classic,False,False,[],,121836,,輔仁大學,
0,233656143,天蠍男子 慢慢等？,最近透過朋友，認識了一個天蠍座的男生，同屆不同校，我巨蟹女 他天蠍男，/，我們一起單獨吃過飯了，雖然是朋友有緊急事先走，（真的家裡有事非故意的那種），才有這樣的狀況跟機會...，/，過程中都很自然沒有,True,True,False,4c6964fc-8b39-4480-a844-847f09e4e09d,,2020-05-11T16:19:00.343Z,2020-05-11T16:19:00.343Z,12,10,False,['HIDE_THUMBNAIL'],"['天蠍', '巨蟹']",{'layout': 'classic'},星座,horoscopes,False,F,,,[],"[{'id': '286f599c-f86a-4932-82f0-f5a06f1eca03', 'count': 10}]",False,,False,classic,False,False,[],,122268,,,
0,233656108,求解 牡羊男 大哭,想請問各位牡羊男 你會在另一半面前展現最脆弱的自己嗎？因為我的前任有好幾次在我面前落淚甚至大哭，我是真的有被嚇到。他平常都是在朋友面前展現很無所謂的感覺，所以他在我面前哭我是真的有被嚇到,True,True,False,4c6964fc-8b39-4480-a844-847f09e4e09d,,2020-05-11T16:12:56.753Z,2020-05-11T16:20:58.164Z,7,3,False,['HIDE_THUMBNAIL'],['牡羊'],{'layout': 'classic'},星座,horoscopes,False,F,,,[],"[{'id': '286f599c-f86a-4932-82f0-f5a06f1eca03', 'count': 3}]",False,,False,classic,False,False,[],,122633,,,
0,233656067,天蠍,請問天蠍座的各位（ಥ_ಥ），我們是在網路上認識的，天蠍座有持續聊就代表有機會嗎？他會跟我講他的私事 平常也都會分享生活中的事，每天也有固定的早晚安，這樣是有機會的嗎？？,True,True,False,4c6964fc-8b39-4480-a844-847f09e4e09d,,2020-05-11T16:06:43.037Z,2020-05-11T16:06:43.037Z,10,7,False,[],"['天蠍', '天蠍男', '水象星座', '感情']",{'layout': 'classic'},星座,horoscopes,False,F,,,[],"[{'id': '286f599c-f86a-4932-82f0-f5a06f1eca03', 'count': 7}]",False,,False,classic,False,False,[],,123008,,,
0,233656065,與異性正常相處的辦法,求解板上各位大大，到底怎麼跟有一點好感的異性相處，每次都是對對方有好感，可是有時候卻連最簡單的打招呼都不敢，也有可能是我恐男（！？可是我跟一般的男生就可以像朋友一樣相處，自己也覺得奇怪,True,True,False,4c6964fc-8b39-4480-a844-847f09e4e09d,,2020-05-11T16:06:15.646Z,2020-05-11T16:06:15.646Z,8,17,False,[],"['異性', '十二星座', '感情', '心情']",{'layout': 'classic'},星座,horoscopes,False,F,,,[],"[{'id': '286f599c-f86a-4932-82f0-f5a06f1eca03', 'count': 17}]",False,,False,classic,False,False,[],,123036,,,
0,233655729,求解雙子男🥺,我們從四月中旬到現在都一直有聊天，平常也會一起玩遊戲，平時賴他基本也是五分鐘以內會回，會主動傳一些好笑的東西找我聊天，他是我朋友的朋友，見過一次，我對他蠻有好感的，他有時候講話也會撩我，但次數不多，啊,True,True,False,4c6964fc-8b39-4480-a844-847f09e4e09d,,2020-05-11T15:17:53.835Z,2020-05-11T15:17:53.835Z,3,3,False,['HIDE_THUMBNAIL'],"['雙子男攻略', '處女女']",{'layout': 'classic'},星座,horoscopes,False,F,,,[],"[{'id': '286f599c-f86a-4932-82f0-f5a06f1eca03', 'count': 3}]",False,,False,classic,False,False,[],,125939,,,
0,233655726,問蟹女，你們是如何看待無緣的人？,事情是這樣的，以前很喜歡她，跟她告白沒有被明確拒絕，後來她被別的渣男騙走了，當時我就跟她說我不會再去打擾她，反正我也需要時間療傷，兩三個月後，她捲土重來，以前都是我每天找她聊天，現在我非常被動，變成是,True,True,False,4c6964fc-8b39-4480-a844-847f09e4e09d,,2020-05-11T15:17:19.354Z,2020-05-11T15:18:46.958Z,6,2,False,['HIDE_THUMBNAIL'],"['巨蟹', '感情', '十二星座', '星座', '水象星座']",{'layout': 'classic'},星座,horoscopes,False,M,,,[],"[{'id': '286f599c-f86a-4932-82f0-f5a06f1eca03', 'count': 2}]",False,,False,classic,False,False,[],,125975,,,
0,233655697,雙子男的惡趣味,幾個禮拜前認識一個雙子弟弟，經過這幾個禮拜的認識，（我覺得我們有點曖昧 大概啦，反正，他就是會突然爆出某些感覺很撩的，結果就在我不知道怎麼回才不會顯得我好像很有意思的時候，他就會說他騙人的，氣人囉,True,True,False,4c6964fc-8b39-4480-a844-847f09e4e09d,,2020-05-11T15:14:04.234Z,2020-05-11T15:14:04.234Z,3,0,False,['HIDE_THUMBNAIL'],['雙子'],{'layout': 'classic'},星座,horoscopes,False,F,,,[],[],False,,False,classic,False,False,[],,126171,,,
0,233655665,天蠍心機真的重嗎,這個問題影響我很深...，一開始被影響是電視節目總是說天蠍心機很重，會報復啊，記仇啊等等一堆的，然後現在大學有一位最常在一起得朋友就是天蠍，我對他不敢敞開心胸，因為真的怕心機重的人，自然而然產生防備的,True,True,False,4c6964fc-8b39-4480-a844-847f09e4e09d,,2020-05-11T15:09:52.443Z,2020-05-12T08:34:43.161Z,13,12,False,['HIDE_THUMBNAIL'],"['天蠍', '心機']",{'layout': 'classic'},星座,horoscopes,False,F,,,[],"[{'id': '286f599c-f86a-4932-82f0-f5a06f1eca03', 'count': 11}, {'id': 'e8e6bc5d-41b0-4129-b134-97507523d7ff', 'count': 1}]",False,,False,classic,False,False,[],,126424,,,
0,233655641,雙子男,想請問各位！！，雙子男會突然忽冷忽熱這樣嗎？我們有見面也有點曖昧的感覺，可能每天會講個電話可是過一陣子又不回，然後又突然出現，聊天是會關心之類的但有種不確定的感覺，請問對方是怎麼想的呢好苦惱啊,True,True,False,4c6964fc-8b39-4480-a844-847f09e4e09d,,2020-05-11T15:05:48.513Z,2020-05-11T15:06:28.608Z,4,5,False,['HIDE_THUMBNAIL'],"['雙子', '感情', '十二星座', '心情']",{'layout': 'classic'},星座,horoscopes,False,F,,,[],"[{'id': '286f599c-f86a-4932-82f0-f5a06f1eca03', 'count': 5}]",False,,False,classic,False,False,[],,126669,,,
0,233655552,跟天蠍男聊天,之前有一次機會 開始跟一個蠍男聊天，可是每次聊天 幾乎都是我在提問然後他回答，他沒有不耐煩 但是都是這個模式，他是不想聊天 還是什麼意思，有人能解答嗎...,False,True,False,4c6964fc-8b39-4480-a844-847f09e4e09d,,2020-05-11T14:53:59.353Z,2020-05-11T14:53:59.353Z,4,2,True,['HIDE_THUMBNAIL'],"['天蠍', '天蠍男', '十二星座', '星座', '心情']",{'layout': 'classic'},星座,horoscopes,False,F,,,[],"[{'id': '286f599c-f86a-4932-82f0-f5a06f1eca03', 'count': 2}]",False,,False,classic,False,False,[],,127380,,匿名,v676767
0,233655362,雙子女會容易自卑嗎,我原本預產期應該是金牛出生，結果在媽媽肚子裡多睡了一下變成了雙子，我國小的時候還算是稍有自信，但自從國中開始就變得很自卑一直到現在剛出社會，我常覺得男友為什麼會喜歡我，我感覺自己沒有優點，長得應該不算,True,True,False,4c6964fc-8b39-4480-a844-847f09e4e09d,,2020-05-11T14:32:20.460Z,2020-05-11T14:32:20.460Z,9,20,False,['HIDE_THUMBNAIL'],"['自卑', '雙子']",{'layout': 'classic'},星座,horoscopes,False,F,,,[],"[{'id': '286f599c-f86a-4932-82f0-f5a06f1eca03', 'count': 20}]",False,,False,classic,False,False,[],,128680,,,
0,233655314,打動水瓶男 讓水瓶男感動,如題，當一個懂水瓶男的人，會不會容易感動他呢？,True,True,False,4c6964fc-8b39-4480-a844-847f09e4e09d,,2020-05-11T14:25:31.033Z,2020-05-11T14:25:31.033Z,8,4,False,['HIDE_THUMBNAIL'],['水瓶'],{'layout': 'classic'},星座,horoscopes,False,F,,,[],"[{'id': '286f599c-f86a-4932-82f0-f5a06f1eca03', 'count': 4}]",False,,False,classic,False,False,[],,129091,,,
0,233654984,聊聊互相嫌棄的星座😊,我是處女男，我跟水瓶女剛認識一個月多，認識期間有為了一件事情鬧不合，後來她朋友有幫我說話，在和好講開這之後我們出去的機會也比較頻繁，也曾經明示過對她這位女生有好感，我們有聊到現階段都對彼此有好感，自己,True,True,False,4c6964fc-8b39-4480-a844-847f09e4e09d,,2020-05-11T13:39:29.750Z,2020-05-11T13:39:29.750Z,5,0,False,['HIDE_THUMBNAIL'],['星座'],{'layout': 'classic'},星座,horoscopes,False,M,,,[],[],False,,False,classic,False,False,[],,131853,,,
0,233654889,各星座大師一週運勢(2020/05/11~2020/05/17),一週的新開始，來看看這週各個星座大師怎麼分析吧！，幫大家整理好文章列表了！，如果發現各個大師的解說打架，以後就挑著自己覺得準的看就好囉！，另外附上之前貼的 5 月份星座運勢：蘇珊米勒：Pandora占,False,True,False,4c6964fc-8b39-4480-a844-847f09e4e09d,,2020-05-11T13:27:09.655Z,2020-05-11T19:05:59.185Z,14,159,True,[],"['星座', '星座運勢', '星座農場', '十二星座', 'Alex是大叔']",{'layout': 'classic'},星座,horoscopes,False,M,,,[],"[{'id': '286f599c-f86a-4932-82f0-f5a06f1eca03', 'count': 159}]",False,{},False,classic,False,False,[],,132594,,星座農場,horoscopefarm
0,233654858,與工作狂摩羯男能不能有後續？（文稍長）,#不要上臉書#不要轉載，背景：他是3x歲的摩羯男，歐洲人。我們在交友軟體上面認識的。第一次見面的時候我覺得他就是一個很可愛的大男孩，因為我的英文不太好，沒辦法太深度的和他聊天，多數是以聽他分享故事為主,True,True,False,4c6964fc-8b39-4480-a844-847f09e4e09d,,2020-05-11T13:23:40.622Z,2020-05-11T13:23:40.622Z,5,4,False,['HIDE_THUMBNAIL'],"['巨蟹', '感情', '摩羯男', '曖昧']",{'layout': 'classic'},星座,horoscopes,False,F,,,[],"[{'id': '286f599c-f86a-4932-82f0-f5a06f1eca03', 'count': 4}]",False,,False,classic,False,False,[],,132804,,,
0,233654626,處女女的另一半是什麼星座呢～,一直有先入為主觀念認為處女跟土象星座最配（本身喜歡魔羯男，吳怡農），但爬文發現蠻多處女座女孩跟天蠍、獅子等其他星座在一起的，各位覺得跟哪個星座最合呢？好奇問問各位囉～,True,True,False,4c6964fc-8b39-4480-a844-847f09e4e09d,,2020-05-11T12:52:33.778Z,2020-05-11T13:55:34.886Z,34,22,False,['HIDE_THUMBNAIL'],"['星座', '處女座', '處女', '感情', '十二星座']",{'layout': 'classic'},星座,horoscopes,False,F,,,[],"[{'id': '286f599c-f86a-4932-82f0-f5a06f1eca03', 'count': 22}]",False,,False,classic,False,False,[],,134673,,,
0,233654614,穩聊瓶男會一直提到我之後交男友,想問各位大大，這樣的話瓶男是不是對我一點感覺都沒有，只是把我當普通朋友而已...,True,True,False,4c6964fc-8b39-4480-a844-847f09e4e09d,,2020-05-11T12:50:01.298Z,2020-05-11T12:50:01.298Z,2,0,False,['HIDE_THUMBNAIL'],[],{'layout': 'classic'},星座,horoscopes,False,F,,,[],[],False,,False,classic,False,False,[],,134826,,,
0,233654594,心測-圖紋花樣測你的潛在性格與未來,你的睡覺姿勢、你喝的咖啡、你會選哪個位置坐？有很多你選擇處理事情的方式，都能夠看出你的個性，剖析你的性格，或是測出你的未來走向，這就是為什麼我們非常喜歡玩心理測驗。所以以下，我們有一個簡單的心理測驗。,True,True,False,4c6964fc-8b39-4480-a844-847f09e4e09d,,2020-05-11T12:47:42.563Z,2020-05-11T12:47:42.563Z,6,61,False,[],"['心理測驗', '未來', '曖昧', '愛情', '感情']",{'layout': 'classic'},星座,horoscopes,False,F,,,"[{'id': 'e58d2a77-a333-43a0-9216-d2ca604f9d38', 'url': 'https://i.imgur.com/rKRKqmJl.jpg', 'normalizedUrl': 'https://i.imgur.com/rKRKqmJl.jpg', 'thumbnail': 'https://i.imgur.com/rKRKqmJl.jpg', 'type': 'image/thumbnail', 'tags': ['ANNOTATED'], 'createdAt': '2020-05-11T12:47:42.563Z', 'updatedAt': '2020-05-11T12:47:42.563Z'}, {'id': 'e58d2a77-a333-43a0-9216-d2ca604f9d38', 'url': 'https://i.imgur.com/rKRKqmJ.png', 'normalizedUrl': 'https://imgur.com/rKRKqmJ', 'thumbnail': 'https://i.imgur.com/rKRKqmJl.jpg', 'type': 'image/imgur', 'tags': ['ANNOTATED'], 'createdAt': '2020-05-11T12:47:42.563Z', 'updatedAt': '2020-05-11T12:47:42.563Z'}]","[{'id': '286f599c-f86a-4932-82f0-f5a06f1eca03', 'count': 61}]",False,,False,classic,True,False,[{'url': 'https://i.imgur.com/rKRKqmJ.png'}],,134966,,,
0,233654425,😭😭😭😖,,True,True,False,4c6964fc-8b39-4480-a844-847f09e4e09d,233654361,2020-05-11T12:17:54.710Z,2020-05-11T12:17:54.710Z,2,1,False,[],"['獅子', '感情', '愛情', '價值觀']",{'crossPostId': 233654361},星座,horoscopes,False,F,怎麼讓獅子男友氣消？,,[],"[{'id': '286f599c-f86a-4932-82f0-f5a06f1eca03', 'count': 1}]",False,,False,classic,False,False,[],,136755,,,
0,233654241,想聊聊雙魚男～他在想什麼～(文長),我是瓶女，和一個雙魚男認識五個月，一月時有在Dcard發過文問不小心把魚男封鎖了可以怎麼搶救，大意是我喝醉把砲友魚男封鎖，隔天才發現，對方有回我訊息卻沒有表明接受我的道歉也暫時不打算見面的樣子，最後版,True,True,False,4c6964fc-8b39-4480-a844-847f09e4e09d,,2020-05-11T11:53:12.907Z,2020-05-11T11:53:12.907Z,1,1,False,['HIDE_THUMBNAIL'],"['魚男', '文長', '雙魚']",{'layout': 'classic'},星座,horoscopes,False,F,,,[],"[{'id': '286f599c-f86a-4932-82f0-f5a06f1eca03', 'count': 1}]",False,,False,classic,False,False,[],,138238,,,
0,233654168,天秤座女孩攻略,想求怎樣追天秤女。他們喜歡妳會表現出來怎樣的行為,True,True,False,4c6964fc-8b39-4480-a844-847f09e4e09d,,2020-05-11T11:38:22.862Z,2020-05-11T11:38:22.862Z,10,16,False,['HIDE_THUMBNAIL'],"['天秤座', '感情', '星座']",{'layout': 'classic'},星座,horoscopes,False,M,,,[],"[{'id': '286f599c-f86a-4932-82f0-f5a06f1eca03', 'count': 16}]",False,,False,classic,False,False,[],,139130,,,
0,233654115,來個12星座人氣排行,大家可以喺下面留言，睇吓最鍾意嘅星座最討厭嘅星座，並且講出原因最後我哋統計一下,True,True,False,4c6964fc-8b39-4480-a844-847f09e4e09d,,2020-05-11T11:30:58.116Z,2020-05-11T11:30:58.116Z,27,15,False,['HIDE_THUMBNAIL'],"['星座', '十二星座', '雙魚', '心情']",{'layout': 'classic'},星座,horoscopes,False,M,,,[],"[{'id': '286f599c-f86a-4932-82f0-f5a06f1eca03', 'count': 15}]",False,,False,classic,False,False,[],,139576,,,
0,233654029,關於天蠍的虐,最近在歸納自己，發現自己對於身邊的人會有一個「虐待」的過程，其實也不是真的虐 但會讓身邊的人很煎熬，對我自己來說 是一種考驗的感覺，就像要讓自己確定：「就算我這樣對你，你也不會離開」之後才會敞開心胸對,True,True,False,4c6964fc-8b39-4480-a844-847f09e4e09d,,2020-05-11T11:17:54.842Z,2020-05-11T11:17:54.842Z,18,79,False,['HIDE_THUMBNAIL'],"['天蠍', '曖昧']",{'layout': 'classic'},星座,horoscopes,False,F,,,[],"[{'id': '286f599c-f86a-4932-82f0-f5a06f1eca03', 'count': 78}, {'id': '4b018f48-e184-445f-adf1-fc8e04ba09b9', 'count': 1}]",False,,False,classic,False,False,[],,140360,,,
0,233654004,直女的天蠍,想問板上各位天蠍們，你們表示自己是直女，卻還是會親親別人的臉頰跟抱抱還有勾手咬人嗎？原本有一次他又親了我的臉頰，我故意轉了過去想親嘴，他嚇到後就傻笑，就變成兩個人很尷尬在聊天，後來有一次他嘴巴咬了一塊,True,True,False,4c6964fc-8b39-4480-a844-847f09e4e09d,,2020-05-11T11:15:01.232Z,2020-05-11T11:15:01.232Z,7,14,False,['HIDE_THUMBNAIL'],"['天蠍', '直女']",{'layout': 'classic'},星座,horoscopes,False,F,,,[],"[{'id': '286f599c-f86a-4932-82f0-f5a06f1eca03', 'count': 14}]",False,,False,classic,False,False,[],,140535,,,
0,233653981,摩羯分手後還愛的表現？,請問摩羯男女如果分手後還愛對方的話會有什麼表現？還有分手之後都在想什麼🧐🧐,True,True,False,4c6964fc-8b39-4480-a844-847f09e4e09d,,2020-05-11T11:11:46.655Z,2020-05-11T11:11:46.655Z,5,3,False,['HIDE_THUMBNAIL'],"['摩羯', '分手']",{'layout': 'classic'},星座,horoscopes,False,F,,,[],"[{'id': '286f599c-f86a-4932-82f0-f5a06f1eca03', 'count': 3}]",False,,False,classic,False,False,[],,140731,,,
0,233653735,牡羊男生悶氣,求助各位牡羊男以及男友是牡羊的女孩們，我們家牡羊男因為比賽去外縣市一個禮拜，而剛剛我在外面買東西時他打了電話給我，但因為我人在外面所以講了一下就跟他說 等我回去，那時候他就有點小不爽了，他說他比賽輸了,True,True,False,4c6964fc-8b39-4480-a844-847f09e4e09d,,2020-05-11T10:29:40.136Z,2020-05-11T10:29:40.136Z,4,2,False,['HIDE_THUMBNAIL'],['牡羊'],{'layout': 'classic'},星座,horoscopes,False,F,,,[],"[{'id': '286f599c-f86a-4932-82f0-f5a06f1eca03', 'count': 2}]",False,,False,classic,False,False,[],,143258,,,
0,233653467,獅子座的毛病,1. 遇到喜歡的人 不懂得欲擒故縱 所以遇到風象星座直接GG 被搞死，2. 容易亂想多想，3. 有話直說 不懂得暗示，4. 深夜時最感傷，5. 很在意別人的眼光，6. 常被說控制欲太強，7. 管太多？,True,True,False,4c6964fc-8b39-4480-a844-847f09e4e09d,,2020-05-11T09:40:53.581Z,2020-05-11T09:40:53.581Z,26,100,False,[],"['獅子座', '獅子', '感情']",{'layout': 'classic'},星座,horoscopes,False,M,,,[],"[{'id': '286f599c-f86a-4932-82f0-f5a06f1eca03', 'count': 100}]",False,,False,classic,False,False,[],,146186,,,
0,233653238,天蠍男女請進⋯,跪求各位大大，要怎樣才能成功釣到天蠍男，真的完全不知道在想什麼超神秘，聊了一段時間訊息都會回，只是不常一起見面 懊惱,True,True,False,4c6964fc-8b39-4480-a844-847f09e4e09d,,2020-05-11T08:57:16.045Z,2020-05-11T08:57:16.045Z,4,5,False,['HIDE_THUMBNAIL'],['天蠍'],{'layout': 'classic'},星座,horoscopes,False,F,,,[],"[{'id': '286f599c-f86a-4932-82f0-f5a06f1eca03', 'count': 5}]",False,,False,classic,False,False,[],,148805,,,
0,233652989,求解摩羯男的想法😭,最近認識了一個摩羯男️，處的還算不錯，但前幾天跟他聊到感情的事情，️：現在也都只是抱著玩玩的心態，🥺 ：那你是不是對我也是玩玩的啊？️：沒吧 沒感情的 哪叫玩呀，看到他傳了那個訊息 我就不小心淚崩了,True,True,False,4c6964fc-8b39-4480-a844-847f09e4e09d,,2020-05-11T08:13:32.278Z,2020-05-11T09:59:39.064Z,13,12,False,['HIDE_THUMBNAIL'],"['摩羯', '獅子', '十二星座', '愛情', '曖昧']",{'layout': 'classic'},星座,horoscopes,False,F,,,[],"[{'id': '286f599c-f86a-4932-82f0-f5a06f1eca03', 'count': 12}]",False,,False,classic,False,False,[],,151430,,,
0,233652712,水瓶女說不要再聯絡,請問水瓶女說不要再聯絡是認真的？我知道妳容易想很多，也知道妳一時衝動說想試試看，卻又說自己還沒準備好 說先不要再聯絡？水瓶女這樣說是認真的？,True,True,False,4c6964fc-8b39-4480-a844-847f09e4e09d,,2020-05-11T07:24:53.464Z,2020-05-11T07:24:53.464Z,5,3,False,['HIDE_THUMBNAIL'],['水瓶'],{'layout': 'classic'},星座,horoscopes,False,M,,,[],"[{'id': '286f599c-f86a-4932-82f0-f5a06f1eca03', 'count': 3}]",False,,False,classic,False,False,[],,154349,,,
0,233652549,告白天秤男,目前與神木級的天秤男聊了5個多月，前期幾乎會秒讀秒回，後來隨著時間拉長開始變成3-4天回一次，但內容不敷衍（他工作蠻忙的）聊天的內容沒有曖昧，大部分都是聊一些彼此有興趣的東西，因為自己個性是比較想急著,True,True,False,4c6964fc-8b39-4480-a844-847f09e4e09d,,2020-05-11T07:03:53.828Z,2020-05-11T07:03:53.828Z,17,4,False,['HIDE_THUMBNAIL'],"['天秤', '牡羊', '告白']",{'layout': 'classic'},星座,horoscopes,False,F,,,[],"[{'id': '286f599c-f86a-4932-82f0-f5a06f1eca03', 'count': 4}]",False,,False,classic,False,False,[],,155610,,,
0,233652310,關於親愛的.,想請問金牛座講出「親愛的」三個字的定義是認真的還是買可樂用語,True,True,False,4c6964fc-8b39-4480-a844-847f09e4e09d,,2020-05-11T06:23:52.273Z,2020-05-11T06:23:52.273Z,14,6,False,['HIDE_THUMBNAIL'],['金牛'],{'layout': 'classic'},星座,horoscopes,False,F,,,[],"[{'id': '286f599c-f86a-4932-82f0-f5a06f1eca03', 'count': 6}]",False,,False,classic,False,False,[],,158013,,,
0,233652207,牛眷請進,最近我對我的感情感到有點複雜，不知道該如何處理，我的男朋友金牛，問我 愛不愛他！，金牛突然這樣問的用意是在想什麼,True,True,False,4c6964fc-8b39-4480-a844-847f09e4e09d,,2020-05-11T06:09:17.778Z,2020-05-11T06:09:37.323Z,5,11,False,['HIDE_THUMBNAIL'],"['金牛', '感情']",{'layout': 'classic'},星座,horoscopes,False,F,,,[],"[{'id': '286f599c-f86a-4932-82f0-f5a06f1eca03', 'count': 11}]",False,,False,classic,False,False,[],,158889,,,
0,233652131,請問天秤女的反應...求解,如題，我跟這位天秤女是同事也是私底下會聯絡的朋友（line、ig都會），我們認識不算久，真正變熟是三月開始，平常除了公事之外，大概就是聊些美食、戲劇綜藝之類的話題，不過前幾天她突然用line跟我講了一,False,True,False,4c6964fc-8b39-4480-a844-847f09e4e09d,,2020-05-11T05:56:24.001Z,2020-05-11T06:10:27.892Z,11,9,True,[],"['天秤', '天秤女', '星座', '心情']",{'layout': 'classic'},星座,horoscopes,False,M,,,[],"[{'id': '286f599c-f86a-4932-82f0-f5a06f1eca03', 'count': 9}]",False,,False,classic,False,False,[],,159664,,kbforever,jaslee
0,233651962,天秤男不想分手,我不知道要發感情版還是星座，但覺得星座多少也有一點點點點關係，我跟我男朋友在一起兩年多了，他在幾年就快30歲了，目前住一起，前陣子他認識了一個女生，他會回那女生的訊息，但不會回我的，他也會特別去搜尋那,True,True,False,4c6964fc-8b39-4480-a844-847f09e4e09d,,2020-05-11T05:26:01.452Z,2020-05-11T05:28:59.445Z,6,3,False,['HIDE_THUMBNAIL'],"['天秤', '男生']",{'layout': 'classic'},星座,horoscopes,False,F,,,[],"[{'id': '286f599c-f86a-4932-82f0-f5a06f1eca03', 'count': 3}]",False,,False,classic,False,False,[],,161487,,,
0,233651915,如何撩天蠍,先說一下我是牡羊女，最近認識一個天蠍男，聊的還行，想問如何讓他提升好感🤔,True,True,False,4c6964fc-8b39-4480-a844-847f09e4e09d,,2020-05-11T05:18:20.763Z,2020-05-11T05:18:20.763Z,25,1,False,[],"['天蠍', '愛情', '白羊']",{'layout': 'classic'},星座,horoscopes,False,F,,,[],"[{'id': '286f599c-f86a-4932-82f0-f5a06f1eca03', 'count': 1}]",False,,False,classic,False,False,[],,161949,,,
0,233651691,轉貼-小瑜老師 把水瓶座分析到位了！,我就是討厭你，水瓶座。水瓶座的內心如果能如外表一樣灑脫，那我就不會討厭你。可惜每一個水瓶座，都戴著任由你嬉笑怒罵，看似對每件事情都超脫的態度，在這個太過於麻煩的世界，站在地球表面望著自己的火星家鄉，「,True,True,False,4c6964fc-8b39-4480-a844-847f09e4e09d,,2020-05-11T04:35:54.736Z,2020-05-11T10:08:23.593Z,16,294,False,['HIDE_THUMBNAIL'],"['水瓶座', '十二星座', '星座']",{'layout': 'classic'},星座,horoscopes,False,F,,,[],"[{'id': '286f599c-f86a-4932-82f0-f5a06f1eca03', 'count': 292}, {'id': '514c2569-fd53-4d9d-a415-bf0f88e7329f', 'count': 2}]",False,{},False,classic,False,False,[],,164496,,,
0,233651643,雙子喜歡一個人的時候🥺,一直都有在跟雙子男聊天，有時他講話會讓我覺得他好像有那個意思，可是下一秒他又開始恢復幹話模式，但他最近很常跟我說我都沒有發現他的好什麼的，我就說你該不會是對每個人都這麼好吧，他就說才沒有只有對我是這樣,True,True,False,4c6964fc-8b39-4480-a844-847f09e4e09d,,2020-05-11T04:26:48.875Z,2020-05-11T04:26:48.875Z,11,20,False,['HIDE_THUMBNAIL'],['雙子'],{'layout': 'classic'},星座,horoscopes,False,F,,,[],"[{'id': '286f599c-f86a-4932-82f0-f5a06f1eca03', 'count': 20}]",False,,False,classic,False,False,[],,165043,,,
0,233651530,該怎麼挽回處女男,我是天秤女，事情是這樣的，我已經跟我處女男男友在一起三年多了，我們同居也快三年左右，這中間發生很多事情，他曾經做出對不起我的事 但我已經選擇原諒，但我也更缺乏安全感，而原本以為會有好轉但就在最近我們又,True,True,False,4c6964fc-8b39-4480-a844-847f09e4e09d,,2020-05-11T04:06:18.137Z,2020-05-11T04:06:18.137Z,14,7,False,['HIDE_THUMBNAIL'],"['感情', '愛情', '處女', '處女男', '男友']",{'layout': 'classic'},星座,horoscopes,False,F,,,[],"[{'id': '286f599c-f86a-4932-82f0-f5a06f1eca03', 'count': 7}]",False,,False,classic,False,False,[],,166275,,,
0,233651473,塔羅-你這個月的感情運勢如何,雖然人們常說，每個人都能等到屬於自己的愛情，但對於很多人而言愛情的出現還遙遙無期。 有些人可能經常遇到不好的人，有些人的戀情總是以失敗告終，有些人年齡很大卻從沒談過一場戀愛，有些人雖然談戀愛但很不幸福,True,True,False,4c6964fc-8b39-4480-a844-847f09e4e09d,,2020-05-11T03:55:58.663Z,2020-05-12T04:50:38.826Z,120,271,False,[],"['塔羅', '天蠍', '處女', '水瓶', '巨蟹']",{'layout': 'classic'},星座,horoscopes,False,F,,,"[{'id': '2183613f-5085-4483-be51-2084f8ade522', 'url': 'https://i.imgur.com/gJwdQqnl.jpg', 'normalizedUrl': 'https://i.imgur.com/gJwdQqnl.jpg', 'thumbnail': 'https://i.imgur.com/gJwdQqnl.jpg', 'type': 'image/thumbnail', 'tags': ['ANNOTATED'], 'createdAt': '2020-05-11T03:55:58.663Z', 'updatedAt': '2020-05-12T04:50:38.826Z'}, {'id': '2183613f-5085-4483-be51-2084f8ade522', 'url': 'https://i.imgur.com/gJwdQqn.png', 'normalizedUrl': 'https://imgur.com/gJwdQqn', 'thumbnail': 'https://i.imgur.com/gJwdQqnl.jpg', 'type': 'image/imgur', 'tags': ['ANNOTATED'], 'createdAt': '2020-05-11T03:55:58.663Z', 'updatedAt': '2020-05-12T04:50:38.826Z'}]","[{'id': '286f599c-f86a-4932-82f0-f5a06f1eca03', 'count': 265}, {'id': 'aa0d425f-d530-4478-9a77-fe3aedc79eea', 'count': 4}, {'id': 'e8e6bc5d-41b0-4129-b134-97507523d7ff', 'count': 2}]",False,,False,classic,True,False,[{'url': 'https://i.imgur.com/gJwdQqn.png'}],,166896,,,
0,233651411,搞不懂天蠍男..,想詢問各位了解天蠍的大家🥺，最近在交友上認識一個天蠍男...，也有出去過幾次，相處起來都覺得還不錯，他也蠻貼心的，但重點來了...，我們沒有交換臉書跟IG...，我一直問，他都逃避此話題，想問各位此,True,True,False,4c6964fc-8b39-4480-a844-847f09e4e09d,,2020-05-11T03:46:00.615Z,2020-05-11T03:46:00.615Z,16,3,False,['HIDE_THUMBNAIL'],"['天蠍', '十二星座', '愛情', '曖昧', '星座']",{'layout': 'classic'},星座,horoscopes,False,F,,,[],"[{'id': '286f599c-f86a-4932-82f0-f5a06f1eca03', 'count': 3}]",False,,False,classic,False,False,[],,167495,,,
0,233651406,金牛男🤔🤔,如果跟金牛男告白之後 他沒拒絕也沒答應 這是什麼意思,True,True,False,4c6964fc-8b39-4480-a844-847f09e4e09d,,2020-05-11T03:44:57.218Z,2020-05-11T03:44:57.218Z,6,3,False,[],['金牛'],{'layout': 'classic'},星座,horoscopes,False,F,,,[],"[{'id': '286f599c-f86a-4932-82f0-f5a06f1eca03', 'count': 3}]",False,,False,classic,False,False,[],,167560,,,
0,233651296,獅子座的盧小模式,男友是獅子座，平時跟我玩鬧會很小孩子氣，但認真的時候其實是個嚴肅理性的人（有時候會理性到讓我玻璃心那種），一直以來的相處模式都是淡淡甜甜的，我們都不太喜歡吵架，他跟我以前認識的火爆獅子脾氣不同，算是偏,True,True,False,4c6964fc-8b39-4480-a844-847f09e4e09d,,2020-05-11T03:26:50.807Z,2020-05-11T03:28:27.818Z,2,7,False,['HIDE_THUMBNAIL'],"['獅子座', '摩羯女']",{'layout': 'classic'},星座,horoscopes,False,F,,,[],"[{'id': '286f599c-f86a-4932-82f0-f5a06f1eca03', 'count': 7}]",False,,False,classic,False,False,[],,168647,,,
